004-005 @READ_PROGRAM_MEMORY8.P1
004-005 @WRITE_PROGRAM_MEMORY8.P2
015     CCP_1_LOW
015     CCP_1
016     CCP_1_HIGH
01B     CCP_2
01B     CCP_2_LOW
01C     CCP_2_HIGH
020     x
021-022 I
023-024 J
025-026 K
027-028 L
029     CHOP_TAT.DL
029     SANG_DAN.DL
02A     DELAY_TUY_Y.DL1
02A     SANG_DAN.@SCRATCH1
02B     DELAY_TUY_Y.DL
02B     SANG_DAN.@SCRATCH2
02C     @delay_ms1.P1
077     @SCRATCH
078     @SCRATCH
078     _RETURN_
079     @SCRATCH
07A     @SCRATCH
107.6   C1OUT
108.6   C2OUT
10D-10E @WRITE_PROGRAM_MEMORY8.P1
10D-10E @READ_PROGRAM_MEMORY8.P2

ROM Allocation:
000004  @delay_ms1
000018  CHONG_DOI_CHON
00003A  DELAY_TUY_Y
000045  CHOP_TAT
000057  SANG_DAN
00008E  @cinit1
00008E  MAIN
0000A1  @cinit2

Project Directory:
    E:\Youtube\Pic16F887\Nut_nhan\PHIM_DON\

Project Files:
    Khong_chong_doi.c                                       [08-Sep-16 19:28  CRC=115D9ADF]
    C:\Program Files (x86)\PICC\Devices\16F887.H            [12-Nov-13 14:35  CRC=6CB1A611]

Source signature=EAC0E701

Units:
    Khong_chong_doi (main)

Compiler Settings:
    Processor:      PIC16F887
    Pointer Size:   16
    ADC Range:      0-255
    Opt Level:      9
    Short,Int,Long: UNSIGNED: 1,8,16
    Float,Double:   32,32

Output Files:
    XREF file:   Khong_chong_doi.xsym
    Errors:      Khong_chong_doi.err
    Ext Symbols: Khong_chong_doi.esym
    INHX8:       Khong_chong_doi.hex
    Symbols:     Khong_chong_doi.sym
    List:        Khong_chong_doi.lst
    Debug/COFF:  Khong_chong_doi.cof
    Project:     Khong_chong_doi.ccspjt
    Call Tree:   Khong_chong_doi.tre
    Statistics:  Khong_chong_doi.STA
