CCS PCM C Compiler, Version 5.015, 5967               17-Thg9-16 08:09

               Filename:   E:\Youtube\Pic16F887\TIMER_COUNTER\COUNTER\COUNTER_LED_7DOAN_595_T1\COUNTER_LED_7DOAN_595_T1.lst

               ROM used:   265 words (3%)
                           Largest free fragment is 2048
               RAM used:   12 (3%) at main() level
                           17 (5%) worst case
               Stack used: 2 locations
               Stack size: 8

*
0000:  MOVLW  00
0001:  MOVWF  0A
0002:  GOTO   085
0003:  NOP
.................... #INCLUDE <16F887.H> 
.................... //////////// Standard Header file for the PIC16F887 device //////////////// 
.................... /////////////////////////////////////////////////////////////////////////// 
.................... ////        (C) Copyright 1996, 2013 Custom Computer Services          //// 
.................... //// This source code may only be used by licensed users of the CCS C  //// 
.................... //// compiler.  This source code may only be distributed to other      //// 
.................... //// licensed users of the CCS C compiler.  No other use, reproduction //// 
.................... //// or distribution is permitted without written permission.          //// 
.................... //// Derivative programs created using this software in object code    //// 
.................... //// form are not restricted in any way.                               //// 
.................... /////////////////////////////////////////////////////////////////////////// 
.................... #device PIC16F887 
0004:  BCF    0A.0
0005:  BCF    0A.1
0006:  BCF    0A.2
0007:  ADDWF  02,F
0008:  RETLW  C0
0009:  RETLW  F9
000A:  RETLW  A4
000B:  RETLW  B0
000C:  RETLW  99
000D:  RETLW  92
000E:  RETLW  82
000F:  RETLW  F8
0010:  RETLW  80
0011:  RETLW  90
0012:  RETLW  88
0013:  RETLW  83
0014:  RETLW  C6
0015:  RETLW  A1
0016:  RETLW  86
0017:  RETLW  8E
0018:  MOVF   27,W
0019:  CLRF   78
001A:  SUBWF  26,W
001B:  BTFSC  03.0
001C:  GOTO   020
001D:  MOVF   26,W
001E:  MOVWF  77
001F:  GOTO   02C
0020:  CLRF   77
0021:  MOVLW  08
0022:  MOVWF  28
0023:  RLF    26,F
0024:  RLF    77,F
0025:  MOVF   27,W
0026:  SUBWF  77,W
0027:  BTFSC  03.0
0028:  MOVWF  77
0029:  RLF    78,F
002A:  DECFSZ 28,F
002B:  GOTO   023
002C:  RETURN
002D:  CLRF   78
002E:  CLRF   79
002F:  CLRF   77
0030:  CLRF   7A
0031:  MOVF   28,W
0032:  BTFSS  03.2
0033:  GOTO   037
0034:  MOVF   27,W
0035:  BTFSC  03.2
0036:  GOTO   051
0037:  MOVLW  10
0038:  MOVWF  29
0039:  BCF    03.0
003A:  RLF    25,F
003B:  RLF    26,F
003C:  RLF    77,F
003D:  RLF    7A,F
003E:  MOVF   28,W
003F:  SUBWF  7A,W
0040:  BTFSS  03.2
0041:  GOTO   044
0042:  MOVF   27,W
0043:  SUBWF  77,W
0044:  BTFSS  03.0
0045:  GOTO   04D
0046:  MOVF   27,W
0047:  SUBWF  77,F
0048:  BTFSS  03.0
0049:  DECF   7A,F
004A:  MOVF   28,W
004B:  SUBWF  7A,F
004C:  BSF    03.0
004D:  RLF    78,F
004E:  RLF    79,F
004F:  DECFSZ 29,F
0050:  GOTO   039
0051:  BCF    0A.3
0052:  BCF    0A.4
0053:  GOTO   0DA (RETURN)
....................  
.................... #list 
....................  
.................... #FUSES NOWDT, PUT, HS, NOPROTECT, NOLVP 
.................... #USE DELAY(CLOCK=20M) 
....................  
.................... #INCLUDE <TV_4LED_7DOAN.C> 
.................... #DEFINE CLK   PIN_D1 
.................... #DEFINE DS    PIN_D2 
.................... #DEFINE ST    PIN_D3 
....................  
.................... CONST UNSIGNED CHAR MA7DOAN[16]= {0XC0,0XF9,0xA4,0XB0,0X99,0X92,0X82,0XF8, 
.................... 0X80,0X90,0x88, 0x83, 0xC6, 0xA1, 0x86, 0x8E}; 
....................  
.................... //XUAT 1 BYTE RA THANH GHI DICH 
.................... //XXXXXXXXXXXXXXXXXXXXXXXXXXXXXXXXXXXXXXXXXXXX     
.................... VOID XUAT_1BYTE(UNSIGNED INT8 BYTEXUAT) 
.................... { 
....................    UNSIGNED INT8   SB,X;    
....................    #BIT BSERI  = X.7 
....................    X = BYTEXUAT; 
0054:  MOVF   29,W
0055:  MOVWF  2B
....................    FOR (SB=0;SB<8;SB++) 
0056:  CLRF   2A
0057:  MOVF   2A,W
0058:  SUBLW  07
0059:  BTFSS  03.0
005A:  GOTO   06D
....................       {                                                  
....................          OUTPUT_BIT(DS,BSERI);     
005B:  BTFSC  2B.7
005C:  GOTO   05F
005D:  BCF    08.2
005E:  GOTO   060
005F:  BSF    08.2
0060:  BSF    03.5
0061:  BCF    08.2
....................          OUTPUT_LOW(CLK); OUTPUT_HIGH(CLK); 
0062:  BCF    08.1
0063:  BCF    03.5
0064:  BCF    08.1
0065:  BSF    03.5
0066:  BCF    08.1
0067:  BCF    03.5
0068:  BSF    08.1
....................          X= X<<1;          
0069:  BCF    03.0
006A:  RLF    2B,F
006B:  INCF   2A,F
006C:  GOTO   057
....................      } 
006D:  RETURN
.................... } 
....................  
.................... //XXXXXXXXXXXXXXXXXXXXXXXXXXXXXXXXXXXXXXXXXXXXXXX 
.................... VOID XUAT_4LED_7DOAN_4SO(UNSIGNED INT BL1,BL2,BL3,BL4) 
.................... { 
....................    XUAT_1BYTE(BL4); 
006E:  MOVF   28,W
006F:  MOVWF  29
0070:  CALL   054
....................    XUAT_1BYTE(BL3); 
0071:  MOVF   27,W
0072:  MOVWF  29
0073:  CALL   054
....................    XUAT_1BYTE(BL2); 
0074:  MOVF   26,W
0075:  MOVWF  29
0076:  CALL   054
....................    XUAT_1BYTE(BL1); 
0077:  MOVF   25,W
0078:  MOVWF  29
0079:  CALL   054
....................     
....................    OUTPUT_LOW(ST);      
007A:  BSF    03.5
007B:  BCF    08.3
007C:  BCF    03.5
007D:  BCF    08.3
....................    OUTPUT_HIGH(ST); 
007E:  BSF    03.5
007F:  BCF    08.3
0080:  BCF    03.5
0081:  BSF    08.3
0082:  BCF    0A.3
0083:  BCF    0A.4
0084:  GOTO   0FF (RETURN)
....................        
.................... } 
....................  
....................  
....................  
.................... UNSIGNED INT8 T1,DV,CHUC, TRAM,NGAN; 
....................  
.................... VOID MAIN() 
0085:  MOVF   03,W
0086:  ANDLW  1F
0087:  MOVWF  03
0088:  BSF    03.5
0089:  BSF    03.6
008A:  MOVF   09,W
008B:  ANDLW  C0
008C:  MOVWF  09
008D:  BCF    03.6
008E:  BCF    1F.4
008F:  BCF    1F.5
0090:  MOVLW  00
0091:  BSF    03.6
0092:  MOVWF  08
0093:  BCF    03.5
0094:  CLRF   07
0095:  CLRF   08
0096:  CLRF   09
0097:  BCF    03.7
.................... { 
....................    SET_TRIS_D(0X00); 
0098:  MOVLW  00
0099:  BSF    03.5
009A:  BCF    03.6
009B:  MOVWF  08
....................    SET_TRIS_B(0X00); 
009C:  MOVWF  06
....................     
....................    SETUP_TIMER_1(T1_EXTERNAL|T1_DIV_BY_1); 
009D:  MOVLW  07
009E:  BCF    03.5
009F:  MOVWF  10
....................    SET_TIMER1(0); 
00A0:  CLRF   0E
00A1:  CLRF   0F
00A2:  CLRF   0E
....................     
....................    WHILE(TRUE) 
....................    { 
....................       T1 = GET_TIMER1(); 
00A3:  MOVF   0F,W
00A4:  MOVWF  7A
00A5:  MOVF   0E,W
00A6:  MOVWF  77
00A7:  MOVF   0F,W
00A8:  SUBWF  7A,W
00A9:  BTFSS  03.2
00AA:  GOTO   0A3
00AB:  MOVF   77,W
00AC:  MOVWF  20
....................       DV=MA7DOAN[T1%10];            CHUC = MA7DOAN[T1/10%10]; 
00AD:  MOVF   20,W
00AE:  MOVWF  26
00AF:  MOVLW  0A
00B0:  MOVWF  27
00B1:  CALL   018
00B2:  MOVF   77,W
00B3:  CALL   004
00B4:  MOVWF  78
00B5:  MOVWF  21
00B6:  MOVF   20,W
00B7:  MOVWF  26
00B8:  MOVLW  0A
00B9:  MOVWF  27
00BA:  CALL   018
00BB:  MOVF   78,W
00BC:  MOVWF  26
00BD:  MOVLW  0A
00BE:  MOVWF  27
00BF:  CALL   018
00C0:  MOVF   77,W
00C1:  CALL   004
00C2:  MOVWF  78
00C3:  MOVWF  22
....................       TRAM=MA7DOAN[T1/100%10];      NGAN = MA7DOAN[T1/1000]; 
00C4:  MOVF   20,W
00C5:  MOVWF  26
00C6:  MOVLW  64
00C7:  MOVWF  27
00C8:  CALL   018
00C9:  MOVF   78,W
00CA:  MOVWF  26
00CB:  MOVLW  0A
00CC:  MOVWF  27
00CD:  CALL   018
00CE:  MOVF   77,W
00CF:  CALL   004
00D0:  MOVWF  78
00D1:  MOVWF  23
00D2:  CLRF   26
00D3:  MOVF   20,W
00D4:  MOVWF  25
00D5:  MOVLW  03
00D6:  MOVWF  28
00D7:  MOVLW  E8
00D8:  MOVWF  27
00D9:  GOTO   02D
00DA:  MOVF   79,W
00DB:  MOVWF  26
00DC:  MOVF   78,W
00DD:  MOVWF  25
00DE:  MOVF   79,W
00DF:  MOVWF  7A
00E0:  MOVF   78,W
00E1:  CALL   004
00E2:  MOVWF  78
00E3:  MOVWF  24
....................       IF(NGAN==0XC0) 
00E4:  MOVF   24,W
00E5:  SUBLW  C0
00E6:  BTFSS  03.2
00E7:  GOTO   0F6
....................       { 
....................          NGAN=0XFF; 
00E8:  MOVLW  FF
00E9:  MOVWF  24
....................          IF(TRAM==0XC0) 
00EA:  MOVF   23,W
00EB:  SUBLW  C0
00EC:  BTFSS  03.2
00ED:  GOTO   0F6
....................          { 
....................             TRAM=0XFF; 
00EE:  MOVLW  FF
00EF:  MOVWF  23
....................             IF(CHUC==0XC0) 
00F0:  MOVF   22,W
00F1:  SUBLW  C0
00F2:  BTFSS  03.2
00F3:  GOTO   0F6
....................             CHUC = 0XFF; 
00F4:  MOVLW  FF
00F5:  MOVWF  22
....................          } 
....................       } 
....................        
....................       XUAT_4LED_7DOAN_4SO(NGAN,TRAM,CHUC,DV); 
00F6:  MOVF   24,W
00F7:  MOVWF  25
00F8:  MOVF   23,W
00F9:  MOVWF  26
00FA:  MOVF   22,W
00FB:  MOVWF  27
00FC:  MOVF   21,W
00FD:  MOVWF  28
00FE:  GOTO   06E
....................        
....................       IF(T1==2000)  SET_TIMER1(1); 
00FF:  MOVF   20,W
0100:  SUBLW  D0
0101:  BTFSS  03.2
0102:  GOTO   107
0103:  CLRF   0E
0104:  CLRF   0F
0105:  MOVLW  01
0106:  MOVWF  0E
0107:  GOTO   0A3
....................    } 
.................... } 
....................  
0108:  SLEEP

Configuration Fuses:
   Word  1: 2FE2   HS NOWDT PUT MCLR NOPROTECT NOCPD BROWNOUT IESO FCMEN NOLVP NODEBUG
   Word  2: 3FFF   BORV40 NOWRT
