004-005 @READ_PROGRAM_MEMORY8.P1
004-005 @WRITE_PROGRAM_MEMORY8.P2
015     CCP_1_LOW
015     CCP_1
016     CCP_1_HIGH
01B     CCP_2_LOW
01B     CCP_2
01C     CCP_2_HIGH
020     L
021-022 I
023     @delay_ms1.P1
023     HIENTHI.@SCRATCH1
024     HIENTHI.@SCRATCH2
025-026 @DIV1616.P1
025     HIENTHI.@SCRATCH3
027-028 @DIV1616.P1
029     @DIV1616.@SCRATCH1
077     @SCRATCH
078     @SCRATCH
078     _RETURN_
079     @SCRATCH
07A     @SCRATCH
107.6   C1OUT
108.6   C2OUT
10D-10E @WRITE_PROGRAM_MEMORY8.P1
10D-10E @READ_PROGRAM_MEMORY8.P2

ROM Allocation:
000004  MA7DOAN.call
000008  MA7DOAN.data
000018  @DIV1616
00003D  @delay_ms1
000051  HIENTHI
0000F5  MAIN
0000F5  @cinit1
000107  @cinit2

Project Directory:
    E:\Youtube\8LED_7DOAN_QUET\

Project Files:
    led_7doan_quet.c                                        [16-Aug-16 15:48  CRC=81827E58]
    C:\Program Files (x86)\PICC\devices\16F887.H            [12-Nov-13 14:35  CRC=6CB1A611]

Source signature=5AE5CA7A

Units:
    led_7doan_quet (main)

Compiler Settings:
    Processor:      PIC16F887
    Pointer Size:   16
    ADC Range:      0-255
    Opt Level:      9
    Short,Int,Long: UNSIGNED: 1,8,16
    Float,Double:   32,32

Output Files:
    XREF file:   led_7doan_quet.xsym
    Errors:      led_7doan_quet.err
    Ext Symbols: led_7doan_quet.esym
    INHX8:       led_7doan_quet.hex
    Symbols:     led_7doan_quet.sym
    List:        led_7doan_quet.lst
    Debug/COFF:  led_7doan_quet.cof
    Project:     led_7doan_quet.ccspjt
    Call Tree:   led_7doan_quet.tre
    Statistics:  led_7doan_quet.STA
