004-005 @READ_PROGRAM_MEMORY8.P1
004-005 @WRITE_PROGRAM_MEMORY8.P2
00C.0   TMR1IF
010.0   TMR1ON
010     T1CON
015     CCP_1_LOW
015     CCP_1
016     CCP_1_HIGH
01B     CCP_2_LOW
01B     CCP_2
01C     CCP_2_HIGH
020     x
021     BDT
022.0   CHOPHEP
023     @TRIS_C
024     @DIV88.P1
024     MAIN.@SCRATCH1
025     @DIV88.P1
026     @DIV88.@SCRATCH1
077     @SCRATCH
078     @SCRATCH
078     _RETURN_
079     @SCRATCH
07A     @SCRATCH
107.6   C1OUT
108.6   C2OUT
10D-10E @READ_PROGRAM_MEMORY8.P1
10D-10E @WRITE_PROGRAM_MEMORY8.P2

ROM Allocation:
000004  MA7DOAN.call
000008  MA7DOAN.data
000018  @DIV88
00002D  MAIN
00002D  @cinit1
000041  @cinit2

Project Directory:
    E:\Youtube\Pic16F887\TIMER_COUNTER\TIMER\LED_7DOAN_TT\

Project Files:
    TIMER_LED_7DOAN_TT.c                                    [20-Thg9-16 19:38  CRC=2A0AAD7A]
    C:\Program Files (x86)\PICC\devices\16F887.H            [12-Thg11-13 14:35  CRC=6CB1A611]

Source signature=036DF99C

Units:
    TIMER_LED_7DOAN_TT (main)

Compiler Settings:
    Processor:      PIC16F887
    Pointer Size:   16
    ADC Range:      0-255
    Opt Level:      9
    Short,Int,Long: UNSIGNED: 1,8,16
    Float,Double:   32,32

Output Files:
    XREF file:   TIMER_LED_7DOAN_TT.xsym
    Errors:      TIMER_LED_7DOAN_TT.err
    Ext Symbols: TIMER_LED_7DOAN_TT.esym
    INHX8:       TIMER_LED_7DOAN_TT.hex
    Symbols:     TIMER_LED_7DOAN_TT.sym
    List:        TIMER_LED_7DOAN_TT.lst
    Debug/COFF:  TIMER_LED_7DOAN_TT.cof
    Project:     TIMER_LED_7DOAN_TT.ccspjt
    Call Tree:   TIMER_LED_7DOAN_TT.tre
    Statistics:  TIMER_LED_7DOAN_TT.STA
