004-005 @READ_PROGRAM_MEMORY8.P1
004-005 @WRITE_PROGRAM_MEMORY8.P2
015     CCP_1
015     CCP_1_LOW
016     CCP_1_HIGH
01B     CCP_2_LOW
01B     CCP_2
01C     CCP_2_HIGH
020-027 hello
028-037 LED7
038     I
039     K
03A     L
03B     B1
03C     B2
03D     B3
03E     B4
03F     B5
040     B6
041     B7
042     B0
043     @DIVS88.P1
043     HIENTHI_DEM.@SCRATCH1
043     DICH_LED7.@SCRATCH1
043     MAIN.@SCRATCH1
044     @delay_ms1.P1
044     @DIVS88.P2
044     DICH_LED7.@SCRATCH2
045     @DIVS88.@SCRATCH1
045     DICH_LED7.@SCRATCH3
046     @DIVS88.@SCRATCH2
077     @SCRATCH
078     @SCRATCH
078     _RETURN_
079     @SCRATCH
07A     @SCRATCH
107.6   C1OUT
108.6   C2OUT
10D-10E @READ_PROGRAM_MEMORY8.P1
10D-10E @WRITE_PROGRAM_MEMORY8.P2

ROM Allocation:
000004  MA7DOAN.call
000008  MA7DOAN.data
000018  @delay_ms1
00002C  HIENTHI
0000B6  DICH_LED7
0000DE  GIAI_MA
0000F1  HIENTHI_NHAY
00014D  @DIVS88
000172  HIENTHI_DEM
0001AE  MAIN
0001AE  @cinit1
0001C0  @cinit2

Project Directory:
    E:\Youtube\Pic16F887\8LED_7DOAN_QUET\test_dich\

Project Files:
    test_dich.c                                             [24-Thg10-16 23:11  CRC=015C1183]
    C:\Program Files (x86)\PICC\Devices\16F887.H            [12-Thg11-13 14:35  CRC=6CB1A611]

Source signature=DABF5DA5

Units:
    test_dich (main)

Compiler Settings:
    Processor:      PIC16F887
    Pointer Size:   16
    ADC Range:      0-255
    Opt Level:      9
    Short,Int,Long: UNSIGNED: 1,8,16
    Float,Double:   32,32

Output Files:
    XREF file:   test_dich.xsym
    Errors:      test_dich.err
    Ext Symbols: test_dich.esym
    INHX8:       test_dich.hex
    Symbols:     test_dich.sym
    List:        test_dich.lst
    Debug/COFF:  test_dich.cof
    Project:     test_dich.ccspjt
    Call Tree:   test_dich.tre
    Statistics:  test_dich.STA
