004     @WRITE_PROGRAM_MEMORY8.P1
004-005 @READ_PROGRAM_MEMORY8.P2
015     CCP_1
015     CCP_1_LOW
016     CCP_1_HIGH
01B     CCP_2
01B     CCP_2_LOW
01C     CCP_2_HIGH
021     SETUP_GLCD.GLCD_FUNCTION_SET_MODE
021     @PSTRINGC7_69.@SCRATCH1
022     @delay_ms1.P1
022     GLCD_COMMAND.GLCD_DATA2
022     @PSTRINGC7_69.@SCRATCH2
023     @PSTRINGC7_69.@SCRATCH3
024     GLCD_DATA.GLCD_DATA3
025     GLCD_XUAT_8BIT.GLCD_DATA1
077     @SCRATCH
078     @SCRATCH
078     _RETURN_
079     @SCRATCH
07A     @SCRATCH
107.6   C1OUT
108.6   C2OUT
10D-10E @READ_PROGRAM_MEMORY8.P1
10D-10E @WRITE_PROGRAM_MEMORY8.P2

ROM Allocation:
004D  @delay_ms1
0009  GLCD_XUAT_8BIT
001C  GLCD_COMMAND
006B  GLCD_DATA
0024  SETUP_GLCD
00BB  MAIN
0004  @const77
0073  @PSTRINGC7_69
00BB  @cinit


User Memory space: 

User Memory space: 

Project Directory:
    D:\Cac_mon\TT_VXL\Module_pic\LCD\LCD_128x64\

Project Files:
    TEST_GLCD_128x64.c
    C:\Program Files (x86)\PICC\devices\16F887.H
    TV_LCD_128x64.C

Units:
    D:\Cac_mon\TT_VXL\Module_pic\LCD\LCD_128x64\TEST_GLCD_128x64 (main)

Compiler Settings:
    Processor:      PIC16F887
    Pointer Size:   16
    ADC Range:      0-1023
    Opt Level:      9
    Short,Int,Long: UNSIGNED: 1,8,16
    Float,Double:   32,32

Output Files:
    Errors:      TEST_GLCD_128x64.err
    Ext Symbols: TEST_GLCD_128x64.esym
    INHX8:       TEST_GLCD_128x64.hex
    Symbols:     TEST_GLCD_128x64.sym
    List:        TEST_GLCD_128x64.lst
    Debug/COFF:  TEST_GLCD_128x64.cof
    Project:     TEST_GLCD_128x64.PJT
    Call Tree:   TEST_GLCD_128x64.tre
    Statistics:  TEST_GLCD_128x64.sta
