004-005 @READ_PROGRAM_MEMORY8.P1
004-005 @WRITE_PROGRAM_MEMORY8.P2
015     CCP_1_LOW
015     CCP_1
016     CCP_1_HIGH
01B     CCP_2_LOW
01B     CCP_2
01C     CCP_2_HIGH
020     @INTERRUPT_AREA
021     @INTERRUPT_AREA
022     @INTERRUPT_AREA
023     @INTERRUPT_AREA
024     @INTERRUPT_AREA
025     @INTERRUPT_AREA
026     @INTERRUPT_AREA
027     GIAY
028     GIO
029     PHUT
02A     BDN
02B     GIA_TRI
02C     @DIV88.P1
02C     @delay_ms1.P2
02C     HIENTHI.@SCRATCH1
02D     @DIV88.P1
02E     @DIV88.@SCRATCH1
077     @SCRATCH
078     @SCRATCH
078     _RETURN_
079     @SCRATCH
07A     @SCRATCH
07F     @INTERRUPT_AREA
0FF     @INTERRUPT_AREA
107.6   C1OUT
108.6   C2OUT
10D-10E @WRITE_PROGRAM_MEMORY8.P1
10D-10E @READ_PROGRAM_MEMORY8.P2
17F     @INTERRUPT_AREA
1FF     @INTERRUPT_AREA
27F     @INTERRUPT_AREA
2FF     @INTERRUPT_AREA
37F     @INTERRUPT_AREA
3FF     @INTERRUPT_AREA
47F     @INTERRUPT_AREA
4FF     @INTERRUPT_AREA
57F     @INTERRUPT_AREA
5FF     @INTERRUPT_AREA
67F     @INTERRUPT_AREA
6FF     @INTERRUPT_AREA
77F     @INTERRUPT_AREA
7FF     @INTERRUPT_AREA
87F     @INTERRUPT_AREA
8FF     @INTERRUPT_AREA
97F     @INTERRUPT_AREA
9FF     @INTERRUPT_AREA
A7F     @INTERRUPT_AREA
AFF     @INTERRUPT_AREA
B7F     @INTERRUPT_AREA
BFF     @INTERRUPT_AREA
C7F     @INTERRUPT_AREA
CFF     @INTERRUPT_AREA
D7F     @INTERRUPT_AREA
DFF     @INTERRUPT_AREA
E7F     @INTERRUPT_AREA
EFF     @INTERRUPT_AREA
F7F     @INTERRUPT_AREA
FFF     @INTERRUPT_AREA

ROM Allocation:
000031  MA7DOAN.call
000035  MA7DOAN.data
000045  INTERRUPT_TIMER1
00004F  @DIV88
000064  @delay_ms1
000078  HIENTHI
000109  PHIM_MOD
000123  PHIM_UP
00015A  PHIM_DW
000191  tat
0001DC  MAIN
0001DC  @cinit1
0001EE  @cinit2

Project Directory:
    E:\Youtube\Pic16F887\Ngat_timer\ngat_led_7doan_quet\

Project Files:
    ngat_led_7doan_quet.c                                   [07-Thg10-16 17:11  CRC=C2E69006]
    C:\Program Files (x86)\PICC\Devices\16F887.H            [12-Thg11-13 14:35  CRC=6CB1A611]

Source signature=9C49DC28

Units:
    ngat_led_7doan_quet (main)

Compiler Settings:
    Processor:      PIC16F887
    Pointer Size:   16
    ADC Range:      0-255
    Opt Level:      9
    Short,Int,Long: UNSIGNED: 1,8,16
    Float,Double:   32,32

Output Files:
    XREF file:   ngat_led_7doan_quet.xsym
    Errors:      ngat_led_7doan_quet.err
    Ext Symbols: ngat_led_7doan_quet.esym
    INHX8:       ngat_led_7doan_quet.hex
    Symbols:     ngat_led_7doan_quet.sym
    List:        ngat_led_7doan_quet.lst
    Debug/COFF:  ngat_led_7doan_quet.cof
    Project:     ngat_led_7doan_quet.ccspjt
    Call Tree:   ngat_led_7doan_quet.tre
    Statistics:  ngat_led_7doan_quet.STA
