004-005 @READ_PROGRAM_MEMORY8.P1
004-005 @WRITE_PROGRAM_MEMORY8.P2
015     CCP_1_LOW
015     CCP_1
016     CCP_1_HIGH
01B     CCP_2_LOW
01B     CCP_2
01C     CCP_2_HIGH
020     H
021     T
022     @TRIS_C
023     NAM_DS13
024     THANG_DS13
025     NGAY_DS13
026     THU_DS13
027     GIO_DS13
028     PHUT_DS13
029     GIAY_DS13
02A     MA_DS13
02B     CONTROL_DS13
02C     I
02D     DEM
02E-02F J
030-031 KQADC
032-033 K
034     NGAY_AM
035     THANG_AM
036     GIATRI_MOD
037     @I2C_READ_1.P1
037-03A @SFTOI.P2
037-038 @ITOF.P3
037     LICH_VIETNAM.NGAY
037     @DIV88.P1
037     @delay_ms1.P2
037-038 @DIV1616.P3
037     BIN_BCD.BIN
037     LAY_MA_8DOAN.@SCRATCH1
037     NAP_THOI_GIAN_HTAI_VAO_DS13B07.@SCRATCH1
037     DOC_THOI_GIAN_TU_REALTIME.@SCRATCH1
037     HIENTHI_NHIET_DO.@SCRATCH1
037     HIENTHI_THOI_GIAN.@SCRATCH1
037     @PSTRINGC7_624.@SCRATCH1
038     BCD_BIN.BCD
038     LICH_VIETNAM.THANG
038     @DIV88.P1
038     BIN_BCD.L
038     HIENTHI_FONT_LON.SO
038     @I2C_WRITE_1.P1
038     @I2C_READ_1.@SCRATCH1
038     HIENTHI_NHIET_DO.@SCRATCH2
038     HIENTHI_THOI_GIAN.@SCRATCH2
038     @PSTRINGC7_624.@SCRATCH2
039     BCD_BIN.x
039     HIENTHI_FONT_LON.X1
039     LICH_VIETNAM.NAM
039-03A @DIV1616.P1
039     BIN_BCD.H
039     @I2C_READ_1.@SCRATCH2
039     HIENTHI_NHIET_DO.@SCRATCH3
039     @DIV88.@SCRATCH1
039     @PSTRINGC7_624.@SCRATCH3
03A     HIENTHI_FONT_LON.Y1
03A     LICH_VIETNAM.LUU
03A     BCD_BIN.Y
03A     HIENTHI_NHIET_DO.@SCRATCH4
03A     @PSTRINGC7_624.@SCRATCH4
03B     LICH_VIETNAM.DA
03B-03E @DIVFF.P1
03B     HIENTHI_FONT_LON.@SCRATCH1
03B     BCD_BIN.@SCRATCH1
03B     @DIV1616.@SCRATCH1
03C     LCD_DATA.MHT
03C     LCD_GOTO_XY.x
03C     LICH_VIETNAM.DB
03C     BCD_BIN.@SCRATCH2
03D     LICH_VIETNAM.LUU_THANG
03D     LCD_GOTO_XY.Y
03E     LCD_GOTO_XY.@SCRATCH1
03E     LICH_VIETNAM.@SCRATCH1
03F     LCD_COMMAND.MDK
03F-042 @DIVFF.P1
03F     LICH_VIETNAM.@SCRATCH2
040     @MUL88.P1
041     @MUL88.P1
043     @DIVFF.@SCRATCH1
044     @DIVFF.@SCRATCH2
045     @DIVFF.@SCRATCH3
046     @DIVFF.@SCRATCH4
047     @DIVFF.@SCRATCH5
048     @DIVFF.@SCRATCH6
077     @SCRATCH
078     @SCRATCH
078     _RETURN_
079     @SCRATCH
07A     @SCRATCH
107.6   C1OUT
108.6   C2OUT
10D-10E @READ_PROGRAM_MEMORY8.P1
10D-10E @WRITE_PROGRAM_MEMORY8.P2

ROM Allocation:
000004  LCD_SO_X.call
000008  LCD_SO_X.data
000056  LCD_MA_8DOAN.call
00005A  LCD_MA_8DOAN.data
00009A  LCD_VITRI.call
00009E  LCD_VITRI.data
0000A2  ALdauthangDL.call
0000A9  ALdauthangDL.data
000169  thangALdauthangDL.call
000170  thangALdauthangDL.data
000230  DLdauthangAL.call
000234  DLdauthangAL.data
0002F4  thangDLdauthangAL.call
0002FB  thangDLdauthangAL.data
0003BB  @const725.call
0003BC  @const727.call
0003BE  @const728.call
0003BF  @const729.call
0003C1  @const730.call
0003C6  @const731.call
0003C9  @const732.call
0003CE  @const736.call
0003CF  @const737.call
0003D0  @const738.call
0003D1  @const739.call
0003D2  LCD_COMMAND
0003F0  @delay_ms1
000404  LCD_SETUP
00042F  @I2C_WRITE_1
00048B  @I2C_READ_1
0004DF  @MUL88
000504  BCD_BIN
00051B  DOC_THOI_GIAN_TU_REALTIME
0005CE  LICH_VIETNAM
000635  THIET_LAP_THOI_GIAN_HIEN_TAI
000647  BIN_BCD
00065A  NAP_THOI_GIAN_HTAI_VAO_DS13B07
0006D5  LCD_DATA
0006F3  LAY_MA_8DOAN
00070B  @DIV88
000720  @PSTRINGC7_624
000776  @DIV1616
00079B  LCD_GOTO_XY
0007A2  HIENTHI_FONT_LON
0007C5  PHIM_MOD
000800  HIENTHI_THOI_GIAN
0009CF  @DIVFF
000A99  HIENTHI_NHIET_DO
000ABA  @ITOF
000B06  @SFTOI
000B3F  PHIM_UP
000BDD  PHIM_DW
000C71  NHAP_NHAY
000C9E  @goto10991
000CA8  @cinit1
000CA8  MAIN
000CBE  @cinit2

Project Directory:
    E:\Youtube\Pic16F887\LCD\LCD_20X4\

Project Files:
    TEST_LCD_20x4.c                                         [29-Thg10-16 21:29  CRC=BC45E6E6]
    C:\Program Files (x86)\PICC\Devices\16F887.H            [12-Thg11-13 14:35  CRC=6CB1A611]
    ..\..\THU_VIEN\TV_LCD_20x4.c                            [18-Thg10-16 20:32  CRC=28CA0F27]

Source signature=7A8BAB45

Units:
    TEST_LCD_20x4 (main)

Compiler Settings:
    Processor:      PIC16F887
    Pointer Size:   16
    ADC Range:      0-1023
    Opt Level:      9
    Short,Int,Long: UNSIGNED: 1,8,16
    Float,Double:   32,32

Output Files:
    XREF file:   TEST_LCD_20x4.xsym
    Errors:      TEST_LCD_20x4.err
    Ext Symbols: TEST_LCD_20x4.esym
    INHX8:       TEST_LCD_20x4.hex
    Symbols:     TEST_LCD_20x4.sym
    List:        TEST_LCD_20x4.lst
    Debug/COFF:  TEST_LCD_20x4.cof
    Project:     TEST_LCD_20x4.ccspjt
    Call Tree:   TEST_LCD_20x4.tre
    Statistics:  TEST_LCD_20x4.STA
