004-005 @READ_PROGRAM_MEMORY8.P1
004-005 @WRITE_PROGRAM_MEMORY8.P2
015     CCP_1_LOW
015     CCP_1
016     CCP_1_HIGH
01B     CCP_2_LOW
01B     CCP_2
01C     CCP_2_HIGH
020     H
021     T
022     VITRI
023     I
024     J
025     LCD_COMMAND.MDK
025     MAIN.@SCRATCH1
026     @delay_ms1.P1
026     LCD_DATA.MHT
077     @SCRATCH
078     @SCRATCH
078     _RETURN_
079     @SCRATCH
07A     @SCRATCH
107.6   C1OUT
108.6   C2OUT
10D-10E @READ_PROGRAM_MEMORY8.P1
10D-10E @WRITE_PROGRAM_MEMORY8.P2

ROM Allocation:
000004  HANG.call
000008  HANG.data
000032  LCD_COMMAND
000050  @delay_ms1
000064  LCD_SETUP
00008F  LCD_DATA
0000AF  @cinit1
0000AF  MAIN
0000C1  @cinit2

Project Directory:
    E:\Youtube\Pic16F887\LCD\LCD_20X4\

Project Files:
    test_dich.c                                             [29-Thg10-16 21:41  CRC=86DD607E]
    C:\Program Files (x86)\PICC\Devices\16F887.H            [12-Thg11-13 14:35  CRC=6CB1A611]
    ..\..\THU_VIEN\TV_LCD_20x4.c                            [18-Thg10-16 20:32  CRC=28CA0F27]

Source signature=452324DD

Units:
    test_dich (main)

Compiler Settings:
    Processor:      PIC16F887
    Pointer Size:   16
    ADC Range:      0-255
    Opt Level:      9
    Short,Int,Long: UNSIGNED: 1,8,16
    Float,Double:   32,32

Output Files:
    XREF file:   test_dich.xsym
    Errors:      test_dich.err
    Ext Symbols: test_dich.esym
    INHX8:       test_dich.hex
    Symbols:     test_dich.sym
    List:        test_dich.lst
    Debug/COFF:  test_dich.cof
    Project:     test_dich.ccspjt
    Call Tree:   test_dich.tre
    Statistics:  test_dich.STA
