CCS PCM C Compiler, Version 4.104, 5967               09-Aug-16 22:43

               Filename: E:\Youtube\TIMER_COUNTER\COUNTER\COUNTER_LCD_20X4_T1\COUNTER_LCD_20X4_T1.lst

               ROM used: 320 words (4%)
                         Largest free fragment is 2048
               RAM used: 8 (2%) at main() level
                         12 (3%) worst case
               Stack:    2 locations

*
0000:  MOVLW  01
0001:  MOVWF  0A
0002:  GOTO   104
0003:  NOP
.................... #INCLUDE <16F887.H> 
.................... //////// Standard Header file for the PIC16F887 device //////////////// 
.................... #device PIC16F887 
.................... #list 
....................  
.................... #FUSES NOWDT, PUT, HS, NOPROTECT, NOLVP 
.................... #USE DELAY(CLOCK=20M) 
*
0025:  MOVLW  23
0026:  MOVWF  04
0027:  BCF    03.7
0028:  MOVF   00,W
0029:  BTFSC  03.2
002A:  GOTO   038
002B:  MOVLW  06
002C:  MOVWF  78
002D:  CLRF   77
002E:  DECFSZ 77,F
002F:  GOTO   02E
0030:  DECFSZ 78,F
0031:  GOTO   02D
0032:  MOVLW  7B
0033:  MOVWF  77
0034:  DECFSZ 77,F
0035:  GOTO   034
0036:  DECFSZ 00,F
0037:  GOTO   02B
0038:  RETURN
.................... #INCLUDE <E:\Youtube\THU_VIEN\TV_LCD_20X4.c> 
....................  
.................... #IFNDEF LCD_RS 
.................... #DEFINE LCD_RS   PIN_D5 
.................... #ENDIF 
....................  
.................... #IFNDEF LCD_RW 
.................... #DEFINE LCD_RW   PIN_D6 
.................... #ENDIF 
....................  
.................... #IFNDEF LCD_E 
.................... #DEFINE LCD_E   PIN_D7 
.................... #ENDIF 
....................  
.................... #IFNDEF OUTPUT_LCD 
.................... #DEFINE OUTPUT_LCD   OUTPUT_B 
.................... #ENDIF 
....................  
.................... #DEFINE FUNCTION_SET    0X38 
.................... #DEFINE DISPLAY_CONTROL 0X0F 
.................... #DEFINE CLEAR_DISPLAY   0X01 
.................... #DEFINE ENTRY_MODE      0X06 
.................... #DEFINE SHIFT_LEFT      0X18 
.................... #DEFINE SHIFT_RIGHT     0X1C 
....................  
.................... #DEFINE ADDR_LINE1      0X80 
.................... #DEFINE ADDR_LINE2      0XC0 
.................... #DEFINE ADDR_LINE3      0X94 
.................... #DEFINE ADDR_LINE4      0XD4 
....................  
.................... UNSIGNED INT8 H,T; 
.................... //XXXXXXXXXXXXXXXXXXXX TRUYEN VI TRI CAN HIEN THI TREN LCD XXXXXXXXXXXXXXXXXXXXXXXXX 
.................... VOID LCD_COMMAND(UNSIGNED CHAR MDK) 
.................... { 
....................    OUTPUT_LOW(LCD_RS);     OUTPUT_LCD(MDK); 
*
000B:  BSF    03.5
000C:  BCF    08.5
000D:  BCF    03.5
000E:  BCF    08.5
000F:  BSF    03.5
0010:  CLRF   06
0011:  BCF    03.5
0012:  MOVF   23,W
0013:  MOVWF  06
....................    OUTPUT_HIGH(LCD_E);     DELAY_US(20); 
0014:  BSF    03.5
0015:  BCF    08.7
0016:  BCF    03.5
0017:  BSF    08.7
0018:  MOVLW  21
0019:  MOVWF  77
001A:  DECFSZ 77,F
001B:  GOTO   01A
....................    OUTPUT_LOW(LCD_E);      DELAY_US(20); 
001C:  BSF    03.5
001D:  BCF    08.7
001E:  BCF    03.5
001F:  BCF    08.7
0020:  MOVLW  21
0021:  MOVWF  77
0022:  DECFSZ 77,F
0023:  GOTO   022
.................... } 
0024:  RETURN
....................  
.................... //XXXXXXXXXXXXXXXXXXXXXX TRUYEN DU LIEU CAN HIEN THI RA LCD XXXXXXXXXXXXXXXXXXXXXX 
.................... VOID LCD_DATA(UNSIGNED CHAR MHT) 
.................... { 
....................    OUTPUT_HIGH(LCD_RS);     OUTPUT_LCD(MHT); 
*
0064:  BSF    03.5
0065:  BCF    08.5
0066:  BCF    03.5
0067:  BSF    08.5
0068:  BSF    03.5
0069:  CLRF   06
006A:  BCF    03.5
006B:  MOVF   26,W
006C:  MOVWF  06
....................    OUTPUT_HIGH(LCD_E);     DELAY_US(20); 
006D:  BSF    03.5
006E:  BCF    08.7
006F:  BCF    03.5
0070:  BSF    08.7
0071:  MOVLW  21
0072:  MOVWF  77
0073:  DECFSZ 77,F
0074:  GOTO   073
....................    OUTPUT_LOW(LCD_E);     DELAY_US(20); 
0075:  BSF    03.5
0076:  BCF    08.7
0077:  BCF    03.5
0078:  BCF    08.7
0079:  MOVLW  21
007A:  MOVWF  77
007B:  DECFSZ 77,F
007C:  GOTO   07B
.................... } 
007D:  RETURN
....................  
.................... //XXXXXXXXXXXXXXXXXXXXXXX CAI DAT LCD KHI KHOI TAO XXXXXXXXXXXXXXXXXXXXXXXXXXXXXXX 
.................... VOID LCD_SETUP() 
.................... { 
....................    OUTPUT_LOW(LCD_E);      
*
0039:  BSF    03.5
003A:  BCF    08.7
003B:  BCF    03.5
003C:  BCF    08.7
....................    OUTPUT_LOW(LCD_RS);      
003D:  BSF    03.5
003E:  BCF    08.5
003F:  BCF    03.5
0040:  BCF    08.5
....................    OUTPUT_LOW(LCD_RW); 
0041:  BSF    03.5
0042:  BCF    08.6
0043:  BCF    03.5
0044:  BCF    08.6
....................    LCD_COMMAND(FUNCTION_SET);    DELAY_US(40); 
0045:  MOVLW  38
0046:  MOVWF  23
0047:  CALL   00B
0048:  MOVLW  42
0049:  MOVWF  77
004A:  DECFSZ 77,F
004B:  GOTO   04A
004C:  NOP
....................    LCD_COMMAND(DISPLAY_CONTROL); DELAY_US(40); 
004D:  MOVLW  0F
004E:  MOVWF  23
004F:  CALL   00B
0050:  MOVLW  42
0051:  MOVWF  77
0052:  DECFSZ 77,F
0053:  GOTO   052
0054:  NOP
....................     
....................    LCD_COMMAND(CLEAR_DISPLAY);   DELAY_MS(2); 
0055:  MOVLW  01
0056:  MOVWF  23
0057:  CALL   00B
0058:  MOVLW  02
0059:  MOVWF  23
005A:  CALL   025
....................    LCD_COMMAND(ENTRY_MODE);      DELAY_MS(40); 
005B:  MOVLW  06
005C:  MOVWF  23
005D:  CALL   00B
005E:  MOVLW  28
005F:  MOVWF  23
0060:  CALL   025
.................... } 
0061:  BCF    0A.3
0062:  BCF    0A.4
0063:  GOTO   11E (RETURN)
....................  
.................... //XXXXXXXXXXXXXXXXXXXXXXXXX FONT CHU LON CUA MA 8 DOAN XXXXXXXXXXXXXXXXXXXXXXXXXXX 
.................... CONST UNSIGNED CHAR LCD_SO_X[10][6] = { 
....................                     0,1,2,5,3,4,                   //SO 0 
....................                     1,2,32,3,7,3,                  //SO 1 
....................                     6,6,2,5,3,3,                   //SO 2 
....................                     6,6,2,3,3,4,                   //SO 3 
....................                     7,3,7,32,32,7,                 //SO 4 
....................                     7,6,6,3,3,4,                   //SO 5 
....................                     0,6,6,5,3,4,                   //SO 6 
....................                     1,1,7,32,32,7,                 //SO 7 
....................                     0,6,2,5,3,4,                   //SO 8 
....................                     0,6,2,3,3,4};                  //SO 9 
....................                      
....................                      
.................... CONST UNSIGNED CHAR LCD_MA_8DOAN[] = { 
....................    0x07,0x0F,0x1F,0x1F,0x1F,0x1F,0x1F,0x1F,  //DOAN F - 0 
....................    0x1F,0x1F,0x1F,0X00,0X00,0X00,0X00,0X00,  //DOAN A - 1 
....................    0x1C,0x1E,0x1F,0x1F,0x1F,0x1F,0x1F,0x1F,  //DOAN B - 2 
....................    0X00,0X00,0X00,0X00,0X00,0x1F,0x1F,0x1F,  //DOAN D - 3 
....................    0x1F,0x1F,0x1F,0x1F,0x1F,0x1F,0x1E,0x1C,  //DOAN C - 4 
....................    0x1F,0x1F,0x1F,0x1F,0x1F,0x1F,0x0F,0x07,  //DOAN E - 5 
....................    0x1F,0x1F,0x1F,0X00,0X00,0X00,0x1F,0x1F,  //DOAN G+D-6  
....................    0x1F,0x1F,0x1F,0x1F,0x1F,0x1F,0x1F,0x1F}; //DOAN I  -7 
....................     
.................... VOID LCD_GOTO_XY(SIGNED INT8 X, SIGNED INT8 Y) 
.................... {  
....................    CONST UNSIGNED INT8 LCD_VITRI[]={0x80,0xC0,0x94,0xD4}; 
....................    LCD_COMMAND(LCD_VITRI[X]+Y); 
.................... } 
....................  
.................... VOID XXX() 
.................... {  
....................    SIGNED INT8 X; 
....................    X= LCD_SO_X[0][0]; 
....................    X= LCD_MA_8DOAN[0]; 
.................... } 
....................  
.................... //XXXXXXXXXXXXXXXXXXXXXXXX HIEN THI CHU HAY SO LON CHIEM 6 O XXXXXXXXXXXXXXXXXXXXXXXXXXXX 
.................... VOID HIENTHI_FONT_LON(SIGNED INT8 SO, SIGNED INT8 X1,SIGNED INT8 Y1) 
.................... { 
....................    LCD_GOTO_XY(X1,Y1); 
....................    FOR(H=0;H<6;H++) 
....................    { 
....................       IF(H==3)       LCD_GOTO_XY(X1+1,Y1); 
....................       LCD_DATA(LCD_SO_X[SO][H]); 
....................    } 
.................... } 
....................  
.................... //XXXXXXXXXXXXXXXXXXXXXXXXXXXXXXXXXXXXXXXXXXXXXXXXXXXXXXXXXXXXXXXXXXXXXXXXXXXX 
.................... VOID LAY_MA_8DOAN() 
.................... { 
....................    LCD_COMMAND(0X40);      DELAY_US(20); 
....................    FOR(T=0;T<64;T++) 
....................    { 
....................       LCD_DATA(LCD_MA_8DOAN[T]); 
....................    } 
.................... } 
....................  
....................  
....................  
.................... UNSIGNED INT8 T1; 
....................  
.................... VOID HIENTHI() 
.................... { 
....................    LCD_COMMAND(0X91); 
*
00DB:  MOVLW  91
00DC:  MOVWF  23
00DD:  CALL   00B
....................    LCD_DATA(T1/100 + 0X30); 
00DE:  MOVF   22,W
00DF:  MOVWF  24
00E0:  MOVLW  64
00E1:  MOVWF  25
00E2:  CALL   0C6
00E3:  MOVLW  30
00E4:  ADDWF  78,W
00E5:  MOVWF  23
00E6:  MOVWF  26
00E7:  CALL   064
....................    LCD_DATA(T1/10%10 + 0X30); 
00E8:  MOVF   22,W
00E9:  MOVWF  24
00EA:  MOVLW  0A
00EB:  MOVWF  25
00EC:  CALL   0C6
00ED:  MOVF   78,W
00EE:  MOVWF  24
00EF:  MOVLW  0A
00F0:  MOVWF  25
00F1:  CALL   0C6
00F2:  MOVLW  30
00F3:  ADDWF  77,W
00F4:  MOVWF  23
00F5:  MOVWF  26
00F6:  CALL   064
....................    LCD_DATA(T1%10 + 0X30); 
00F7:  MOVF   22,W
00F8:  MOVWF  24
00F9:  MOVLW  0A
00FA:  MOVWF  25
00FB:  CALL   0C6
00FC:  MOVLW  30
00FD:  ADDWF  77,W
00FE:  MOVWF  23
00FF:  MOVWF  26
0100:  CALL   064
.................... } 
0101:  BCF    0A.3
0102:  BCF    0A.4
0103:  GOTO   137 (RETURN)
....................  
.................... VOID MAIN() 
.................... { 
0104:  CLRF   04
0105:  BCF    03.7
0106:  MOVLW  1F
0107:  ANDWF  03,F
0108:  BSF    03.5
0109:  BSF    03.6
010A:  MOVF   09,W
010B:  ANDLW  C0
010C:  MOVWF  09
010D:  BCF    03.6
010E:  BCF    1F.4
010F:  BCF    1F.5
0110:  MOVLW  00
0111:  BSF    03.6
0112:  MOVWF  08
0113:  BCF    03.5
0114:  CLRF   07
0115:  CLRF   08
0116:  CLRF   09
....................    SET_TRIS_D(0X00); 
0117:  MOVLW  00
0118:  BSF    03.5
0119:  BCF    03.6
011A:  MOVWF  08
....................    SET_TRIS_B(0X00); 
011B:  MOVWF  06
....................     
....................    LCD_SETUP(); 
011C:  BCF    03.5
011D:  GOTO   039
....................    LCD_COMMAND(0X80); 
011E:  MOVLW  80
011F:  MOVWF  23
0120:  CALL   00B
....................    LCD_DATA("DEM SAN PHAM:"); 
0121:  MOVLW  04
0122:  BSF    03.6
0123:  MOVWF  0D
0124:  MOVLW  00
0125:  MOVWF  0F
0126:  BCF    03.6
0127:  GOTO   07E
....................     
....................    SETUP_TIMER_1(T1_EXTERNAL|T1_DIV_BY_1); 
0128:  MOVLW  07
0129:  MOVWF  10
....................    SET_TIMER1(0); 
012A:  CLRF   0F
012B:  CLRF   0E
....................     
....................    WHILE(TRUE) 
....................    { 
....................       T1 = GET_TIMER1(); 
012C:  MOVF   0F,W
012D:  MOVWF  7A
012E:  MOVF   0E,W
012F:  MOVWF  77
0130:  MOVF   0F,W
0131:  SUBWF  7A,W
0132:  BTFSS  03.2
0133:  GOTO   12C
0134:  MOVF   77,W
0135:  MOVWF  22
....................       HIENTHI(); 
0136:  GOTO   0DB
....................        
....................       IF(T1==120)  SET_TIMER1(1); 
0137:  MOVF   22,W
0138:  SUBLW  78
0139:  BTFSS  03.2
013A:  GOTO   13E
013B:  CLRF   0F
013C:  MOVLW  01
013D:  MOVWF  0E
....................    } 
013E:  GOTO   12C
.................... } 
....................  
....................  
013F:  SLEEP

Configuration Fuses:
   Word  1: 2FE2   HS NOWDT PUT MCLR NOPROTECT NOCPD BROWNOUT IESO FCMEN NOLVP NODEBUG
   Word  2: 3FFF   NOWRT BORV40
