004-005 @READ_PROGRAM_MEMORY8.P1
004-005 @WRITE_PROGRAM_MEMORY8.P2
015     CCP_1
015     CCP_1_LOW
016     CCP_1_HIGH
01B     CCP_2_LOW
01B     CCP_2
01C     CCP_2_HIGH
020     @INTERRUPT_AREA
021     @INTERRUPT_AREA
022     @INTERRUPT_AREA
023     @INTERRUPT_AREA
024     @INTERRUPT_AREA
025     @INTERRUPT_AREA
026     @INTERRUPT_AREA
027     GIAY
028     PHUT
029     BDT
02A     @TRIS_C
02B     MAIN.@SCRATCH1
02C     MAIN.@SCRATCH2
02D     MAIN.@SCRATCH3
02E     @DIV88.P1
02E     MAIN.@SCRATCH4
02F     @DIV88.P1
02F     XUAT_4LED_7DOAN_4SO.BL1
030     XUAT_4LED_7DOAN_4SO.BL2
030     @DIV88.@SCRATCH1
031     XUAT_4LED_7DOAN_4SO.BL3
032     XUAT_4LED_7DOAN_4SO.BL4
033     XUAT_1BYTE.BYTEXUAT
034     XUAT_1BYTE.SB
035     XUAT_1BYTE.x
035.7   XUAT_1BYTE.BSERI
077     @SCRATCH
078     @SCRATCH
078     _RETURN_
079     @SCRATCH
07A     @SCRATCH
07F     @INTERRUPT_AREA
0FF     @INTERRUPT_AREA
107.6   C1OUT
108.6   C2OUT
10D-10E @WRITE_PROGRAM_MEMORY8.P1
10D-10E @READ_PROGRAM_MEMORY8.P2
17F     @INTERRUPT_AREA
1FF     @INTERRUPT_AREA
27F     @INTERRUPT_AREA
2FF     @INTERRUPT_AREA
37F     @INTERRUPT_AREA
3FF     @INTERRUPT_AREA
47F     @INTERRUPT_AREA
4FF     @INTERRUPT_AREA
57F     @INTERRUPT_AREA
5FF     @INTERRUPT_AREA
67F     @INTERRUPT_AREA
6FF     @INTERRUPT_AREA
77F     @INTERRUPT_AREA
7FF     @INTERRUPT_AREA
87F     @INTERRUPT_AREA
8FF     @INTERRUPT_AREA
97F     @INTERRUPT_AREA
9FF     @INTERRUPT_AREA
A7F     @INTERRUPT_AREA
AFF     @INTERRUPT_AREA
B7F     @INTERRUPT_AREA
BFF     @INTERRUPT_AREA
C7F     @INTERRUPT_AREA
CFF     @INTERRUPT_AREA
D7F     @INTERRUPT_AREA
DFF     @INTERRUPT_AREA
E7F     @INTERRUPT_AREA
EFF     @INTERRUPT_AREA
F7F     @INTERRUPT_AREA
FFF     @INTERRUPT_AREA

ROM Allocation:
000031  MA7DOAN.call
000035  MA7DOAN.data
000045  INTERRUPT_TIMER1
00004F  @DIV88
000064  XUAT_1BYTE
00007E  XUAT_4LED_7DOAN_4SO
000095  MAIN
000095  @cinit1
0000A9  @cinit2

Project Directory:
    E:\Youtube\Pic16F887\Ngat_timer\ngat_led_7doan_595\

Project Files:
    NGAT_LED_7DOAN_595.c                                    [22-Thg9-16 18:27  CRC=5946C4F1]
    C:\Program Files (x86)\PICC\Devices\16F887.H            [12-Thg11-13 14:35  CRC=6CB1A611]
    ..\..\THU_VIEN\tv_4led_7doan.c                          [09-Thg7-16 11:47  CRC=91FAE863]

Source signature=E9EE3BC8

Units:
    NGAT_LED_7DOAN_595 (main)

Compiler Settings:
    Processor:      PIC16F887
    Pointer Size:   16
    ADC Range:      0-255
    Opt Level:      9
    Short,Int,Long: UNSIGNED: 1,8,16
    Float,Double:   32,32

Output Files:
    XREF file:   NGAT_LED_7DOAN_595.xsym
    Errors:      NGAT_LED_7DOAN_595.err
    Ext Symbols: NGAT_LED_7DOAN_595.esym
    INHX8:       NGAT_LED_7DOAN_595.hex
    Symbols:     NGAT_LED_7DOAN_595.sym
    List:        NGAT_LED_7DOAN_595.lst
    Debug/COFF:  NGAT_LED_7DOAN_595.cof
    Project:     NGAT_LED_7DOAN_595.ccspjt
    Call Tree:   NGAT_LED_7DOAN_595.tre
    Statistics:  NGAT_LED_7DOAN_595.STA
