004-005 @READ_PROGRAM_MEMORY8.P1
004-005 @WRITE_PROGRAM_MEMORY8.P2
015     CCP_1_LOW
015     CCP_1
016     CCP_1_HIGH
01B     CCP_2
01B     CCP_2_LOW
01C     CCP_2_HIGH
020     @INTERRUPT_AREA
021     @INTERRUPT_AREA
022     @INTERRUPT_AREA
023     @INTERRUPT_AREA
024     @INTERRUPT_AREA
025     @INTERRUPT_AREA
026     @INTERRUPT_AREA
027     GIAY
028     PHUT
029     BDT
02A     I
02B-02C KQ
02D     @TRIS_C
02E-031 @SFTOI.P1
02E     @delay_ms1.P2
02E     NHIET_DO.@SCRATCH1
02E     MAIN.@SCRATCH1
02F     NHIET_DO.@SCRATCH2
02F     MAIN.@SCRATCH2
030-033 @DIVFF.P1
030-031 @ITOF.P2
030     MAIN.@SCRATCH3
031-032 @DIV1616.P1
031     MAIN.@SCRATCH4
032     MAIN.@SCRATCH5
033-034 @DIV1616.P1
033     MAIN.@SCRATCH6
034-037 @DIVFF.P1
034     MAIN.@SCRATCH7
035     @DIV88.P1
035     @DIV1616.@SCRATCH1
035     MAIN.@SCRATCH8
036     XUAT_4LED_7DOAN_4SO.BL1
036     @DIV88.P1
037     XUAT_4LED_7DOAN_4SO.BL2
037     @DIV88.@SCRATCH1
038     XUAT_4LED_7DOAN_4SO.BL3
038     @DIVFF.@SCRATCH1
039     XUAT_4LED_7DOAN_4SO.BL4
039     @DIVFF.@SCRATCH2
03A     XUAT_1BYTE.BYTEXUAT
03A     @DIVFF.@SCRATCH3
03B     XUAT_1BYTE.SB
03B     @DIVFF.@SCRATCH4
03C     XUAT_1BYTE.x
03C.7   XUAT_1BYTE.BSERI
03C     @DIVFF.@SCRATCH5
03D     @DIVFF.@SCRATCH6
077     @SCRATCH
078     @SCRATCH
078     _RETURN_
079     @SCRATCH
07A     @SCRATCH
07F     @INTERRUPT_AREA
0FF     @INTERRUPT_AREA
107.6   C1OUT
108.6   C2OUT
10D-10E @WRITE_PROGRAM_MEMORY8.P1
10D-10E @READ_PROGRAM_MEMORY8.P2
17F     @INTERRUPT_AREA
1FF     @INTERRUPT_AREA
27F     @INTERRUPT_AREA
2FF     @INTERRUPT_AREA
37F     @INTERRUPT_AREA
3FF     @INTERRUPT_AREA
47F     @INTERRUPT_AREA
4FF     @INTERRUPT_AREA
57F     @INTERRUPT_AREA
5FF     @INTERRUPT_AREA
67F     @INTERRUPT_AREA
6FF     @INTERRUPT_AREA
77F     @INTERRUPT_AREA
7FF     @INTERRUPT_AREA
87F     @INTERRUPT_AREA
8FF     @INTERRUPT_AREA
97F     @INTERRUPT_AREA
9FF     @INTERRUPT_AREA
A7F     @INTERRUPT_AREA
AFF     @INTERRUPT_AREA
B7F     @INTERRUPT_AREA
BFF     @INTERRUPT_AREA
C7F     @INTERRUPT_AREA
CFF     @INTERRUPT_AREA
D7F     @INTERRUPT_AREA
DFF     @INTERRUPT_AREA
E7F     @INTERRUPT_AREA
EFF     @INTERRUPT_AREA
F7F     @INTERRUPT_AREA
FFF     @INTERRUPT_AREA

ROM Allocation:
000031  MA7DOAN.call
000035  MA7DOAN.data
000045  INTERRUPT_TIMER1
00004F  @DIV1616
000074  NHIET_DO
000088  @delay_ms1
0000AD  @ITOF
0000D9  @DIVFF
0001AA  @SFTOI
0001CF  @DIV88
0001E4  XUAT_1BYTE
0001FE  XUAT_4LED_7DOAN_4SO
000215  @cinit1
000215  MAIN
000229  @cinit2

Project Directory:
    E:\Youtube\Pic16F887\ket hop\

Project Files:
    ngat vs adc.c                                           [05-Thg10-16 09:44  CRC=32C379C0]
    C:\Program Files (x86)\PICC\Devices\16F887.H            [12-Thg11-13 14:35  CRC=6CB1A611]
    ..\THU_VIEN\tv_4led_7doan.c                             [09-Thg7-16 11:47  CRC=91FAE863]

Source signature=C36AF097

Units:
    ngat vs adc (main)

Compiler Settings:
    Processor:      PIC16F887
    Pointer Size:   16
    ADC Range:      0-1023
    Opt Level:      9
    Short,Int,Long: UNSIGNED: 1,8,16
    Float,Double:   32,32

Output Files:
    XREF file:   ngat vs adc.xsym
    Errors:      ngat vs adc.err
    Ext Symbols: ngat vs adc.esym
    INHX8:       ngat vs adc.hex
    Symbols:     ngat vs adc.sym
    List:        ngat vs adc.lst
    Debug/COFF:  ngat vs adc.cof
    Project:     ngat vs adc.ccspjt
    Call Tree:   ngat vs adc.tre
    Statistics:  ngat vs adc.STA
