004-005 @READ_PROGRAM_MEMORY8.P1
004-005 @WRITE_PROGRAM_MEMORY8.P2
015     CCP_1_LOW
015     CCP_1
016     CCP_1_HIGH
01B     CCP_2
01B     CCP_2_LOW
01C     CCP_2_HIGH
020-021 I
022-023 J
024-025 K
026-027 L
028-029 Y
02A     H
02B-02C TTCD
02D-02E TTDC
02F     mp
030     @TRIS_C
031     SD_10LED_TREN_XUONG.DL
031     key_4x4.mpt1
032     key_4x4.mpt2
032     DELAY_TUY_Y.DL1
032     SD_10LED_TREN_XUONG.@SCRATCH1
033     DELAY_TUY_Y.DL
033     quet_mt_phim.maphim
033     SD_10LED_TREN_XUONG.@SCRATCH2
034     @delay_ms1.P1
034     quet_mt_phim.hang
035     quet_mt_phim.cot
036     @MUL88.P1
036     quet_mt_phim.@SCRATCH1
037     @MUL88.P1
077     @SCRATCH
078     @SCRATCH
078     _RETURN_
079     @SCRATCH
07A     @SCRATCH
107.6   C1OUT
108.6   C2OUT
10D-10E @READ_PROGRAM_MEMORY8.P1
10D-10E @WRITE_PROGRAM_MEMORY8.P2

ROM Allocation:
000004  maquetcot.call
000008  maquetcot.data
00000C  quet_mt_phim
000049  @MUL88
000073  @delay_ms1
000087  key_4x4
0000A1  SD_10LED_TREN_XUONG
0000C9  DELAY_TUY_Y
0000DE  @cinit1
0000DE  MAIN
0000F2  @cinit2

Project Directory:
    E:\Youtube\Pic16F887\LED_DON_TT\

Project Files:
    LED_DON_TT.c                                            [08-Thg10-16 10:05  CRC=36955368]
    C:\Program Files (x86)\PICC\Devices\16F887.H            [12-Thg11-13 14:35  CRC=6CB1A611]
    ..\THU_VIEN\tv_matran_phim.c                            [09-Thg7-16 11:58  CRC=E7C66D02]

Source signature=72D3D37D

Units:
    LED_DON_TT (main)

Compiler Settings:
    Processor:      PIC16F887
    Pointer Size:   16
    ADC Range:      0-255
    Opt Level:      9
    Short,Int,Long: UNSIGNED: 1,8,16
    Float,Double:   32,32

Output Files:
    XREF file:   LED_DON_TT.xsym
    Errors:      LED_DON_TT.err
    Ext Symbols: LED_DON_TT.esym
    INHX8:       LED_DON_TT.hex
    Symbols:     LED_DON_TT.sym
    List:        LED_DON_TT.lst
    Debug/COFF:  LED_DON_TT.cof
    Project:     LED_DON_TT.ccspjt
    Call Tree:   LED_DON_TT.tre
    Statistics:  LED_DON_TT.STA
