CCS PCM C Compiler, Version 5.015, 5967               05-Thg10-16 10:18

               Filename:   E:\Youtube\Pic16F887\ket hop\QUET\ngat vs adc_quet.lst

               ROM used:   1032 words (13%)
                           Largest free fragment is 2048
               RAM used:   21 (6%) at main() level
                           39 (11%) worst case
               Stack used: 3 locations (2 in main + 1 for interrupts)
               Stack size: 8

*
0000:  MOVLW  03
0001:  MOVWF  0A
0002:  GOTO   396
0003:  NOP
0004:  MOVWF  7F
0005:  SWAPF  03,W
0006:  CLRF   03
0007:  MOVWF  21
0008:  MOVF   0A,W
0009:  MOVWF  20
000A:  CLRF   0A
000B:  MOVF   04,W
000C:  MOVWF  22
000D:  MOVF   77,W
000E:  MOVWF  23
000F:  MOVF   78,W
0010:  MOVWF  24
0011:  MOVF   79,W
0012:  MOVWF  25
0013:  MOVF   7A,W
0014:  MOVWF  26
0015:  BCF    03.7
0016:  BCF    03.5
0017:  MOVLW  8C
0018:  MOVWF  04
0019:  BTFSS  00.0
001A:  GOTO   01D
001B:  BTFSC  0C.0
001C:  GOTO   02E
001D:  MOVF   22,W
001E:  MOVWF  04
001F:  MOVF   23,W
0020:  MOVWF  77
0021:  MOVF   24,W
0022:  MOVWF  78
0023:  MOVF   25,W
0024:  MOVWF  79
0025:  MOVF   26,W
0026:  MOVWF  7A
0027:  MOVF   20,W
0028:  MOVWF  0A
0029:  SWAPF  21,W
002A:  MOVWF  03
002B:  SWAPF  7F,F
002C:  SWAPF  7F,W
002D:  RETFIE
002E:  BCF    0A.3
002F:  BCF    0A.4
0030:  GOTO   045
.................... #INCLUDE <16F887.H> 
.................... //////////// Standard Header file for the PIC16F887 device //////////////// 
.................... /////////////////////////////////////////////////////////////////////////// 
.................... ////        (C) Copyright 1996, 2013 Custom Computer Services          //// 
.................... //// This source code may only be used by licensed users of the CCS C  //// 
.................... //// compiler.  This source code may only be distributed to other      //// 
.................... //// licensed users of the CCS C compiler.  No other use, reproduction //// 
.................... //// or distribution is permitted without written permission.          //// 
.................... //// Derivative programs created using this software in object code    //// 
.................... //// form are not restricted in any way.                               //// 
.................... /////////////////////////////////////////////////////////////////////////// 
.................... #device PIC16F887 
0031:  BCF    0A.0
0032:  BCF    0A.1
0033:  BCF    0A.2
0034:  ADDWF  02,F
0035:  RETLW  C0
0036:  RETLW  F9
0037:  RETLW  A4
0038:  RETLW  B0
0039:  RETLW  99
003A:  RETLW  92
003B:  RETLW  82
003C:  RETLW  F8
003D:  RETLW  80
003E:  RETLW  90
003F:  RETLW  88
0040:  RETLW  83
0041:  RETLW  C6
0042:  RETLW  A1
0043:  RETLW  86
0044:  RETLW  8E
*
004F:  MOVF   31,W
0050:  CLRF   78
0051:  SUBWF  30,W
0052:  BTFSC  03.0
0053:  GOTO   057
0054:  MOVF   30,W
0055:  MOVWF  77
0056:  GOTO   063
0057:  CLRF   77
0058:  MOVLW  08
0059:  MOVWF  32
005A:  RLF    30,F
005B:  RLF    77,F
005C:  MOVF   31,W
005D:  SUBWF  77,W
005E:  BTFSC  03.0
005F:  MOVWF  77
0060:  RLF    78,F
0061:  DECFSZ 32,F
0062:  GOTO   05A
0063:  RETURN
*
0078:  CLRF   78
0079:  CLRF   79
007A:  CLRF   77
007B:  CLRF   7A
007C:  MOVF   33,W
007D:  BTFSS  03.2
007E:  GOTO   082
007F:  MOVF   32,W
0080:  BTFSC  03.2
0081:  GOTO   09C
0082:  MOVLW  10
0083:  MOVWF  34
0084:  BCF    03.0
0085:  RLF    30,F
0086:  RLF    31,F
0087:  RLF    77,F
0088:  RLF    7A,F
0089:  MOVF   33,W
008A:  SUBWF  7A,W
008B:  BTFSS  03.2
008C:  GOTO   08F
008D:  MOVF   32,W
008E:  SUBWF  77,W
008F:  BTFSS  03.0
0090:  GOTO   098
0091:  MOVF   32,W
0092:  SUBWF  77,F
0093:  BTFSS  03.0
0094:  DECF   7A,F
0095:  MOVF   33,W
0096:  SUBWF  7A,F
0097:  BSF    03.0
0098:  RLF    78,F
0099:  RLF    79,F
009A:  DECFSZ 34,F
009B:  GOTO   084
009C:  RETURN
*
01B8:  MOVF   34,W
01B9:  BTFSC  03.2
01BA:  GOTO   27D
01BB:  MOVWF  40
01BC:  MOVF   38,W
01BD:  BTFSC  03.2
01BE:  GOTO   27D
01BF:  SUBWF  40,F
01C0:  BTFSS  03.0
01C1:  GOTO   1C7
01C2:  MOVLW  7F
01C3:  ADDWF  40,F
01C4:  BTFSC  03.0
01C5:  GOTO   27D
01C6:  GOTO   1CD
01C7:  MOVLW  81
01C8:  SUBWF  40,F
01C9:  BTFSS  03.0
01CA:  GOTO   27D
01CB:  BTFSC  03.2
01CC:  GOTO   27D
01CD:  MOVF   40,W
01CE:  MOVWF  77
01CF:  CLRF   78
01D0:  CLRF   79
01D1:  CLRF   7A
01D2:  CLRF   3F
01D3:  MOVF   35,W
01D4:  MOVWF  3E
01D5:  BSF    3E.7
01D6:  MOVF   36,W
01D7:  MOVWF  3D
01D8:  MOVF   37,W
01D9:  MOVWF  3C
01DA:  MOVLW  19
01DB:  MOVWF  40
01DC:  MOVF   3B,W
01DD:  SUBWF  3C,F
01DE:  BTFSC  03.0
01DF:  GOTO   1F0
01E0:  MOVLW  01
01E1:  SUBWF  3D,F
01E2:  BTFSC  03.0
01E3:  GOTO   1F0
01E4:  SUBWF  3E,F
01E5:  BTFSC  03.0
01E6:  GOTO   1F0
01E7:  SUBWF  3F,F
01E8:  BTFSC  03.0
01E9:  GOTO   1F0
01EA:  INCF   3F,F
01EB:  INCF   3E,F
01EC:  INCF   3D,F
01ED:  MOVF   3B,W
01EE:  ADDWF  3C,F
01EF:  GOTO   222
01F0:  MOVF   3A,W
01F1:  SUBWF  3D,F
01F2:  BTFSC  03.0
01F3:  GOTO   20B
01F4:  MOVLW  01
01F5:  SUBWF  3E,F
01F6:  BTFSC  03.0
01F7:  GOTO   20B
01F8:  SUBWF  3F,F
01F9:  BTFSC  03.0
01FA:  GOTO   20B
01FB:  INCF   3F,F
01FC:  INCF   3E,F
01FD:  MOVF   3A,W
01FE:  ADDWF  3D,F
01FF:  MOVF   3B,W
0200:  ADDWF  3C,F
0201:  BTFSS  03.0
0202:  GOTO   222
0203:  INCF   3D,F
0204:  BTFSS  03.2
0205:  GOTO   222
0206:  INCF   3E,F
0207:  BTFSS  03.2
0208:  GOTO   222
0209:  INCF   3F,F
020A:  GOTO   222
020B:  MOVF   39,W
020C:  IORLW  80
020D:  SUBWF  3E,F
020E:  BTFSC  03.0
020F:  GOTO   221
0210:  MOVLW  01
0211:  SUBWF  3F,F
0212:  BTFSC  03.0
0213:  GOTO   221
0214:  INCF   3F,F
0215:  MOVF   39,W
0216:  IORLW  80
0217:  ADDWF  3E,F
0218:  MOVF   3A,W
0219:  ADDWF  3D,F
021A:  BTFSS  03.0
021B:  GOTO   1FF
021C:  INCF   3E,F
021D:  BTFSS  03.2
021E:  GOTO   1FF
021F:  INCF   3F,F
0220:  GOTO   1FF
0221:  BSF    7A.0
0222:  DECFSZ 40,F
0223:  GOTO   225
0224:  GOTO   230
0225:  BCF    03.0
0226:  RLF    3C,F
0227:  RLF    3D,F
0228:  RLF    3E,F
0229:  RLF    3F,F
022A:  BCF    03.0
022B:  RLF    7A,F
022C:  RLF    79,F
022D:  RLF    78,F
022E:  RLF    41,F
022F:  GOTO   1DC
0230:  BTFSS  41.0
0231:  GOTO   238
0232:  BCF    03.0
0233:  RRF    78,F
0234:  RRF    79,F
0235:  RRF    7A,F
0236:  RRF    41,F
0237:  GOTO   23B
0238:  DECF   77,F
0239:  BTFSC  03.2
023A:  GOTO   27D
023B:  BTFSC  41.7
023C:  GOTO   264
023D:  BCF    03.0
023E:  RLF    3C,F
023F:  RLF    3D,F
0240:  RLF    3E,F
0241:  RLF    3F,F
0242:  MOVF   3B,W
0243:  SUBWF  3C,F
0244:  BTFSC  03.0
0245:  GOTO   250
0246:  MOVLW  01
0247:  SUBWF  3D,F
0248:  BTFSC  03.0
0249:  GOTO   250
024A:  SUBWF  3E,F
024B:  BTFSC  03.0
024C:  GOTO   250
024D:  SUBWF  3F,F
024E:  BTFSS  03.0
024F:  GOTO   273
0250:  MOVF   3A,W
0251:  SUBWF  3D,F
0252:  BTFSC  03.0
0253:  GOTO   25B
0254:  MOVLW  01
0255:  SUBWF  3E,F
0256:  BTFSC  03.0
0257:  GOTO   25B
0258:  SUBWF  3F,F
0259:  BTFSS  03.0
025A:  GOTO   273
025B:  MOVF   39,W
025C:  IORLW  80
025D:  SUBWF  3E,F
025E:  BTFSC  03.0
025F:  GOTO   264
0260:  MOVLW  01
0261:  SUBWF  3F,F
0262:  BTFSS  03.0
0263:  GOTO   273
0264:  INCF   7A,F
0265:  BTFSS  03.2
0266:  GOTO   273
0267:  INCF   79,F
0268:  BTFSS  03.2
0269:  GOTO   273
026A:  INCF   78,F
026B:  BTFSS  03.2
026C:  GOTO   273
026D:  INCF   77,F
026E:  BTFSC  03.2
026F:  GOTO   27D
0270:  RRF    78,F
0271:  RRF    79,F
0272:  RRF    7A,F
0273:  MOVF   35,W
0274:  MOVWF  40
0275:  MOVF   39,W
0276:  XORWF  40,F
0277:  BTFSS  40.7
0278:  GOTO   27B
0279:  BSF    78.7
027A:  GOTO   281
027B:  BCF    78.7
027C:  GOTO   281
027D:  CLRF   77
027E:  CLRF   78
027F:  CLRF   79
0280:  CLRF   7A
0281:  RETURN
*
029D:  MOVLW  8E
029E:  MOVWF  77
029F:  MOVF   31,W
02A0:  MOVWF  78
02A1:  MOVF   30,W
02A2:  MOVWF  79
02A3:  CLRF   7A
02A4:  MOVF   78,F
02A5:  BTFSS  03.2
02A6:  GOTO   2B1
02A7:  MOVF   79,W
02A8:  MOVWF  78
02A9:  CLRF   79
02AA:  MOVLW  08
02AB:  SUBWF  77,F
02AC:  MOVF   78,F
02AD:  BTFSS  03.2
02AE:  GOTO   2B1
02AF:  CLRF   77
02B0:  GOTO   2B9
02B1:  BCF    03.0
02B2:  BTFSC  78.7
02B3:  GOTO   2B8
02B4:  RLF    79,F
02B5:  RLF    78,F
02B6:  DECF   77,F
02B7:  GOTO   2B1
02B8:  BCF    78.7
*
02E9:  MOVLW  8E
02EA:  MOVWF  77
02EB:  MOVF   30,W
02EC:  SUBWF  77,F
02ED:  MOVF   31,W
02EE:  MOVWF  79
02EF:  MOVF   32,W
02F0:  MOVWF  78
02F1:  BSF    79.7
02F2:  MOVF   77,F
02F3:  BTFSC  03.2
02F4:  GOTO   300
02F5:  BCF    03.0
02F6:  MOVF   79,F
02F7:  BTFSS  03.2
02F8:  GOTO   2FC
02F9:  MOVF   78,F
02FA:  BTFSC  03.2
02FB:  GOTO   300
02FC:  RRF    79,F
02FD:  RRF    78,F
02FE:  DECFSZ 77,F
02FF:  GOTO   2F5
0300:  BTFSS  31.7
0301:  GOTO   307
0302:  COMF   78,F
0303:  COMF   79,F
0304:  INCF   78,F
0305:  BTFSC  03.2
0306:  INCF   79,F
....................  
.................... #list 
....................  
.................... #DEVICE ADC = 10   
.................... #FUSES NOWDT, PUT, HS, NOPROTECT, NOLVP 
.................... #USE DELAY(CLOCK=20M) 
*
0064:  MOVLW  30
0065:  MOVWF  04
0066:  BCF    03.7
0067:  MOVF   00,W
0068:  BTFSC  03.2
0069:  GOTO   077
006A:  MOVLW  06
006B:  MOVWF  78
006C:  CLRF   77
006D:  DECFSZ 77,F
006E:  GOTO   06D
006F:  DECFSZ 78,F
0070:  GOTO   06C
0071:  MOVLW  7B
0072:  MOVWF  77
0073:  DECFSZ 77,F
0074:  GOTO   073
0075:  DECFSZ 00,F
0076:  GOTO   06A
0077:  RETURN
....................  
.................... #DEFINE  MOD  PIN_E0 
.................... #DEFINE  UP   PIN_E1 
.................... #DEFINE  DW   PIN_E2 
....................  
.................... CONST UNSIGNED CHAR MA7DOAN[16]= {0XC0,0XF9,0xA4,0XB0,0X99,0X92,0X82,0XF8, 
.................... 0X80,0X90,0x88, 0x83, 0xC6, 0xA1, 0x86, 0x8E}; 
....................  
.................... UNSIGNED INT8  GIAY,GIO,PHUT,BDN,CHUCGIO; 
.................... unsigned INT8 GIA_TRI; 
.................... UNSIGNED INT8 I; 
.................... UNSIGNED INT16 KQ; 
....................  
.................... #int_timer1 
.................... VOID INTERRUPT_TIMER1() 
.................... { 
....................    SET_TIMER1(3036); 
*
0045:  CLRF   0E
0046:  MOVLW  0B
0047:  MOVWF  0F
0048:  MOVLW  DC
0049:  MOVWF  0E
....................    BDN++; 
004A:  INCF   2A,F
004B:  BCF    0C.0
004C:  BCF    0A.3
004D:  BCF    0A.4
004E:  GOTO   01D
.................... } 
....................  
.................... VOID HIENTHI() 
.................... { 
....................    
....................                 OUTPUT_B(MA7DOAN[GIO/10]);   OUTPUT_LOW(PIN_D0);      DELAY_MS(1);      OUTPUT_HIGH(PIN_D0); 
*
009D:  MOVF   28,W
009E:  MOVWF  30
009F:  MOVLW  0A
00A0:  MOVWF  31
00A1:  CALL   04F
00A2:  MOVF   78,W
00A3:  CALL   031
00A4:  MOVWF  30
00A5:  BSF    03.5
00A6:  CLRF   06
00A7:  BCF    03.5
00A8:  MOVF   30,W
00A9:  MOVWF  06
00AA:  BSF    03.5
00AB:  BCF    08.0
00AC:  BCF    03.5
00AD:  BCF    08.0
00AE:  MOVLW  01
00AF:  MOVWF  30
00B0:  CALL   064
00B1:  BSF    03.5
00B2:  BCF    08.0
00B3:  BCF    03.5
00B4:  BSF    08.0
....................                 OUTPUT_B(MA7DOAN[GIO%10]);   OUTPUT_LOW(PIN_D1);      DELAY_MS(1);      OUTPUT_HIGH(PIN_D1); 
00B5:  MOVF   28,W
00B6:  MOVWF  30
00B7:  MOVLW  0A
00B8:  MOVWF  31
00B9:  CALL   04F
00BA:  MOVF   77,W
00BB:  CALL   031
00BC:  MOVWF  30
00BD:  BSF    03.5
00BE:  CLRF   06
00BF:  BCF    03.5
00C0:  MOVF   30,W
00C1:  MOVWF  06
00C2:  BSF    03.5
00C3:  BCF    08.1
00C4:  BCF    03.5
00C5:  BCF    08.1
00C6:  MOVLW  01
00C7:  MOVWF  30
00C8:  CALL   064
00C9:  BSF    03.5
00CA:  BCF    08.1
00CB:  BCF    03.5
00CC:  BSF    08.1
....................                
....................                 OUTPUT_B(MA7DOAN[PHUT/10]);   OUTPUT_LOW(PIN_D2);     DELAY_MS(1);      OUTPUT_HIGH(PIN_D2); 
00CD:  MOVF   29,W
00CE:  MOVWF  30
00CF:  MOVLW  0A
00D0:  MOVWF  31
00D1:  CALL   04F
00D2:  MOVF   78,W
00D3:  CALL   031
00D4:  MOVWF  30
00D5:  BSF    03.5
00D6:  CLRF   06
00D7:  BCF    03.5
00D8:  MOVF   30,W
00D9:  MOVWF  06
00DA:  BSF    03.5
00DB:  BCF    08.2
00DC:  BCF    03.5
00DD:  BCF    08.2
00DE:  MOVLW  01
00DF:  MOVWF  30
00E0:  CALL   064
00E1:  BSF    03.5
00E2:  BCF    08.2
00E3:  BCF    03.5
00E4:  BSF    08.2
....................                 OUTPUT_B(MA7DOAN[PHUT%10]);   OUTPUT_LOW(PIN_D3);     DELAY_MS(1);      OUTPUT_HIGH(PIN_D3); 
00E5:  MOVF   29,W
00E6:  MOVWF  30
00E7:  MOVLW  0A
00E8:  MOVWF  31
00E9:  CALL   04F
00EA:  MOVF   77,W
00EB:  CALL   031
00EC:  MOVWF  30
00ED:  BSF    03.5
00EE:  CLRF   06
00EF:  BCF    03.5
00F0:  MOVF   30,W
00F1:  MOVWF  06
00F2:  BSF    03.5
00F3:  BCF    08.3
00F4:  BCF    03.5
00F5:  BCF    08.3
00F6:  MOVLW  01
00F7:  MOVWF  30
00F8:  CALL   064
00F9:  BSF    03.5
00FA:  BCF    08.3
00FB:  BCF    03.5
00FC:  BSF    08.3
....................               
....................                 OUTPUT_B(MA7DOAN[GIAY/10]);   OUTPUT_LOW(PIN_D4);     DELAY_MS(1);      OUTPUT_HIGH(PIN_D4); 
00FD:  MOVF   27,W
00FE:  MOVWF  30
00FF:  MOVLW  0A
0100:  MOVWF  31
0101:  CALL   04F
0102:  MOVF   78,W
0103:  CALL   031
0104:  MOVWF  30
0105:  BSF    03.5
0106:  CLRF   06
0107:  BCF    03.5
0108:  MOVF   30,W
0109:  MOVWF  06
010A:  BSF    03.5
010B:  BCF    08.4
010C:  BCF    03.5
010D:  BCF    08.4
010E:  MOVLW  01
010F:  MOVWF  30
0110:  CALL   064
0111:  BSF    03.5
0112:  BCF    08.4
0113:  BCF    03.5
0114:  BSF    08.4
....................                 OUTPUT_B(MA7DOAN[GIAY%10]);   OUTPUT_LOW(PIN_D5);     DELAY_MS(1);      OUTPUT_HIGH(PIN_D5); 
0115:  MOVF   27,W
0116:  MOVWF  30
0117:  MOVLW  0A
0118:  MOVWF  31
0119:  CALL   04F
011A:  MOVF   77,W
011B:  CALL   031
011C:  MOVWF  30
011D:  BSF    03.5
011E:  CLRF   06
011F:  BCF    03.5
0120:  MOVF   30,W
0121:  MOVWF  06
0122:  BSF    03.5
0123:  BCF    08.5
0124:  BCF    03.5
0125:  BCF    08.5
0126:  MOVLW  01
0127:  MOVWF  30
0128:  CALL   064
0129:  BSF    03.5
012A:  BCF    08.5
012B:  BCF    03.5
012C:  BSF    08.5
....................                        
....................                 OUTPUT_B(MA7DOAN[KQ/10]);   OUTPUT_LOW(PIN_D6);      DELAY_MS(1);      OUTPUT_HIGH(PIN_D6); 
012D:  MOVF   2F,W
012E:  MOVWF  31
012F:  MOVF   2E,W
0130:  MOVWF  30
0131:  CLRF   33
0132:  MOVLW  0A
0133:  MOVWF  32
0134:  CALL   078
0135:  MOVF   79,W
0136:  MOVWF  31
0137:  MOVF   78,W
0138:  MOVWF  30
0139:  MOVF   79,W
013A:  MOVWF  7A
013B:  MOVF   78,W
013C:  CALL   031
013D:  MOVWF  32
013E:  BSF    03.5
013F:  CLRF   06
0140:  BCF    03.5
0141:  MOVF   32,W
0142:  MOVWF  06
0143:  BSF    03.5
0144:  BCF    08.6
0145:  BCF    03.5
0146:  BCF    08.6
0147:  MOVLW  01
0148:  MOVWF  30
0149:  CALL   064
014A:  BSF    03.5
014B:  BCF    08.6
014C:  BCF    03.5
014D:  BSF    08.6
....................                 OUTPUT_B(MA7DOAN[KQ%10]);   OUTPUT_LOW(PIN_D7);      DELAY_MS(1);      OUTPUT_HIGH(PIN_D7);        
014E:  MOVF   2F,W
014F:  MOVWF  31
0150:  MOVF   2E,W
0151:  MOVWF  30
0152:  CLRF   33
0153:  MOVLW  0A
0154:  MOVWF  32
0155:  CALL   078
0156:  MOVF   77,W
0157:  MOVWF  30
0158:  MOVF   7A,W
0159:  MOVWF  31
015A:  MOVWF  7A
015B:  MOVF   77,W
015C:  CALL   031
015D:  MOVWF  32
015E:  BSF    03.5
015F:  CLRF   06
0160:  BCF    03.5
0161:  MOVF   32,W
0162:  MOVWF  06
0163:  BSF    03.5
0164:  BCF    08.7
0165:  BCF    03.5
0166:  BCF    08.7
0167:  MOVLW  01
0168:  MOVWF  30
0169:  CALL   064
016A:  BSF    03.5
016B:  BCF    08.7
016C:  BCF    03.5
016D:  BSF    08.7
016E:  RETURN
.................... } 
....................  
.................... VOID TAT_LED() 
.................... { 
....................    IF(GIA_TRI==1)        { MA7DOAN[GIO/10] = 0XFF;         MA7DOAN[GIO%10] = 0XFF;  } 
016F:  DECFSZ 2C,W
0170:  GOTO   185
0171:  MOVF   28,W
0172:  MOVWF  30
0173:  MOVLW  0A
0174:  MOVWF  31
0175:  CALL   04F
0176:  MOVF   78,W
0177:  CALL   031
0178:  MOVWF  78
0179:  MOVLW  FF
017A:  MOVWF  78
017B:  MOVF   28,W
017C:  MOVWF  30
017D:  MOVLW  0A
017E:  MOVWF  31
017F:  CALL   04F
0180:  MOVF   77,W
0181:  CALL   031
0182:  MOVWF  78
0183:  MOVLW  FF
0184:  MOVWF  78
....................     IF(GIA_TRI==2)       { MA7DOAN[PHUT/10] = 0XFF;        MA7DOAN[PHUT%10] = 0XFF;  } 
0185:  MOVF   2C,W
0186:  SUBLW  02
0187:  BTFSS  03.2
0188:  GOTO   19D
0189:  MOVF   29,W
018A:  MOVWF  30
018B:  MOVLW  0A
018C:  MOVWF  31
018D:  CALL   04F
018E:  MOVF   78,W
018F:  CALL   031
0190:  MOVWF  78
0191:  MOVLW  FF
0192:  MOVWF  78
0193:  MOVF   29,W
0194:  MOVWF  30
0195:  MOVLW  0A
0196:  MOVWF  31
0197:  CALL   04F
0198:  MOVF   77,W
0199:  CALL   031
019A:  MOVWF  78
019B:  MOVLW  FF
019C:  MOVWF  78
....................      IF(GIA_TRI==3)      { MA7DOAN[GIAY/10] = 0XFF;        MA7DOAN[GIAY%10] = 0XFF;  } 
019D:  MOVF   2C,W
019E:  SUBLW  03
019F:  BTFSS  03.2
01A0:  GOTO   1B5
01A1:  MOVF   27,W
01A2:  MOVWF  30
01A3:  MOVLW  0A
01A4:  MOVWF  31
01A5:  CALL   04F
01A6:  MOVF   78,W
01A7:  CALL   031
01A8:  MOVWF  78
01A9:  MOVLW  FF
01AA:  MOVWF  78
01AB:  MOVF   27,W
01AC:  MOVWF  30
01AD:  MOVLW  0A
01AE:  MOVWF  31
01AF:  CALL   04F
01B0:  MOVF   77,W
01B1:  CALL   031
01B2:  MOVWF  78
01B3:  MOVLW  FF
01B4:  MOVWF  78
01B5:  BCF    0A.3
01B6:  BCF    0A.4
01B7:  GOTO   3ED (RETURN)
.................... } 
....................  
....................  
.................... //XXXXXXXXXXXXXXXXXXXXXXXXXXXXXXXXXXXXXXXXXXXXXXXXXXXXXXXXXXXXXXXXXXXXXXXXXXXXXXXXXXXXXXXXXXXXXXXXXXXXXXXXXXXXXX 
.................... VOID LM35() 
.................... { 
....................     
....................       KQ=0; 
*
0282:  CLRF   2F
0283:  CLRF   2E
....................       FOR(I=0;I<25;I++) 
0284:  CLRF   2D
0285:  MOVF   2D,W
0286:  SUBLW  18
0287:  BTFSS  03.0
0288:  GOTO   299
....................       { 
....................          KQ = KQ + READ_ADC();      //doc gia tri ADC 
0289:  BSF    1F.1
028A:  BTFSC  1F.1
028B:  GOTO   28A
028C:  BSF    03.5
028D:  MOVF   1E,W
028E:  BCF    03.5
028F:  ADDWF  2E,F
0290:  MOVF   1E,W
0291:  BTFSC  03.0
0292:  INCFSZ 1E,W
0293:  ADDWF  2F,F
....................          DELAY_MS(1); 
0294:  MOVLW  01
0295:  MOVWF  30
0296:  CALL   064
0297:  INCF   2D,F
0298:  GOTO   285
....................        //  HIENTHI(); 
....................       } 
....................       KQ = KQ/2.046/25; 
0299:  MOVF   2F,W
029A:  MOVWF  31
029B:  MOVF   2E,W
029C:  MOVWF  30
*
02B9:  MOVF   7A,W
02BA:  MOVWF  37
02BB:  MOVF   79,W
02BC:  MOVWF  36
02BD:  MOVF   78,W
02BE:  MOVWF  35
02BF:  MOVF   77,W
02C0:  MOVWF  34
02C1:  MOVLW  AA
02C2:  MOVWF  3B
02C3:  MOVLW  F1
02C4:  MOVWF  3A
02C5:  MOVLW  02
02C6:  MOVWF  39
02C7:  MOVLW  80
02C8:  MOVWF  38
02C9:  CALL   1B8
02CA:  MOVF   7A,W
02CB:  MOVWF  33
02CC:  MOVF   79,W
02CD:  MOVWF  32
02CE:  MOVF   78,W
02CF:  MOVWF  31
02D0:  MOVF   77,W
02D1:  MOVWF  30
02D2:  MOVF   33,W
02D3:  MOVWF  37
02D4:  MOVF   32,W
02D5:  MOVWF  36
02D6:  MOVF   31,W
02D7:  MOVWF  35
02D8:  MOVF   30,W
02D9:  MOVWF  34
02DA:  CLRF   3B
02DB:  CLRF   3A
02DC:  MOVLW  48
02DD:  MOVWF  39
02DE:  MOVLW  83
02DF:  MOVWF  38
02E0:  CALL   1B8
02E1:  MOVF   7A,W
02E2:  MOVWF  33
02E3:  MOVF   79,W
02E4:  MOVWF  32
02E5:  MOVF   78,W
02E6:  MOVWF  31
02E7:  MOVF   77,W
02E8:  MOVWF  30
*
0307:  MOVF   79,W
0308:  MOVWF  2F
0309:  MOVF   78,W
030A:  MOVWF  2E
030B:  BCF    0A.3
030C:  BCF    0A.4
030D:  GOTO   3EE (RETURN)
....................         
.................... } 
....................  
.................... //XXXXXXXXXXXXXXXXXXXXXXXXXXXXXXXXXXXXXXXXXXXXXXXXXXXXXXXXXXXXXXXXXXXXXXXXXXXXXXXXXXXXXXXXXXXXXXXXXXXXXXXXXXXXXXXXXXXXXX 
.................... VOID PHIM_MOD() 
.................... { 
....................    IF(!INPUT(MOD)) 
030E:  BSF    03.5
030F:  BSF    09.0
0310:  BCF    03.5
0311:  BTFSC  09.0
0312:  GOTO   325
....................    { 
....................       DELAY_MS(20); 
0313:  MOVLW  14
0314:  MOVWF  30
0315:  CALL   064
....................       IF(!INPUT(MOD)) 
0316:  BSF    03.5
0317:  BSF    09.0
0318:  BCF    03.5
0319:  BTFSC  09.0
031A:  GOTO   325
....................       { 
....................          GIA_TRI++; 
031B:  INCF   2C,F
....................          IF(GIA_TRI==4)       GIA_TRI=0; 
031C:  MOVF   2C,W
031D:  SUBLW  04
031E:  BTFSC  03.2
031F:  CLRF   2C
....................          
....................        WHILE(!INPUT(MOD)); 
0320:  BSF    03.5
0321:  BSF    09.0
0322:  BCF    03.5
0323:  BTFSS  09.0
0324:  GOTO   320
....................       } 
....................         
....................    } 
0325:  BCF    0A.3
0326:  BCF    0A.4
0327:  GOTO   3F0 (RETURN)
.................... } 
....................  
.................... //XXXXXXXXXXXXXXXXXXXXXXXXXXXXXXXXXXXXXXXXXXXXXXXXXXXXXXXXXXXXXXXXXXXXXXXXXXXXXXXXXX 
.................... VOID PHIM_UP() 
.................... { 
....................    IF(!INPUT(UP)) 
0328:  BSF    03.5
0329:  BSF    09.1
032A:  BCF    03.5
032B:  BTFSC  09.1
032C:  GOTO   35C
....................    { 
....................       DELAY_MS(20); 
032D:  MOVLW  14
032E:  MOVWF  30
032F:  CALL   064
....................       IF(!INPUT(UP)) 
0330:  BSF    03.5
0331:  BSF    09.1
0332:  BCF    03.5
0333:  BTFSC  09.1
0334:  GOTO   357
....................       { 
....................          SWITCH(GIA_TRI) 
0335:  MOVF   2C,W
0336:  XORLW  01
0337:  BTFSC  03.2
0338:  GOTO   340
0339:  XORLW  03
033A:  BTFSC  03.2
033B:  GOTO   348
033C:  XORLW  01
033D:  BTFSC  03.2
033E:  GOTO   350
033F:  GOTO   357
....................          { 
....................             CASE 1:  IF(GIO==23)        GIO=0; 
0340:  MOVF   28,W
0341:  SUBLW  17
0342:  BTFSS  03.2
0343:  GOTO   346
0344:  CLRF   28
0345:  GOTO   347
....................                      ELSE     GIO++; 
0346:  INCF   28,F
....................                      BREAK; 
0347:  GOTO   357
....................                       
....................             CASE 2:  IF(PHUT==59)       PHUT=0; 
0348:  MOVF   29,W
0349:  SUBLW  3B
034A:  BTFSS  03.2
034B:  GOTO   34E
034C:  CLRF   29
034D:  GOTO   34F
....................                      ELSE     PHUT++; 
034E:  INCF   29,F
....................                      BREAK; 
034F:  GOTO   357
....................              
....................             CASE 3:  IF(GIAY==59)       GIAY=0; 
0350:  MOVF   27,W
0351:  SUBLW  3B
0352:  BTFSS  03.2
0353:  GOTO   356
0354:  CLRF   27
0355:  GOTO   357
....................                      ELSE     GIAY++; 
0356:  INCF   27,F
....................                      BREAK; 
....................          } 
....................       } 
....................  
....................      WHILE(!INPUT(UP)); 
0357:  BSF    03.5
0358:  BSF    09.1
0359:  BCF    03.5
035A:  BTFSS  09.1
035B:  GOTO   357
....................    } 
035C:  BCF    0A.3
035D:  BCF    0A.4
035E:  GOTO   3F1 (RETURN)
.................... } 
....................  
.................... //XXXXXXXXXXXXXXXXXXXXXXXXXXXXXXXXXXXXXXXXXXXXXXXXXXXXXXXXXXXXXXXXXXXXXXXXXXXXXXXXXX 
.................... VOID PHIM_DW() 
.................... { 
....................    IF(!INPUT(DW)) 
035F:  BSF    03.5
0360:  BSF    09.2
0361:  BCF    03.5
0362:  BTFSC  09.2
0363:  GOTO   393
....................    { 
....................       DELAY_MS(20); 
0364:  MOVLW  14
0365:  MOVWF  30
0366:  CALL   064
....................       IF(!INPUT(DW)) 
0367:  BSF    03.5
0368:  BSF    09.2
0369:  BCF    03.5
036A:  BTFSC  09.2
036B:  GOTO   38E
....................       { 
....................          SWITCH(GIA_TRI) 
036C:  MOVF   2C,W
036D:  XORLW  01
036E:  BTFSC  03.2
036F:  GOTO   377
0370:  XORLW  03
0371:  BTFSC  03.2
0372:  GOTO   37F
0373:  XORLW  01
0374:  BTFSC  03.2
0375:  GOTO   387
0376:  GOTO   38E
....................          { 
....................             CASE 1:  IF(GIO==0)        GIO=23; 
0377:  MOVF   28,F
0378:  BTFSS  03.2
0379:  GOTO   37D
037A:  MOVLW  17
037B:  MOVWF  28
037C:  GOTO   37E
....................                      ELSE     GIO++; 
037D:  INCF   28,F
....................                      BREAK; 
037E:  GOTO   38E
....................                       
....................             CASE 2:  IF(PHUT==0)       PHUT=59; 
037F:  MOVF   29,F
0380:  BTFSS  03.2
0381:  GOTO   385
0382:  MOVLW  3B
0383:  MOVWF  29
0384:  GOTO   386
....................                      ELSE     PHUT++; 
0385:  INCF   29,F
....................                      BREAK; 
0386:  GOTO   38E
....................              
....................             CASE 3:  IF(GIAY==0)       GIAY=59; 
0387:  MOVF   27,F
0388:  BTFSS  03.2
0389:  GOTO   38D
038A:  MOVLW  3B
038B:  MOVWF  27
038C:  GOTO   38E
....................                      ELSE     GIAY++; 
038D:  INCF   27,F
....................                      BREAK; 
....................          } 
....................       } 
....................  
....................      WHILE(!INPUT(DW)); 
038E:  BSF    03.5
038F:  BSF    09.2
0390:  BCF    03.5
0391:  BTFSS  09.2
0392:  GOTO   38E
....................    } 
0393:  BCF    0A.3
0394:  BCF    0A.4
0395:  GOTO   3F2 (RETURN)
.................... } 
....................  
.................... //XXXXXXXXXXXXXXXXXXXXXXXXXXXXXXXXXXXXXXXXXXXXXXXXXXXXXXXXXXXXXXXXXXXXXXXXXXXXXXXXXX 
.................... VOID MAIN() 
0396:  MOVF   03,W
0397:  ANDLW  1F
0398:  MOVWF  03
0399:  BSF    03.5
039A:  BSF    03.6
039B:  MOVF   09,W
039C:  ANDLW  C0
039D:  MOVWF  09
039E:  BCF    03.6
039F:  BCF    1F.4
03A0:  BCF    1F.5
03A1:  MOVLW  00
03A2:  BSF    03.6
03A3:  MOVWF  08
03A4:  BCF    03.5
03A5:  CLRF   07
03A6:  CLRF   08
03A7:  CLRF   09
03A8:  BCF    03.7
.................... { 
....................    SET_TRIS_D(0X00); 
03A9:  MOVLW  00
03AA:  BSF    03.5
03AB:  BCF    03.6
03AC:  MOVWF  08
....................    SET_TRIS_B(0X00); 
03AD:  MOVWF  06
....................    SET_TRIS_A(0X01); 
03AE:  MOVLW  01
03AF:  MOVWF  05
....................     
....................    SETUP_ADC(ADC_CLOCK_DIV_32);      //khoi tao ADC 
03B0:  BCF    03.5
03B1:  BCF    1F.6
03B2:  BSF    1F.7
03B3:  BSF    03.5
03B4:  BSF    1F.7
03B5:  BCF    03.5
03B6:  BSF    1F.0
....................    SETUP_ADC_PORTS(SAN0|SAN1);           //khoi tao Port 
03B7:  BSF    03.5
03B8:  BSF    03.6
03B9:  MOVF   09,W
03BA:  ANDLW  C0
03BB:  MOVWF  09
03BC:  BCF    03.6
03BD:  BCF    1F.4
03BE:  BCF    1F.5
03BF:  MOVLW  03
03C0:  BSF    03.6
03C1:  MOVWF  08
....................    SET_ADC_CHANNEL(0);  
03C2:  MOVLW  00
03C3:  MOVWF  78
03C4:  BCF    03.5
03C5:  BCF    03.6
03C6:  MOVF   1F,W
03C7:  ANDLW  C3
03C8:  IORWF  78,W
03C9:  MOVWF  1F
....................     
....................    GIAY=0; 
03CA:  CLRF   27
....................    PHUT=0; 
03CB:  CLRF   29
....................    GIO=0; 
03CC:  CLRF   28
....................    BDN=0; 
03CD:  CLRF   2A
....................    HIENTHI(); 
03CE:  CALL   09D
....................    SETUP_TIMER_1(T1_INTERNAL|T1_DIV_BY_8); 
03CF:  MOVLW  35
03D0:  MOVWF  10
....................    SET_TIMER1(3036); 
03D1:  CLRF   0E
03D2:  MOVLW  0B
03D3:  MOVWF  0F
03D4:  MOVLW  DC
03D5:  MOVWF  0E
....................     
....................    ENABLE_INTERRUPTS(GLOBAL); 
03D6:  MOVLW  C0
03D7:  IORWF  0B,F
....................    ENABLE_INTERRUPTS(INT_TIMER1); 
03D8:  BSF    03.5
03D9:  BSF    0C.0
....................    
....................     
....................    WHILE(TRUE) 
....................    { 
....................     
....................       IF(BDN<10) 
03DA:  BCF    03.5
03DB:  MOVF   2A,W
03DC:  SUBLW  09
03DD:  BTFSS  03.0
03DE:  GOTO   3F3
....................       { 
....................             IF((BDN<5) && (!INPUT(UP)) && (!INPUT(DW)))      TAT_LED(); 
03DF:  MOVF   2A,W
03E0:  SUBLW  04
03E1:  BTFSS  03.0
03E2:  GOTO   3ED
03E3:  BSF    03.5
03E4:  BSF    09.1
03E5:  BCF    03.5
03E6:  BTFSC  09.1
03E7:  GOTO   3ED
03E8:  BSF    03.5
03E9:  BSF    09.2
03EA:  BCF    03.5
03EB:  BTFSS  09.2
03EC:  GOTO   16F
....................             LM35(); 
03ED:  GOTO   282
....................             HIENTHI(); 
03EE:  CALL   09D
....................             
....................             PHIM_MOD(); 
03EF:  GOTO   30E
....................             PHIM_UP(); 
03F0:  GOTO   328
....................             PHIM_DW(); 
03F1:  GOTO   35F
....................       } 
03F2:  GOTO   406
....................        
....................       ELSE 
....................       { 
....................             BDN=BDN-10; 
03F3:  MOVLW  0A
03F4:  SUBWF  2A,F
....................                GIAY++;  
03F5:  INCF   27,F
....................                IF(GIAY==60)  
03F6:  MOVF   27,W
03F7:  SUBLW  3C
03F8:  BTFSS  03.2
03F9:  GOTO   406
....................                { 
....................                   GIAY=0; 
03FA:  CLRF   27
....................                   PHUT++; 
03FB:  INCF   29,F
....................                   IF(PHUT==60) 
03FC:  MOVF   29,W
03FD:  SUBLW  3C
03FE:  BTFSS  03.2
03FF:  GOTO   406
....................                      { 
....................                         PHUT=0; 
0400:  CLRF   29
....................                         GIO++; 
0401:  INCF   28,F
....................                         IF(GIO==24)       GIO=0; 
0402:  MOVF   28,W
0403:  SUBLW  18
0404:  BTFSC  03.2
0405:  CLRF   28
....................                      } 
....................                } 
....................             }          
0406:  GOTO   3DB
....................    } 
.................... } 
0407:  SLEEP

Configuration Fuses:
   Word  1: 2FE2   HS NOWDT PUT MCLR NOPROTECT NOCPD BROWNOUT IESO FCMEN NOLVP NODEBUG
   Word  2: 3FFF   BORV40 NOWRT
