004-005 @WRITE_PROGRAM_MEMORY8.P1
004-005 @READ_PROGRAM_MEMORY8.P2
008     PSP_DATA
015     CCP_1_LOW
015     CCP_1
016     CCP_1_HIGH
01B     CCP_2
01B     CCP_2_LOW
01C     CCP_2_HIGH
020     @TRIS_C
021-031 chuoi
032-033 @sprintf_string
034-037 atan2.y
034-035 MAIN.Adc
036     lcd_init.i
036-037 lcd_puts.str
036     @PSTRINGCN7_799.P1
036-037 @PRINTF_LD_799.P2
036     MAIN.@SCRATCH1
037     lcd_init.@SCRATCH1
037     @PSTRINGCN7_799.@SCRATCH1
038-03B atan2.x
038     lcd_puts.@SCRATCH1
038     @PSTRINGCN7_799.@SCRATCH2
038     @PRINTF_LD_799.@SCRATCH1
039     lcd_putc.c
039     @PSTRINGCN7_799.@SCRATCH3
039     @PRINTF_LD_799.@SCRATCH2
03A     lcd_gotoxy.x
03A     @delay_ms1.P1
03A     @PSTRINGCN7_799.@SCRATCH4
03A     @PRINTF_LD_799.@SCRATCH3
03B     lcd_gotoxy.y
03B     @PRINTF_LD_799.@SCRATCH4
03C-03F atan2.z
03C     lcd_gotoxy.address
03C     @PRINTF_LD_799.@SCRATCH5
03D     lcd_gotoxy.@SCRATCH1
03D     @PRINTF_LD_799.@SCRATCH6
03E     lcd_send_byte.address
03E     @PRINTF_LD_799.@SCRATCH7
03F     @SPRINTF.P1
03F     lcd_send_byte.n
040.0   atan2.sign
040     lcd_read_byte.low
040     lcd_send_byte.@SCRATCH1
041     lcd_read_byte.high
041     lcd_send_nibble.n
041     atan2.quad
042     lcd_read_nibble.n
042     lcd_read_byte.@SCRATCH1
043     lcd_read_nibble.@SCRATCH1
077     @SCRATCH
078     @SCRATCH
078     _RETURN_
079     @SCRATCH
07A     @SCRATCH
09C.6   C1OUT
09C.7   C2OUT
10D-10E @WRITE_PROGRAM_MEMORY8.P1
10D-10E @READ_PROGRAM_MEMORY8.P2

ROM Allocation:
000004  LCD_INIT_STRING.call
000008  LCD_INIT_STRING.data
00000C  @const797.call
000011  @delay_ms1
000025  lcd_send_nibble
000061  lcd_read_nibble
00009A  lcd_send_byte
00009F  lcd_read_byte
000121  lcd_init
00017B  lcd_clear
000185  lcd_gotoxy
0001A8  @SPRINTF
0001B5  @PSTRINGCN7_799
00020E  @PRINTF_LD_799
000290  lcd_puts
0002A5  lcd_putc
0002CF  MAIN
0002CF  @cinit1
0002DD  @cinit2

Project Directory:
    C:\Users\Admin\Desktop\PIC16 LEARNNING\software\ADC Read\

Project Files:
    main.c                                                  [04-Thg4-20 00:22  CRC=9724311F]
    main.h                                                  [04-Thg4-20 00:13  CRC=D8102B21]
    ..\..\..\..\..\..\Program Files (x86)\PICC\Devices\16F877A.h [12-Thg11-13 14:35  CRC=81334808]
    lcd.h                                                   [03-Thg4-20 21:47  CRC=D6B846F7]
    ..\..\..\..\..\..\Program Files (x86)\PICC\Drivers\math.h [28-Thg9-12 11:35  CRC=546412C9]

Source signature=6FE810D1

Units:
    main (main)

Compiler Settings:
    Processor:      PIC16F877A
    Pointer Size:   16
    ADC Range:      0-65535
    Opt Level:      9
    Short,Int,Long: UNSIGNED: 1,8,16
    Float,Double:   32,32

Output Files:
    XREF file:   main.xsym
    Errors:      main.err
    Ext Symbols: main.esym
    INHX8:       main.hex
    Symbols:     main.sym
    List:        main.lst
    Debug/COFF:  main.cof
    Project:     main.ccspjt
    Call Tree:   main.tre
    Statistics:  main.STA
