004-005 @READ_PROGRAM_MEMORY8.P1
004-005 @WRITE_PROGRAM_MEMORY8.P2
015     CCP_1_LOW
015     CCP_1
016     CCP_1_HIGH
01B     CCP_2
01B     CCP_2_LOW
01C     CCP_2_HIGH
020     I
021     SETUP_GLCD.GLCD_FUNCTION_SET_MODE
021     MAIN.@SCRATCH1
021     @PSTRINGC7_622.@SCRATCH1
022     @delay_ms1.P1
022     GLCD_COMMAND.MDK
022     @PSTRINGC7_622.@SCRATCH2
023     @PSTRINGC7_622.@SCRATCH3
024     GLCD_DATA.MHT
024     @PSTRINGC7_622.@SCRATCH4
077     @SCRATCH
078     @SCRATCH
078     _RETURN_
079     @SCRATCH
07A     @SCRATCH
107.6   C1OUT
108.6   C2OUT
10D-10E @WRITE_PROGRAM_MEMORY8.P1
10D-10E @READ_PROGRAM_MEMORY8.P2

ROM Allocation:
000004  HANG.call
000008  HANG.data
000028  @const633.call
000030  GLCD_COMMAND
00004E  SETUP_GLCD
00006F  @delay_ms1
00008D  GLCD_DATA
0000AB  @PSTRINGC7_622
000103  @cinit1
000103  MAIN
000115  @cinit2

Project Directory:
    E:\Youtube\Pic16F887\LCD\LCD_20X4\

Project Files:
    GLCD_FONT_LON.c                                         [08-Thg11-16 23:55  CRC=F1516FC4]
    C:\Program Files (x86)\PICC\Devices\16F887.H            [12-Thg11-13 14:35  CRC=6CB1A611]
    ..\..\GLCD\TV_GLCD.c                                    [29-Thg10-16 10:15  CRC=EB67F905]

Source signature=34D307DF

Units:
    GLCD_FONT_LON (main)

Compiler Settings:
    Processor:      PIC16F887
    Pointer Size:   16
    ADC Range:      0-255
    Opt Level:      9
    Short,Int,Long: UNSIGNED: 1,8,16
    Float,Double:   32,32

Output Files:
    XREF file:   GLCD_FONT_LON.xsym
    Errors:      GLCD_FONT_LON.err
    Ext Symbols: GLCD_FONT_LON.esym
    INHX8:       GLCD_FONT_LON.hex
    Symbols:     GLCD_FONT_LON.sym
    List:        GLCD_FONT_LON.lst
    Debug/COFF:  GLCD_FONT_LON.cof
    Project:     GLCD_FONT_LON.ccspjt
    Call Tree:   GLCD_FONT_LON.tre
    Statistics:  GLCD_FONT_LON.STA
