004-005 @READ_PROGRAM_MEMORY8.P1
004-005 @WRITE_PROGRAM_MEMORY8.P2
015     CCP_1_LOW
015     CCP_1
016     CCP_1_HIGH
01B     CCP_2
01B     CCP_2_LOW
01C     CCP_2_HIGH
020     CHOPHEP
021     J
022     I
023-024 T0
025-026 T0_TAM
027     DEM_LEN.@SCRATCH1
027     DEM_XUONG.@SCRATCH1
027     MAIN.@SCRATCH1
028     @delay_ms1.P1
028     DEM_LEN.@SCRATCH2
028     DEM_XUONG.@SCRATCH2
028     MAIN.@SCRATCH2
029     @DIVS88.P1
029     DEM_XUONG.@SCRATCH3
029     MAIN.@SCRATCH3
02A     @DIVS88.P1
02A     MAIN.@SCRATCH4
02B     @DIVS88.@SCRATCH1
02B     MAIN.@SCRATCH5
02C     @DIVS88.@SCRATCH2
02C     MAIN.@SCRATCH6
02D-02E @DIV1616.P1
02D     MAIN.@SCRATCH7
02E     MAIN.@SCRATCH8
02F-030 @DIV1616.P1
02F     MAIN.@SCRATCH9
030     XUAT_4LED_7DOAN_4SO.BL1
031     XUAT_4LED_7DOAN_4SO.BL2
031     @DIV1616.@SCRATCH1
032     XUAT_4LED_7DOAN_4SO.BL3
033     XUAT_4LED_7DOAN_4SO.BL4
034     XUAT_1BYTE.BYTEXUAT
035     XUAT_1BYTE.SB
036     XUAT_1BYTE.x
036.7   XUAT_1BYTE.BSERI
077     @SCRATCH
078     @SCRATCH
078     _RETURN_
079     @SCRATCH
07A     @SCRATCH
107.6   C1OUT
108.6   C2OUT
10D-10E @READ_PROGRAM_MEMORY8.P1
10D-10E @WRITE_PROGRAM_MEMORY8.P2

ROM Allocation:
000004  MA7DOAN.call
000008  MA7DOAN.data
000018  @DIV1616
00003D  XUAT_1BYTE
000057  XUAT_4LED_7DOAN_4SO
00006C  @DIVS88
000091  @delay_ms1
0000A5  DEM_LEN
0000F5  DEM_XUONG
000160  @cinit1
000160  MAIN
000173  @cinit2

Project Directory:
    E:\Youtube\Pic16F887\Bai2_led7doan_nt\

Project Files:
    BAI1.c                                                  [04-Sep-16 09:45  CRC=EA2C56BA]
    C:\Program Files (x86)\PICC\devices\16F887.H            [12-Nov-13 14:35  CRC=6CB1A611]
    tv_4led_7doan.c                                         [04-Sep-16 09:42  CRC=33AF3E82]

Source signature=BE3C79CF

Units:
    BAI1 (main)

Compiler Settings:
    Processor:      PIC16F887
    Pointer Size:   16
    ADC Range:      0-255
    Opt Level:      9
    Short,Int,Long: UNSIGNED: 1,8,16
    Float,Double:   32,32

Output Files:
    XREF file:   BAI1.xsym
    Errors:      BAI1.err
    Ext Symbols: BAI1.esym
    INHX8:       BAI1.hex
    Symbols:     BAI1.sym
    List:        BAI1.lst
    Debug/COFF:  BAI1.cof
    Project:     BAI1.ccspjt
    Call Tree:   BAI1.tre
    Statistics:  BAI1.STA
