004-005 @READ_PROGRAM_MEMORY8.P1
004-005 @WRITE_PROGRAM_MEMORY8.P2
015     CCP_1
015     CCP_1_LOW
016     CCP_1_HIGH
01B     CCP_2_LOW
01B     CCP_2
01C     CCP_2_HIGH
020     T0
021     DV
022     CHUC
023     TRAM
024     XUAT_4LED_7DOAN_4SO.BL1
024     MAIN.@SCRATCH1
025     @DIV88.P1
025     XUAT_4LED_7DOAN_4SO.BL2
026     XUAT_4LED_7DOAN_4SO.BL3
026     @DIV88.P1
027     XUAT_4LED_7DOAN_4SO.BL4
027     @DIV88.@SCRATCH1
028     XUAT_1BYTE.BYTEXUAT
029     XUAT_1BYTE.SB
02A     XUAT_1BYTE.x
02A.7   XUAT_1BYTE.BSERI
077     @SCRATCH
078     @SCRATCH
078     _RETURN_
079     @SCRATCH
07A     @SCRATCH
107.6   C1OUT
108.6   C2OUT
10D-10E @READ_PROGRAM_MEMORY8.P1
10D-10E @WRITE_PROGRAM_MEMORY8.P2

ROM Allocation:
000004  MA7DOAN.call
000008  MA7DOAN.data
000018  @DIV88
00002D  XUAT_1BYTE
000047  XUAT_4LED_7DOAN_4SO
00005E  MAIN
00005E  @cinit1
000070  @cinit2

Project Directory:
    E:\Youtube\Pic16F887\TIMER_COUNTER\COUNTER\COUNTER_LED_7DOAN_595\

Project Files:
    COUNTER_LED_7DOAN_595.c                                 [16-Thg9-16 17:58  CRC=7DFB6372]
    C:\Program Files (x86)\PICC\devices\16F887.H            [12-Thg11-13 14:35  CRC=6CB1A611]
    TV_4LED_7DOAN.C                                         [09-Thg7-16 11:47  CRC=91FAE863]

Source signature=0EA2DA49

Units:
    COUNTER_LED_7DOAN_595 (main)

Compiler Settings:
    Processor:      PIC16F887
    Pointer Size:   16
    ADC Range:      0-255
    Opt Level:      9
    Short,Int,Long: UNSIGNED: 1,8,16
    Float,Double:   32,32

Output Files:
    XREF file:   COUNTER_LED_7DOAN_595.xsym
    Errors:      COUNTER_LED_7DOAN_595.err
    Ext Symbols: COUNTER_LED_7DOAN_595.esym
    INHX8:       COUNTER_LED_7DOAN_595.hex
    Symbols:     COUNTER_LED_7DOAN_595.sym
    List:        COUNTER_LED_7DOAN_595.lst
    Debug/COFF:  COUNTER_LED_7DOAN_595.cof
    Project:     COUNTER_LED_7DOAN_595.ccspjt
    Call Tree:   COUNTER_LED_7DOAN_595.tre
    Statistics:  COUNTER_LED_7DOAN_595.STA
