CCS PCM C Compiler, Version 5.015, 5967               16-Thg9-16 18:00

               Filename:   E:\Youtube\Pic16F887\TIMER_COUNTER\COUNTER\COUNTER_LED_7DOAN_595\COUNTER_LED_7DOAN_595.lst

               ROM used:   189 words (2%)
                           Largest free fragment is 2048
               RAM used:   10 (3%) at main() level
                           16 (4%) worst case
               Stack used: 2 locations
               Stack size: 8

*
0000:  MOVLW  00
0001:  MOVWF  0A
0002:  GOTO   05E
0003:  NOP
.................... #INCLUDE <16F887.H> 
.................... //////////// Standard Header file for the PIC16F887 device //////////////// 
.................... /////////////////////////////////////////////////////////////////////////// 
.................... ////        (C) Copyright 1996, 2013 Custom Computer Services          //// 
.................... //// This source code may only be used by licensed users of the CCS C  //// 
.................... //// compiler.  This source code may only be distributed to other      //// 
.................... //// licensed users of the CCS C compiler.  No other use, reproduction //// 
.................... //// or distribution is permitted without written permission.          //// 
.................... //// Derivative programs created using this software in object code    //// 
.................... //// form are not restricted in any way.                               //// 
.................... /////////////////////////////////////////////////////////////////////////// 
.................... #device PIC16F887 
0004:  BCF    0A.0
0005:  BCF    0A.1
0006:  BCF    0A.2
0007:  ADDWF  02,F
0008:  RETLW  C0
0009:  RETLW  F9
000A:  RETLW  A4
000B:  RETLW  B0
000C:  RETLW  99
000D:  RETLW  92
000E:  RETLW  82
000F:  RETLW  F8
0010:  RETLW  80
0011:  RETLW  90
0012:  RETLW  88
0013:  RETLW  83
0014:  RETLW  C6
0015:  RETLW  A1
0016:  RETLW  86
0017:  RETLW  8E
0018:  MOVF   26,W
0019:  CLRF   78
001A:  SUBWF  25,W
001B:  BTFSC  03.0
001C:  GOTO   020
001D:  MOVF   25,W
001E:  MOVWF  77
001F:  GOTO   02C
0020:  CLRF   77
0021:  MOVLW  08
0022:  MOVWF  27
0023:  RLF    25,F
0024:  RLF    77,F
0025:  MOVF   26,W
0026:  SUBWF  77,W
0027:  BTFSC  03.0
0028:  MOVWF  77
0029:  RLF    78,F
002A:  DECFSZ 27,F
002B:  GOTO   023
002C:  RETURN
....................  
.................... #list 
....................  
.................... #FUSES NOWDT, PUT, HS, NOPROTECT, NOLVP 
.................... #USE DELAY(CLOCK=20M) 
....................  
.................... #INCLUDE <TV_4LED_7DOAN.C> 
.................... #DEFINE CLK   PIN_D1 
.................... #DEFINE DS    PIN_D2 
.................... #DEFINE ST    PIN_D3 
....................  
.................... CONST UNSIGNED CHAR MA7DOAN[16]= {0XC0,0XF9,0xA4,0XB0,0X99,0X92,0X82,0XF8, 
.................... 0X80,0X90,0x88, 0x83, 0xC6, 0xA1, 0x86, 0x8E}; 
....................  
.................... //XUAT 1 BYTE RA THANH GHI DICH 
.................... //XXXXXXXXXXXXXXXXXXXXXXXXXXXXXXXXXXXXXXXXXXXX     
.................... VOID XUAT_1BYTE(UNSIGNED INT8 BYTEXUAT) 
.................... { 
....................    UNSIGNED INT8   SB,X;    
....................    #BIT BSERI  = X.7 
....................    X = BYTEXUAT; 
002D:  MOVF   28,W
002E:  MOVWF  2A
....................    FOR (SB=0;SB<8;SB++) 
002F:  CLRF   29
0030:  MOVF   29,W
0031:  SUBLW  07
0032:  BTFSS  03.0
0033:  GOTO   046
....................       {                                                  
....................          OUTPUT_BIT(DS,BSERI);     
0034:  BTFSC  2A.7
0035:  GOTO   038
0036:  BCF    08.2
0037:  GOTO   039
0038:  BSF    08.2
0039:  BSF    03.5
003A:  BCF    08.2
....................          OUTPUT_LOW(CLK); OUTPUT_HIGH(CLK); 
003B:  BCF    08.1
003C:  BCF    03.5
003D:  BCF    08.1
003E:  BSF    03.5
003F:  BCF    08.1
0040:  BCF    03.5
0041:  BSF    08.1
....................          X= X<<1;          
0042:  BCF    03.0
0043:  RLF    2A,F
0044:  INCF   29,F
0045:  GOTO   030
....................      } 
0046:  RETURN
.................... } 
....................  
.................... //XXXXXXXXXXXXXXXXXXXXXXXXXXXXXXXXXXXXXXXXXXXXXXX 
.................... VOID XUAT_4LED_7DOAN_4SO(UNSIGNED INT BL1,BL2,BL3,BL4) 
.................... { 
....................    XUAT_1BYTE(BL4); 
0047:  MOVF   27,W
0048:  MOVWF  28
0049:  CALL   02D
....................    XUAT_1BYTE(BL3); 
004A:  MOVF   26,W
004B:  MOVWF  28
004C:  CALL   02D
....................    XUAT_1BYTE(BL2); 
004D:  MOVF   25,W
004E:  MOVWF  28
004F:  CALL   02D
....................    XUAT_1BYTE(BL1); 
0050:  MOVF   24,W
0051:  MOVWF  28
0052:  CALL   02D
....................     
....................    OUTPUT_LOW(ST);      
0053:  BSF    03.5
0054:  BCF    08.3
0055:  BCF    03.5
0056:  BCF    08.3
....................    OUTPUT_HIGH(ST); 
0057:  BSF    03.5
0058:  BCF    08.3
0059:  BCF    03.5
005A:  BSF    08.3
005B:  BCF    0A.3
005C:  BCF    0A.4
005D:  GOTO   0B5 (RETURN)
....................        
.................... } 
....................  
....................  
....................  
.................... UNSIGNED INT8 T0,DV,CHUC,TRAM; 
....................  
.................... VOID MAIN() 
005E:  MOVF   03,W
005F:  ANDLW  1F
0060:  MOVWF  03
0061:  BSF    03.5
0062:  BSF    03.6
0063:  MOVF   09,W
0064:  ANDLW  C0
0065:  MOVWF  09
0066:  BCF    03.6
0067:  BCF    1F.4
0068:  BCF    1F.5
0069:  MOVLW  00
006A:  BSF    03.6
006B:  MOVWF  08
006C:  BCF    03.5
006D:  CLRF   07
006E:  CLRF   08
006F:  CLRF   09
0070:  BCF    03.7
.................... { 
....................    SET_TRIS_D(0X00);   
0071:  MOVLW  00
0072:  BSF    03.5
0073:  BCF    03.6
0074:  MOVWF  08
....................     
....................    SETUP_TIMER_0(T0_EXT_L_TO_H|T0_DIV_1); 
0075:  MOVF   01,W
0076:  ANDLW  C7
0077:  IORLW  28
0078:  MOVWF  01
....................    SET_TIMER0(0); 
0079:  BCF    03.5
007A:  CLRF   01
....................    TRAM=0; 
007B:  CLRF   23
....................    CHUC=0; 
007C:  CLRF   22
....................    DV=0; 
007D:  CLRF   21
....................    WHILE(TRUE) 
....................    { 
....................       T0 = GET_TIMER0(); 
007E:  MOVF   01,W
007F:  MOVWF  20
....................       DV=MA7DOAN[T0%10];      CHUC = MA7DOAN[T0/10%10];        TRAM = MA7DOAN[T0/100]; 
0080:  MOVF   20,W
0081:  MOVWF  25
0082:  MOVLW  0A
0083:  MOVWF  26
0084:  CALL   018
0085:  MOVF   77,W
0086:  CALL   004
0087:  MOVWF  78
0088:  MOVWF  21
0089:  MOVF   20,W
008A:  MOVWF  25
008B:  MOVLW  0A
008C:  MOVWF  26
008D:  CALL   018
008E:  MOVF   78,W
008F:  MOVWF  25
0090:  MOVLW  0A
0091:  MOVWF  26
0092:  CALL   018
0093:  MOVF   77,W
0094:  CALL   004
0095:  MOVWF  78
0096:  MOVWF  22
0097:  MOVF   20,W
0098:  MOVWF  25
0099:  MOVLW  64
009A:  MOVWF  26
009B:  CALL   018
009C:  MOVF   78,W
009D:  CALL   004
009E:  MOVWF  78
009F:  MOVWF  23
....................        
....................       IF(TRAM==0XC0) 
00A0:  MOVF   23,W
00A1:  SUBLW  C0
00A2:  BTFSS  03.2
00A3:  GOTO   0AC
....................       { 
....................          TRAM = 0XFF; 
00A4:  MOVLW  FF
00A5:  MOVWF  23
....................          IF(CHUC==0XC0)    //xoa so 0 vo nghia 
00A6:  MOVF   22,W
00A7:  SUBLW  C0
00A8:  BTFSS  03.2
00A9:  GOTO   0AC
....................             CHUC = 0XFF; 
00AA:  MOVLW  FF
00AB:  MOVWF  22
....................       } 
....................       XUAT_4LED_7DOAN_4SO(0XFF,TRAM,CHUC,DV); 
00AC:  MOVLW  FF
00AD:  MOVWF  24
00AE:  MOVF   23,W
00AF:  MOVWF  25
00B0:  MOVF   22,W
00B1:  MOVWF  26
00B2:  MOVF   21,W
00B3:  MOVWF  27
00B4:  GOTO   047
....................        
....................       IF(T0==120)  SET_TIMER0(1); 
00B5:  MOVF   20,W
00B6:  SUBLW  78
00B7:  BTFSS  03.2
00B8:  GOTO   0BB
00B9:  MOVLW  01
00BA:  MOVWF  01
00BB:  GOTO   07E
....................    } 
.................... } 
00BC:  SLEEP

Configuration Fuses:
   Word  1: 2FE2   HS NOWDT PUT MCLR NOPROTECT NOCPD BROWNOUT IESO FCMEN NOLVP NODEBUG
   Word  2: 3FFF   BORV40 NOWRT
