CCS PCM C Compiler, Version 5.015, 5967               06-Thg10-16 19:25

               Filename:   E:\Youtube\Pic16F887\ket hop\ngat vs adc lcd 16x2\ngat vs adc lcd 16x2.lst

               ROM used:   980 words (12%)
                           Largest free fragment is 2048
               RAM used:   24 (7%) at main() level
                           42 (11%) worst case
               Stack used: 4 locations (3 in main + 1 for interrupts)
               Stack size: 8

*
0000:  MOVLW  03
0001:  MOVWF  0A
0002:  GOTO   36D
0003:  NOP
0004:  MOVWF  7F
0005:  SWAPF  03,W
0006:  CLRF   03
0007:  MOVWF  21
0008:  MOVF   0A,W
0009:  MOVWF  20
000A:  CLRF   0A
000B:  MOVF   04,W
000C:  MOVWF  22
000D:  MOVF   77,W
000E:  MOVWF  23
000F:  MOVF   78,W
0010:  MOVWF  24
0011:  MOVF   79,W
0012:  MOVWF  25
0013:  MOVF   7A,W
0014:  MOVWF  26
0015:  BSF    03.6
0016:  MOVF   0D,W
0017:  BCF    03.6
0018:  MOVWF  27
0019:  BSF    03.6
001A:  MOVF   0F,W
001B:  BCF    03.6
001C:  MOVWF  28
001D:  BSF    03.6
001E:  MOVF   0C,W
001F:  BCF    03.6
0020:  MOVWF  29
0021:  BSF    03.6
0022:  MOVF   0E,W
0023:  BCF    03.6
0024:  MOVWF  2A
0025:  BCF    03.7
0026:  BCF    03.5
0027:  MOVLW  8C
0028:  MOVWF  04
0029:  BTFSS  00.0
002A:  GOTO   02D
002B:  BTFSC  0C.0
002C:  GOTO   04E
002D:  MOVF   22,W
002E:  MOVWF  04
002F:  MOVF   23,W
0030:  MOVWF  77
0031:  MOVF   24,W
0032:  MOVWF  78
0033:  MOVF   25,W
0034:  MOVWF  79
0035:  MOVF   26,W
0036:  MOVWF  7A
0037:  MOVF   27,W
0038:  BSF    03.6
0039:  MOVWF  0D
003A:  BCF    03.6
003B:  MOVF   28,W
003C:  BSF    03.6
003D:  MOVWF  0F
003E:  BCF    03.6
003F:  MOVF   29,W
0040:  BSF    03.6
0041:  MOVWF  0C
0042:  BCF    03.6
0043:  MOVF   2A,W
0044:  BSF    03.6
0045:  MOVWF  0E
0046:  BCF    03.6
0047:  MOVF   20,W
0048:  MOVWF  0A
0049:  SWAPF  21,W
004A:  MOVWF  03
004B:  SWAPF  7F,F
004C:  SWAPF  7F,W
004D:  RETFIE
004E:  BCF    0A.3
004F:  BCF    0A.4
0050:  GOTO   051
.................... #INCLUDE <16F887.H> 
.................... //////////// Standard Header file for the PIC16F887 device //////////////// 
.................... /////////////////////////////////////////////////////////////////////////// 
.................... ////        (C) Copyright 1996, 2013 Custom Computer Services          //// 
.................... //// This source code may only be used by licensed users of the CCS C  //// 
.................... //// compiler.  This source code may only be distributed to other      //// 
.................... //// licensed users of the CCS C compiler.  No other use, reproduction //// 
.................... //// or distribution is permitted without written permission.          //// 
.................... //// Derivative programs created using this software in object code    //// 
.................... //// form are not restricted in any way.                               //// 
.................... /////////////////////////////////////////////////////////////////////////// 
.................... #device PIC16F887 
*
005B:  DATA 4E,24
005C:  DATA C9,22
005D:  DATA 54,10
005E:  DATA C4,27
005F:  DATA 3A,10
0060:  DATA 20,00
0061:  DATA EF,21
0062:  DATA 00,01
0063:  DATA 44,24
0064:  DATA 54,2A
0065:  DATA 3A,00
0066:  DATA 3A,00
0067:  DATA 3A,00
0068:  DATA 3A,00
*
00DA:  MOVF   0B,W
00DB:  MOVWF  33
00DC:  BCF    0B.7
00DD:  BSF    03.5
00DE:  BSF    03.6
00DF:  BSF    0C.7
00E0:  BSF    0C.0
00E1:  NOP
00E2:  NOP
00E3:  BCF    03.5
00E4:  BCF    03.6
00E5:  BTFSC  33.7
00E6:  BSF    0B.7
00E7:  BSF    03.6
00E8:  MOVF   0C,W
00E9:  ANDLW  7F
00EA:  BTFSC  03.2
00EB:  GOTO   12E
00EC:  BCF    03.6
00ED:  MOVWF  33
00EE:  BSF    03.6
00EF:  MOVF   0D,W
00F0:  BCF    03.6
00F1:  MOVWF  34
00F2:  BSF    03.6
00F3:  MOVF   0F,W
00F4:  BCF    03.6
00F5:  MOVWF  35
00F6:  MOVF   33,W
00F7:  MOVWF  36
00F8:  CALL   0BC
00F9:  MOVF   34,W
00FA:  BSF    03.6
00FB:  MOVWF  0D
00FC:  BCF    03.6
00FD:  MOVF   35,W
00FE:  BSF    03.6
00FF:  MOVWF  0F
0100:  BCF    03.6
0101:  MOVF   0B,W
0102:  MOVWF  36
0103:  BCF    0B.7
0104:  BSF    03.5
0105:  BSF    03.6
0106:  BSF    0C.7
0107:  BSF    0C.0
0108:  NOP
0109:  NOP
010A:  BCF    03.5
010B:  BCF    03.6
010C:  BTFSC  36.7
010D:  BSF    0B.7
010E:  BSF    03.6
010F:  RLF    0C,W
0110:  RLF    0E,W
0111:  ANDLW  7F
0112:  BTFSC  03.2
0113:  GOTO   12E
0114:  BCF    03.6
0115:  MOVWF  33
0116:  BSF    03.6
0117:  MOVF   0D,W
0118:  BCF    03.6
0119:  MOVWF  34
011A:  BSF    03.6
011B:  MOVF   0F,W
011C:  BCF    03.6
011D:  MOVWF  35
011E:  MOVF   33,W
011F:  MOVWF  36
0120:  CALL   0BC
0121:  MOVF   34,W
0122:  BSF    03.6
0123:  MOVWF  0D
0124:  BCF    03.6
0125:  MOVF   35,W
0126:  BSF    03.6
0127:  MOVWF  0F
0128:  INCF   0D,F
0129:  BTFSC  03.2
012A:  INCF   0F,F
012B:  BCF    03.6
012C:  GOTO   0DA
012D:  BSF    03.6
012E:  BCF    03.6
012F:  RETURN
0130:  CLRF   78
0131:  CLRF   79
0132:  CLRF   77
0133:  CLRF   7A
0134:  MOVF   36,W
0135:  BTFSS  03.2
0136:  GOTO   13A
0137:  MOVF   35,W
0138:  BTFSC  03.2
0139:  GOTO   154
013A:  MOVLW  10
013B:  MOVWF  37
013C:  BCF    03.0
013D:  RLF    33,F
013E:  RLF    34,F
013F:  RLF    77,F
0140:  RLF    7A,F
0141:  MOVF   36,W
0142:  SUBWF  7A,W
0143:  BTFSS  03.2
0144:  GOTO   147
0145:  MOVF   35,W
0146:  SUBWF  77,W
0147:  BTFSS  03.0
0148:  GOTO   150
0149:  MOVF   35,W
014A:  SUBWF  77,F
014B:  BTFSS  03.0
014C:  DECF   7A,F
014D:  MOVF   36,W
014E:  SUBWF  7A,F
014F:  BSF    03.0
0150:  RLF    78,F
0151:  RLF    79,F
0152:  DECFSZ 37,F
0153:  GOTO   13C
0154:  RETURN
0155:  MOVF   34,W
0156:  CLRF   78
0157:  SUBWF  33,W
0158:  BTFSC  03.0
0159:  GOTO   15D
015A:  MOVF   33,W
015B:  MOVWF  77
015C:  GOTO   169
015D:  CLRF   77
015E:  MOVLW  08
015F:  MOVWF  35
0160:  RLF    33,F
0161:  RLF    77,F
0162:  MOVF   34,W
0163:  SUBWF  77,W
0164:  BTFSC  03.0
0165:  MOVWF  77
0166:  RLF    78,F
0167:  DECFSZ 35,F
0168:  GOTO   160
0169:  RETURN
*
0217:  MOVF   37,W
0218:  BTFSC  03.2
0219:  GOTO   2DC
021A:  MOVWF  43
021B:  MOVF   3B,W
021C:  BTFSC  03.2
021D:  GOTO   2DC
021E:  SUBWF  43,F
021F:  BTFSS  03.0
0220:  GOTO   226
0221:  MOVLW  7F
0222:  ADDWF  43,F
0223:  BTFSC  03.0
0224:  GOTO   2DC
0225:  GOTO   22C
0226:  MOVLW  81
0227:  SUBWF  43,F
0228:  BTFSS  03.0
0229:  GOTO   2DC
022A:  BTFSC  03.2
022B:  GOTO   2DC
022C:  MOVF   43,W
022D:  MOVWF  77
022E:  CLRF   78
022F:  CLRF   79
0230:  CLRF   7A
0231:  CLRF   42
0232:  MOVF   38,W
0233:  MOVWF  41
0234:  BSF    41.7
0235:  MOVF   39,W
0236:  MOVWF  40
0237:  MOVF   3A,W
0238:  MOVWF  3F
0239:  MOVLW  19
023A:  MOVWF  43
023B:  MOVF   3E,W
023C:  SUBWF  3F,F
023D:  BTFSC  03.0
023E:  GOTO   24F
023F:  MOVLW  01
0240:  SUBWF  40,F
0241:  BTFSC  03.0
0242:  GOTO   24F
0243:  SUBWF  41,F
0244:  BTFSC  03.0
0245:  GOTO   24F
0246:  SUBWF  42,F
0247:  BTFSC  03.0
0248:  GOTO   24F
0249:  INCF   42,F
024A:  INCF   41,F
024B:  INCF   40,F
024C:  MOVF   3E,W
024D:  ADDWF  3F,F
024E:  GOTO   281
024F:  MOVF   3D,W
0250:  SUBWF  40,F
0251:  BTFSC  03.0
0252:  GOTO   26A
0253:  MOVLW  01
0254:  SUBWF  41,F
0255:  BTFSC  03.0
0256:  GOTO   26A
0257:  SUBWF  42,F
0258:  BTFSC  03.0
0259:  GOTO   26A
025A:  INCF   42,F
025B:  INCF   41,F
025C:  MOVF   3D,W
025D:  ADDWF  40,F
025E:  MOVF   3E,W
025F:  ADDWF  3F,F
0260:  BTFSS  03.0
0261:  GOTO   281
0262:  INCF   40,F
0263:  BTFSS  03.2
0264:  GOTO   281
0265:  INCF   41,F
0266:  BTFSS  03.2
0267:  GOTO   281
0268:  INCF   42,F
0269:  GOTO   281
026A:  MOVF   3C,W
026B:  IORLW  80
026C:  SUBWF  41,F
026D:  BTFSC  03.0
026E:  GOTO   280
026F:  MOVLW  01
0270:  SUBWF  42,F
0271:  BTFSC  03.0
0272:  GOTO   280
0273:  INCF   42,F
0274:  MOVF   3C,W
0275:  IORLW  80
0276:  ADDWF  41,F
0277:  MOVF   3D,W
0278:  ADDWF  40,F
0279:  BTFSS  03.0
027A:  GOTO   25E
027B:  INCF   41,F
027C:  BTFSS  03.2
027D:  GOTO   25E
027E:  INCF   42,F
027F:  GOTO   25E
0280:  BSF    7A.0
0281:  DECFSZ 43,F
0282:  GOTO   284
0283:  GOTO   28F
0284:  BCF    03.0
0285:  RLF    3F,F
0286:  RLF    40,F
0287:  RLF    41,F
0288:  RLF    42,F
0289:  BCF    03.0
028A:  RLF    7A,F
028B:  RLF    79,F
028C:  RLF    78,F
028D:  RLF    44,F
028E:  GOTO   23B
028F:  BTFSS  44.0
0290:  GOTO   297
0291:  BCF    03.0
0292:  RRF    78,F
0293:  RRF    79,F
0294:  RRF    7A,F
0295:  RRF    44,F
0296:  GOTO   29A
0297:  DECF   77,F
0298:  BTFSC  03.2
0299:  GOTO   2DC
029A:  BTFSC  44.7
029B:  GOTO   2C3
029C:  BCF    03.0
029D:  RLF    3F,F
029E:  RLF    40,F
029F:  RLF    41,F
02A0:  RLF    42,F
02A1:  MOVF   3E,W
02A2:  SUBWF  3F,F
02A3:  BTFSC  03.0
02A4:  GOTO   2AF
02A5:  MOVLW  01
02A6:  SUBWF  40,F
02A7:  BTFSC  03.0
02A8:  GOTO   2AF
02A9:  SUBWF  41,F
02AA:  BTFSC  03.0
02AB:  GOTO   2AF
02AC:  SUBWF  42,F
02AD:  BTFSS  03.0
02AE:  GOTO   2D2
02AF:  MOVF   3D,W
02B0:  SUBWF  40,F
02B1:  BTFSC  03.0
02B2:  GOTO   2BA
02B3:  MOVLW  01
02B4:  SUBWF  41,F
02B5:  BTFSC  03.0
02B6:  GOTO   2BA
02B7:  SUBWF  42,F
02B8:  BTFSS  03.0
02B9:  GOTO   2D2
02BA:  MOVF   3C,W
02BB:  IORLW  80
02BC:  SUBWF  41,F
02BD:  BTFSC  03.0
02BE:  GOTO   2C3
02BF:  MOVLW  01
02C0:  SUBWF  42,F
02C1:  BTFSS  03.0
02C2:  GOTO   2D2
02C3:  INCF   7A,F
02C4:  BTFSS  03.2
02C5:  GOTO   2D2
02C6:  INCF   79,F
02C7:  BTFSS  03.2
02C8:  GOTO   2D2
02C9:  INCF   78,F
02CA:  BTFSS  03.2
02CB:  GOTO   2D2
02CC:  INCF   77,F
02CD:  BTFSC  03.2
02CE:  GOTO   2DC
02CF:  RRF    78,F
02D0:  RRF    79,F
02D1:  RRF    7A,F
02D2:  MOVF   38,W
02D3:  MOVWF  43
02D4:  MOVF   3C,W
02D5:  XORWF  43,F
02D6:  BTFSS  43.7
02D7:  GOTO   2DA
02D8:  BSF    78.7
02D9:  GOTO   2E0
02DA:  BCF    78.7
02DB:  GOTO   2E0
02DC:  CLRF   77
02DD:  CLRF   78
02DE:  CLRF   79
02DF:  CLRF   7A
02E0:  RETURN
*
02FC:  MOVLW  8E
02FD:  MOVWF  77
02FE:  MOVF   34,W
02FF:  MOVWF  78
0300:  MOVF   33,W
0301:  MOVWF  79
0302:  CLRF   7A
0303:  MOVF   78,F
0304:  BTFSS  03.2
0305:  GOTO   310
0306:  MOVF   79,W
0307:  MOVWF  78
0308:  CLRF   79
0309:  MOVLW  08
030A:  SUBWF  77,F
030B:  MOVF   78,F
030C:  BTFSS  03.2
030D:  GOTO   310
030E:  CLRF   77
030F:  GOTO   318
0310:  BCF    03.0
0311:  BTFSC  78.7
0312:  GOTO   317
0313:  RLF    79,F
0314:  RLF    78,F
0315:  DECF   77,F
0316:  GOTO   310
0317:  BCF    78.7
*
0348:  MOVLW  8E
0349:  MOVWF  77
034A:  MOVF   33,W
034B:  SUBWF  77,F
034C:  MOVF   34,W
034D:  MOVWF  79
034E:  MOVF   35,W
034F:  MOVWF  78
0350:  BSF    79.7
0351:  MOVF   77,F
0352:  BTFSC  03.2
0353:  GOTO   35F
0354:  BCF    03.0
0355:  MOVF   79,F
0356:  BTFSS  03.2
0357:  GOTO   35B
0358:  MOVF   78,F
0359:  BTFSC  03.2
035A:  GOTO   35F
035B:  RRF    79,F
035C:  RRF    78,F
035D:  DECFSZ 77,F
035E:  GOTO   354
035F:  BTFSS  34.7
0360:  GOTO   366
0361:  COMF   78,F
0362:  COMF   79,F
0363:  INCF   78,F
0364:  BTFSC  03.2
0365:  INCF   79,F
....................  
.................... #list 
....................  
.................... #DEVICE ADC = 10 
.................... #FUSES NOWDT, PUT, HS, NOPROTECT, NOLVP 
.................... #USE DELAY(CLOCK=20M) 
*
0087:  MOVLW  33
0088:  MOVWF  04
0089:  BCF    03.7
008A:  MOVF   00,W
008B:  BTFSC  03.2
008C:  GOTO   09A
008D:  MOVLW  06
008E:  MOVWF  78
008F:  CLRF   77
0090:  DECFSZ 77,F
0091:  GOTO   090
0092:  DECFSZ 78,F
0093:  GOTO   08F
0094:  MOVLW  7B
0095:  MOVWF  77
0096:  DECFSZ 77,F
0097:  GOTO   096
0098:  DECFSZ 00,F
0099:  GOTO   08D
009A:  RETURN
.................... #INCLUDE <E:\Youtube\Pic16F887\THU_VIEN\TV_LCD_16X2.c> 
.................... #IFNDEF LCD_RS 
.................... #DEFINE LCD_RS   PIN_B2 
.................... #ENDIF 
....................  
.................... #IFNDEF LCD_RW 
.................... #DEFINE LCD_RW   PIN_B1 
.................... #ENDIF 
....................  
.................... #IFNDEF LCD_E 
.................... #DEFINE LCD_E   PIN_B0 
.................... #ENDIF 
....................  
.................... #IFNDEF OUTPUT_LCD 
.................... #DEFINE OUTPUT_LCD   OUTPUT_D 
.................... #ENDIF 
....................  
.................... #DEFINE FUNCTION_SET    0X38 
.................... #DEFINE DISPLAY_CONTROL 0X0F 
.................... #DEFINE CLEAR_DISPLAY   0X01 
.................... #DEFINE ENTRY_MODE      0X06 
.................... #DEFINE SHIFT_LEFT      0X18 
.................... #DEFINE SHIFT_RIGHT     0X1C 
.................... #DEFINE ADDR_LINE1      0X80 
.................... #DEFINE ADDR_LINE2      0XC0 
....................  
....................  
.................... //XXXXXXXXXXXXXXXXXXXX TRUYEN VI TRI CAN HIEN THI TREN LCD XXXXXXXXXXXXXXXXXXXXXXXXX 
.................... VOID LCD_COMMAND(UNSIGNED CHAR MDK) 
.................... { 
....................    OUTPUT_LOW(LCD_RS);     OUTPUT_LCD(MDK); 
*
0069:  BSF    03.5
006A:  BCF    06.2
006B:  BCF    03.5
006C:  BCF    06.2
006D:  BSF    03.5
006E:  CLRF   08
006F:  BCF    03.5
0070:  MOVF   33,W
0071:  MOVWF  08
....................    OUTPUT_HIGH(LCD_E);     DELAY_US(20); 
0072:  BSF    03.5
0073:  BCF    06.0
0074:  BCF    03.5
0075:  BSF    06.0
0076:  MOVLW  20
0077:  MOVWF  77
0078:  DECFSZ 77,F
0079:  GOTO   078
007A:  GOTO   07B
007B:  NOP
....................    OUTPUT_LOW(LCD_E);      DELAY_US(20); 
007C:  BSF    03.5
007D:  BCF    06.0
007E:  BCF    03.5
007F:  BCF    06.0
0080:  MOVLW  20
0081:  MOVWF  77
0082:  DECFSZ 77,F
0083:  GOTO   082
0084:  GOTO   085
0085:  NOP
0086:  RETURN
.................... } 
....................  
.................... //XXXXXXXXXXXXXXXXXXXXXX TRUYEN DU LIEU CAN HIEN THI RA LCD XXXXXXXXXXXXXXXXXXXXXX 
.................... VOID LCD_DATA(UNSIGNED CHAR MHT) 
.................... { 
....................    OUTPUT_HIGH(LCD_RS);     OUTPUT_LCD(MHT); 
*
00BC:  BSF    03.5
00BD:  BCF    06.2
00BE:  BCF    03.5
00BF:  BSF    06.2
00C0:  BSF    03.5
00C1:  CLRF   08
00C2:  BCF    03.5
00C3:  MOVF   36,W
00C4:  MOVWF  08
....................    OUTPUT_HIGH(LCD_E);     DELAY_US(20); 
00C5:  BSF    03.5
00C6:  BCF    06.0
00C7:  BCF    03.5
00C8:  BSF    06.0
00C9:  MOVLW  20
00CA:  MOVWF  77
00CB:  DECFSZ 77,F
00CC:  GOTO   0CB
00CD:  GOTO   0CE
00CE:  NOP
....................    OUTPUT_LOW(LCD_E);     DELAY_US(20); 
00CF:  BSF    03.5
00D0:  BCF    06.0
00D1:  BCF    03.5
00D2:  BCF    06.0
00D3:  MOVLW  20
00D4:  MOVWF  77
00D5:  DECFSZ 77,F
00D6:  GOTO   0D5
00D7:  GOTO   0D8
00D8:  NOP
00D9:  RETURN
.................... } 
....................  
.................... //XXXXXXXXXXXXXXXXXXXXXXX CAI DAT LCD KHI KHOI TAO XXXXXXXXXXXXXXXXXXXXXXXXXXXXXXX 
.................... VOID LCD_SETUP() 
.................... { 
....................    OUTPUT_LOW(LCD_E);      
*
009B:  BSF    03.5
009C:  BCF    06.0
009D:  BCF    03.5
009E:  BCF    06.0
....................    OUTPUT_LOW(LCD_RS);      
009F:  BSF    03.5
00A0:  BCF    06.2
00A1:  BCF    03.5
00A2:  BCF    06.2
....................    OUTPUT_LOW(LCD_RW); 
00A3:  BSF    03.5
00A4:  BCF    06.1
00A5:  BCF    03.5
00A6:  BCF    06.1
....................    LCD_COMMAND(FUNCTION_SET);    DELAY_MS(1); 
00A7:  MOVLW  38
00A8:  MOVWF  33
00A9:  CALL   069
00AA:  MOVLW  01
00AB:  MOVWF  33
00AC:  CALL   087
....................    LCD_COMMAND(DISPLAY_CONTROL); 
00AD:  MOVLW  0F
00AE:  MOVWF  33
00AF:  CALL   069
....................     
....................    LCD_COMMAND(CLEAR_DISPLAY);   DELAY_MS(2); 
00B0:  MOVLW  01
00B1:  MOVWF  33
00B2:  CALL   069
00B3:  MOVLW  02
00B4:  MOVWF  33
00B5:  CALL   087
....................    LCD_COMMAND(ENTRY_MODE); 
00B6:  MOVLW  06
00B7:  MOVWF  33
00B8:  CALL   069
00B9:  BCF    0A.3
00BA:  BCF    0A.4
00BB:  GOTO   388 (RETURN)
....................     
.................... } 
....................  
....................  
.................... unsigned INT8 gio,phut,giay,sao,BDT; 
.................... UNSIGNED INT8 I; 
.................... UNSIGNED INT16 KQ0; 
....................  
....................  
.................... #int_timer1 
.................... VOID INTERRUPT_TIMER1() 
.................... { 
....................    SET_TIMER1(59286); 
*
0051:  CLRF   0E
0052:  MOVLW  E7
0053:  MOVWF  0F
0054:  MOVLW  96
0055:  MOVWF  0E
....................    BDT++; 
0056:  INCF   2F,F
0057:  BCF    0C.0
0058:  BCF    0A.3
0059:  BCF    0A.4
005A:  GOTO   02D
.................... } 
....................  
.................... void hienthi() 
.................... { 
....................       lcd_command(0x80); 
*
016A:  MOVLW  80
016B:  MOVWF  33
016C:  CALL   069
....................       lcd_data("NHIET DO:  "); 
016D:  MOVLW  5B
016E:  BSF    03.6
016F:  MOVWF  0D
0170:  MOVLW  00
0171:  MOVWF  0F
0172:  BCF    03.6
0173:  CALL   0DA
....................       LCD_COMMAND(0X8C); 
0174:  MOVLW  8C
0175:  MOVWF  33
0176:  CALL   069
....................       LCD_DATA(KQ0/10 + 0X30); 
0177:  MOVF   32,W
0178:  MOVWF  34
0179:  MOVF   31,W
017A:  MOVWF  33
017B:  CLRF   36
017C:  MOVLW  0A
017D:  MOVWF  35
017E:  CALL   130
017F:  MOVF   79,W
0180:  MOVWF  34
0181:  MOVF   78,W
0182:  MOVWF  33
0183:  MOVLW  30
0184:  ADDWF  33,F
0185:  BTFSC  03.0
0186:  INCF   34,F
0187:  MOVF   33,W
0188:  MOVWF  36
0189:  CALL   0BC
....................       LCD_DATA(KQ0%10 + 0X30); 
018A:  MOVF   32,W
018B:  MOVWF  34
018C:  MOVF   31,W
018D:  MOVWF  33
018E:  CLRF   36
018F:  MOVLW  0A
0190:  MOVWF  35
0191:  CALL   130
0192:  MOVF   77,W
0193:  MOVWF  33
0194:  MOVF   7A,W
0195:  MOVWF  34
0196:  MOVLW  30
0197:  ADDWF  33,F
0198:  BTFSC  03.0
0199:  INCF   34,F
019A:  MOVF   33,W
019B:  MOVWF  36
019C:  CALL   0BC
....................       LCD_DATA("oC"); 
019D:  MOVLW  61
019E:  BSF    03.6
019F:  MOVWF  0D
01A0:  MOVLW  00
01A1:  MOVWF  0F
01A2:  BCF    03.6
01A3:  CALL   0DA
....................        
....................       lcd_command(0xC0); 
01A4:  MOVLW  C0
01A5:  MOVWF  33
01A6:  CALL   069
....................       lcd_data("DHTT:"); 
01A7:  MOVLW  63
01A8:  BSF    03.6
01A9:  MOVWF  0D
01AA:  MOVLW  00
01AB:  MOVWF  0F
01AC:  BCF    03.6
01AD:  CALL   0DA
....................       lcd_command(0xc5); 
01AE:  MOVLW  C5
01AF:  MOVWF  33
01B0:  CALL   069
....................       lcd_data(gio/10 + 0x30); 
01B1:  MOVF   2B,W
01B2:  MOVWF  33
01B3:  MOVLW  0A
01B4:  MOVWF  34
01B5:  CALL   155
01B6:  MOVLW  30
01B7:  ADDWF  78,W
01B8:  MOVWF  33
01B9:  MOVWF  36
01BA:  CALL   0BC
....................       lcd_data(gio%10 + 0x30); 
01BB:  MOVF   2B,W
01BC:  MOVWF  33
01BD:  MOVLW  0A
01BE:  MOVWF  34
01BF:  CALL   155
01C0:  MOVLW  30
01C1:  ADDWF  77,W
01C2:  MOVWF  33
01C3:  MOVWF  36
01C4:  CALL   0BC
....................       lcd_data(":"); 
01C5:  MOVLW  66
01C6:  BSF    03.6
01C7:  MOVWF  0D
01C8:  MOVLW  00
01C9:  MOVWF  0F
01CA:  BCF    03.6
01CB:  CALL   0DA
....................       lcd_data(phut/10 + 0x30); 
01CC:  MOVF   2C,W
01CD:  MOVWF  33
01CE:  MOVLW  0A
01CF:  MOVWF  34
01D0:  CALL   155
01D1:  MOVLW  30
01D2:  ADDWF  78,W
01D3:  MOVWF  33
01D4:  MOVWF  36
01D5:  CALL   0BC
....................       lcd_data(phut%10 + 0x30); 
01D6:  MOVF   2C,W
01D7:  MOVWF  33
01D8:  MOVLW  0A
01D9:  MOVWF  34
01DA:  CALL   155
01DB:  MOVLW  30
01DC:  ADDWF  77,W
01DD:  MOVWF  33
01DE:  MOVWF  36
01DF:  CALL   0BC
....................       lcd_data(":"); 
01E0:  MOVLW  67
01E1:  BSF    03.6
01E2:  MOVWF  0D
01E3:  MOVLW  00
01E4:  MOVWF  0F
01E5:  BCF    03.6
01E6:  CALL   0DA
....................       lcd_data(giay/10 + 0x30); 
01E7:  MOVF   2D,W
01E8:  MOVWF  33
01E9:  MOVLW  0A
01EA:  MOVWF  34
01EB:  CALL   155
01EC:  MOVLW  30
01ED:  ADDWF  78,W
01EE:  MOVWF  33
01EF:  MOVWF  36
01F0:  CALL   0BC
....................       lcd_data(giay%10 + 0x30); 
01F1:  MOVF   2D,W
01F2:  MOVWF  33
01F3:  MOVLW  0A
01F4:  MOVWF  34
01F5:  CALL   155
01F6:  MOVLW  30
01F7:  ADDWF  77,W
01F8:  MOVWF  33
01F9:  MOVWF  36
01FA:  CALL   0BC
....................       lcd_data(":"); 
01FB:  MOVLW  68
01FC:  BSF    03.6
01FD:  MOVWF  0D
01FE:  MOVLW  00
01FF:  MOVWF  0F
0200:  BCF    03.6
0201:  CALL   0DA
....................       lcd_data(sao/10 + 0x30); 
0202:  MOVF   2E,W
0203:  MOVWF  33
0204:  MOVLW  0A
0205:  MOVWF  34
0206:  CALL   155
0207:  MOVLW  30
0208:  ADDWF  78,W
0209:  MOVWF  33
020A:  MOVWF  36
020B:  CALL   0BC
....................       lcd_data(sao%10 + 0x30); 
020C:  MOVF   2E,W
020D:  MOVWF  33
020E:  MOVLW  0A
020F:  MOVWF  34
0210:  CALL   155
0211:  MOVLW  30
0212:  ADDWF  77,W
0213:  MOVWF  33
0214:  MOVWF  36
0215:  CALL   0BC
0216:  RETURN
....................     
.................... } 
....................  
.................... VOID DOC_LM350() 
.................... { 
....................       KQ0=0; 
*
02E1:  CLRF   32
02E2:  CLRF   31
....................       FOR(I=0;I<100;I++) 
02E3:  CLRF   30
02E4:  MOVF   30,W
02E5:  SUBLW  63
02E6:  BTFSS  03.0
02E7:  GOTO   2F8
....................       { 
....................          KQ0 = KQ0 + READ_ADC(); 
02E8:  BSF    1F.1
02E9:  BTFSC  1F.1
02EA:  GOTO   2E9
02EB:  BSF    03.5
02EC:  MOVF   1E,W
02ED:  BCF    03.5
02EE:  ADDWF  31,F
02EF:  MOVF   1E,W
02F0:  BTFSC  03.0
02F1:  INCFSZ 1E,W
02F2:  ADDWF  32,F
....................          DELAY_MS(1); 
02F3:  MOVLW  01
02F4:  MOVWF  33
02F5:  CALL   087
02F6:  INCF   30,F
02F7:  GOTO   2E4
....................       } 
....................       KQ0 = KQ0/2.046/100; 
02F8:  MOVF   32,W
02F9:  MOVWF  34
02FA:  MOVF   31,W
02FB:  MOVWF  33
*
0318:  MOVF   7A,W
0319:  MOVWF  3A
031A:  MOVF   79,W
031B:  MOVWF  39
031C:  MOVF   78,W
031D:  MOVWF  38
031E:  MOVF   77,W
031F:  MOVWF  37
0320:  MOVLW  AA
0321:  MOVWF  3E
0322:  MOVLW  F1
0323:  MOVWF  3D
0324:  MOVLW  02
0325:  MOVWF  3C
0326:  MOVLW  80
0327:  MOVWF  3B
0328:  CALL   217
0329:  MOVF   7A,W
032A:  MOVWF  36
032B:  MOVF   79,W
032C:  MOVWF  35
032D:  MOVF   78,W
032E:  MOVWF  34
032F:  MOVF   77,W
0330:  MOVWF  33
0331:  MOVF   36,W
0332:  MOVWF  3A
0333:  MOVF   35,W
0334:  MOVWF  39
0335:  MOVF   34,W
0336:  MOVWF  38
0337:  MOVF   33,W
0338:  MOVWF  37
0339:  CLRF   3E
033A:  CLRF   3D
033B:  MOVLW  48
033C:  MOVWF  3C
033D:  MOVLW  85
033E:  MOVWF  3B
033F:  CALL   217
0340:  MOVF   7A,W
0341:  MOVWF  36
0342:  MOVF   79,W
0343:  MOVWF  35
0344:  MOVF   78,W
0345:  MOVWF  34
0346:  MOVF   77,W
0347:  MOVWF  33
*
0366:  MOVF   79,W
0367:  MOVWF  32
0368:  MOVF   78,W
0369:  MOVWF  31
036A:  BCF    0A.3
036B:  BCF    0A.4
036C:  GOTO   3D1 (RETURN)
.................... } 
....................  
.................... VOID MAIN() 
036D:  MOVF   03,W
036E:  ANDLW  1F
036F:  MOVWF  03
0370:  BSF    03.5
0371:  BSF    03.6
0372:  MOVF   09,W
0373:  ANDLW  C0
0374:  MOVWF  09
0375:  BCF    03.6
0376:  BCF    1F.4
0377:  BCF    1F.5
0378:  MOVLW  00
0379:  BSF    03.6
037A:  MOVWF  08
037B:  BCF    03.5
037C:  CLRF   07
037D:  CLRF   08
037E:  CLRF   09
037F:  BCF    03.7
.................... { 
....................    SET_TRIS_D(0X00); 
0380:  MOVLW  00
0381:  BSF    03.5
0382:  BCF    03.6
0383:  MOVWF  08
....................    SET_TRIS_A(0X01); 
0384:  MOVLW  01
0385:  MOVWF  05
....................     
....................    lcd_setup(); 
0386:  BCF    03.5
0387:  GOTO   09B
....................    GIAY=0; 
0388:  CLRF   2D
....................    PHUT=0; 
0389:  CLRF   2C
....................    GIO=0; 
038A:  CLRF   2B
....................    SAO=0; 
038B:  CLRF   2E
....................    BDT=0; 
038C:  CLRF   2F
....................    HIENTHI(); 
038D:  CALL   16A
....................    SETUP_TIMER_1(T1_INTERNAL|T1_DIV_BY_8); 
038E:  MOVLW  35
038F:  MOVWF  10
....................    SET_TIMER1(59286); 
0390:  CLRF   0E
0391:  MOVLW  E7
0392:  MOVWF  0F
0393:  MOVLW  96
0394:  MOVWF  0E
....................     
....................    SETUP_ADC(ADC_CLOCK_DIV_32); 
0395:  BCF    1F.6
0396:  BSF    1F.7
0397:  BSF    03.5
0398:  BSF    1F.7
0399:  BCF    03.5
039A:  BSF    1F.0
....................    SETUP_ADC_PORTS(SAN0); 
039B:  BSF    03.5
039C:  BSF    03.6
039D:  MOVF   09,W
039E:  ANDLW  C0
039F:  MOVWF  09
03A0:  BCF    03.6
03A1:  BCF    1F.4
03A2:  BCF    1F.5
03A3:  MOVLW  01
03A4:  BSF    03.6
03A5:  MOVWF  08
....................    SET_ADC_CHANNEL(0); 
03A6:  MOVLW  00
03A7:  MOVWF  78
03A8:  BCF    03.5
03A9:  BCF    03.6
03AA:  MOVF   1F,W
03AB:  ANDLW  C3
03AC:  IORWF  78,W
03AD:  MOVWF  1F
....................     
....................    ENABLE_INTERRUPTS(GLOBAL); 
03AE:  MOVLW  C0
03AF:  IORWF  0B,F
....................    ENABLE_INTERRUPTS(INT_TIMER1); 
03B0:  BSF    03.5
03B1:  BSF    0C.0
....................    
....................     
....................    WHILE(TRUE) 
....................    { 
....................          IF(BDT>=4) 
03B2:  BCF    03.5
03B3:  MOVF   2F,W
03B4:  SUBLW  03
03B5:  BTFSC  03.0
03B6:  GOTO   3D0
....................          {   
....................             BDT=0; 
03B7:  CLRF   2F
....................             SAO++; 
03B8:  INCF   2E,F
....................             IF(SAO==25) 
03B9:  MOVF   2E,W
03BA:  SUBLW  19
03BB:  BTFSS  03.2
03BC:  GOTO   3CF
....................             {   
....................                SAO=0; 
03BD:  CLRF   2E
....................                GIAY++;  
03BE:  INCF   2D,F
....................                IF(GIAY==60)  
03BF:  MOVF   2D,W
03C0:  SUBLW  3C
03C1:  BTFSS  03.2
03C2:  GOTO   3CF
....................                { 
....................                   GIAY=0; 
03C3:  CLRF   2D
....................                   PHUT++; 
03C4:  INCF   2C,F
....................                   IF(PHUT==60) 
03C5:  MOVF   2C,W
03C6:  SUBLW  3C
03C7:  BTFSS  03.2
03C8:  GOTO   3CF
....................                      { 
....................                         PHUT=0; 
03C9:  CLRF   2C
....................                         GIO++; 
03CA:  INCF   2B,F
....................                         IF(GIO==24)       GIO=0; 
03CB:  MOVF   2B,W
03CC:  SUBLW  18
03CD:  BTFSC  03.2
03CE:  CLRF   2B
....................                      } 
....................                } 
....................             } 
....................              
....................          } 
03CF:  GOTO   3D2
....................          ELSE  
....................          { 
....................             
....................            DOC_LM350(); 
03D0:  GOTO   2E1
....................            HIENTHI(); 
03D1:  CALL   16A
....................          } 
03D2:  GOTO   3B3
....................    } 
.................... } 
03D3:  SLEEP

Configuration Fuses:
   Word  1: 2FE2   HS NOWDT PUT MCLR NOPROTECT NOCPD BROWNOUT IESO FCMEN NOLVP NODEBUG
   Word  2: 3FFF   BORV40 NOWRT
