004-005 @READ_PROGRAM_MEMORY8.P1
004-005 @WRITE_PROGRAM_MEMORY8.P2
00C.0   TMR1IF
015     CCP_1_LOW
015     CCP_1
016     CCP_1_HIGH
01B     CCP_2_LOW
01B     CCP_2
01C     CCP_2_HIGH
020     x
021     BDT
022     MAIN.@SCRATCH1
077     @SCRATCH
078     @SCRATCH
078     _RETURN_
079     @SCRATCH
07A     @SCRATCH
107.6   C1OUT
108.6   C2OUT
10D-10E @WRITE_PROGRAM_MEMORY8.P1
10D-10E @READ_PROGRAM_MEMORY8.P2

ROM Allocation:
000004  MAIN
000004  @cinit1
000016  @cinit2

Project Directory:
    E:\Youtube\Pic16F887\TIMER_COUNTER\TIMER\LED_DON\

Project Files:
    TIMER_LED_DON.c                                         [12-Thg9-16 19:30  CRC=7D267267]
    C:\Program Files (x86)\PICC\devices\16F887.H            [12-Thg11-13 14:35  CRC=6CB1A611]

Source signature=5689BE89

Units:
    TIMER_LED_DON (main)

Compiler Settings:
    Processor:      PIC16F887
    Pointer Size:   16
    ADC Range:      0-255
    Opt Level:      9
    Short,Int,Long: UNSIGNED: 1,8,16
    Float,Double:   32,32

Output Files:
    XREF file:   TIMER_LED_DON.xsym
    Errors:      TIMER_LED_DON.err
    Ext Symbols: TIMER_LED_DON.esym
    INHX8:       TIMER_LED_DON.hex
    Symbols:     TIMER_LED_DON.sym
    List:        TIMER_LED_DON.lst
    Debug/COFF:  TIMER_LED_DON.cof
    Project:     TIMER_LED_DON.ccspjt
    Call Tree:   TIMER_LED_DON.tre
    Statistics:  TIMER_LED_DON.STA
