>>> Warning 202 "TV_8LED_7DOAN_QUET.c" Line 33(21,33): Variable never used:   ALdauthangDL
>>> Warning 202 "TV_8LED_7DOAN_QUET.c" Line 52(21,38): Variable never used:   thangALdauthangDL
>>> Warning 202 "TV_8LED_7DOAN_QUET.c" Line 71(21,33): Variable never used:   DLdauthangAL
>>> Warning 202 "TV_8LED_7DOAN_QUET.c" Line 90(21,38): Variable never used:   thangDLdauthangAL
>>> Warning 202 "TV_8LED_7DOAN_QUET.c" Line 113(15,16): Variable never used:   I
>>> Warning 202 "TV_8LED_7DOAN_QUET.c" Line 113(17,20): Variable never used:   DEM
>>> Warning 202 "TV_8LED_7DOAN_QUET.c" Line 114(17,18): Variable never used:   J
>>> Warning 202 "TV_8LED_7DOAN_QUET.c" Line 114(20,25): Variable never used:   KQADC
>>> Warning 202 "TV_8LED_7DOAN_QUET.c" Line 114(28,29): Variable never used:   K
>>> Warning 202 "TV_8LED_7DOAN_QUET.c" Line 115(15,22): Variable never used:   NGAY_AM
>>> Warning 202 "TV_8LED_7DOAN_QUET.c" Line 115(24,32): Variable never used:   THANG_AM
>>> Warning 202 "TV_8LED_7DOAN_QUET.c" Line 116(15,25): Variable never used:   GIATRI_MOD
>>> Warning 202 "TV_8LED_7DOAN_QUET.c" Line 123(21,26): Variable never used:   DAUDO
      Memory usage:   ROM=9%      RAM=8% - 10%
      0 Errors,  13 Warnings.
Build Successful.
