CCS PCM C Compiler, Version 5.015, 5967               27-Thg9-16 19:19

               Filename:   E:\Youtube\Pic16F887\ADC\ADC_LED_7DOAN_595\ADC_LED_7DOAN_595.lst

               ROM used:   564 words (7%)
                           Largest free fragment is 2048
               RAM used:   14 (4%) at main() level
                           24 (7%) worst case
               Stack used: 2 locations
               Stack size: 8

*
0000:  MOVLW  01
0001:  MOVWF  0A
0002:  GOTO   190
0003:  NOP
.................... #INCLUDE <16F887.H> 
.................... //////////// Standard Header file for the PIC16F887 device //////////////// 
.................... /////////////////////////////////////////////////////////////////////////// 
.................... ////        (C) Copyright 1996, 2013 Custom Computer Services          //// 
.................... //// This source code may only be used by licensed users of the CCS C  //// 
.................... //// compiler.  This source code may only be distributed to other      //// 
.................... //// licensed users of the CCS C compiler.  No other use, reproduction //// 
.................... //// or distribution is permitted without written permission.          //// 
.................... //// Derivative programs created using this software in object code    //// 
.................... //// form are not restricted in any way.                               //// 
.................... /////////////////////////////////////////////////////////////////////////// 
.................... #device PIC16F887 
0004:  BCF    0A.0
0005:  BCF    0A.1
0006:  BCF    0A.2
0007:  ADDWF  02,F
0008:  RETLW  C0
0009:  RETLW  F9
000A:  RETLW  A4
000B:  RETLW  B0
000C:  RETLW  99
000D:  RETLW  92
000E:  RETLW  82
000F:  RETLW  F8
0010:  RETLW  80
0011:  RETLW  90
0012:  RETLW  88
0013:  RETLW  83
0014:  RETLW  C6
0015:  RETLW  A1
0016:  RETLW  86
0017:  RETLW  8E
*
002E:  CLRF   78
002F:  CLRF   79
0030:  CLRF   77
0031:  CLRF   7A
0032:  MOVF   29,W
0033:  BTFSS  03.2
0034:  GOTO   038
0035:  MOVF   28,W
0036:  BTFSC  03.2
0037:  GOTO   052
0038:  MOVLW  10
0039:  MOVWF  2A
003A:  BCF    03.0
003B:  RLF    26,F
003C:  RLF    27,F
003D:  RLF    77,F
003E:  RLF    7A,F
003F:  MOVF   29,W
0040:  SUBWF  7A,W
0041:  BTFSS  03.2
0042:  GOTO   045
0043:  MOVF   28,W
0044:  SUBWF  77,W
0045:  BTFSS  03.0
0046:  GOTO   04E
0047:  MOVF   28,W
0048:  SUBWF  77,F
0049:  BTFSS  03.0
004A:  DECF   7A,F
004B:  MOVF   29,W
004C:  SUBWF  7A,F
004D:  BSF    03.0
004E:  RLF    78,F
004F:  RLF    79,F
0050:  DECFSZ 2A,F
0051:  GOTO   03A
0052:  RETURN
0053:  MOVLW  8E
0054:  MOVWF  77
0055:  MOVF   26,W
0056:  MOVWF  78
0057:  MOVF   25,W
0058:  MOVWF  79
0059:  CLRF   7A
005A:  MOVF   78,F
005B:  BTFSS  03.2
005C:  GOTO   067
005D:  MOVF   79,W
005E:  MOVWF  78
005F:  CLRF   79
0060:  MOVLW  08
0061:  SUBWF  77,F
0062:  MOVF   78,F
0063:  BTFSS  03.2
0064:  GOTO   067
0065:  CLRF   77
0066:  GOTO   06F
0067:  BCF    03.0
0068:  BTFSC  78.7
0069:  GOTO   06E
006A:  RLF    79,F
006B:  RLF    78,F
006C:  DECF   77,F
006D:  GOTO   067
006E:  BCF    78.7
006F:  BCF    0A.3
0070:  BCF    0A.4
0071:  GOTO   1EB (RETURN)
0072:  MOVF   25,W
0073:  BTFSC  03.2
0074:  GOTO   137
0075:  MOVWF  31
0076:  MOVF   29,W
0077:  BTFSC  03.2
0078:  GOTO   137
0079:  SUBWF  31,F
007A:  BTFSS  03.0
007B:  GOTO   081
007C:  MOVLW  7F
007D:  ADDWF  31,F
007E:  BTFSC  03.0
007F:  GOTO   137
0080:  GOTO   087
0081:  MOVLW  81
0082:  SUBWF  31,F
0083:  BTFSS  03.0
0084:  GOTO   137
0085:  BTFSC  03.2
0086:  GOTO   137
0087:  MOVF   31,W
0088:  MOVWF  77
0089:  CLRF   78
008A:  CLRF   79
008B:  CLRF   7A
008C:  CLRF   30
008D:  MOVF   26,W
008E:  MOVWF  2F
008F:  BSF    2F.7
0090:  MOVF   27,W
0091:  MOVWF  2E
0092:  MOVF   28,W
0093:  MOVWF  2D
0094:  MOVLW  19
0095:  MOVWF  31
0096:  MOVF   2C,W
0097:  SUBWF  2D,F
0098:  BTFSC  03.0
0099:  GOTO   0AA
009A:  MOVLW  01
009B:  SUBWF  2E,F
009C:  BTFSC  03.0
009D:  GOTO   0AA
009E:  SUBWF  2F,F
009F:  BTFSC  03.0
00A0:  GOTO   0AA
00A1:  SUBWF  30,F
00A2:  BTFSC  03.0
00A3:  GOTO   0AA
00A4:  INCF   30,F
00A5:  INCF   2F,F
00A6:  INCF   2E,F
00A7:  MOVF   2C,W
00A8:  ADDWF  2D,F
00A9:  GOTO   0DC
00AA:  MOVF   2B,W
00AB:  SUBWF  2E,F
00AC:  BTFSC  03.0
00AD:  GOTO   0C5
00AE:  MOVLW  01
00AF:  SUBWF  2F,F
00B0:  BTFSC  03.0
00B1:  GOTO   0C5
00B2:  SUBWF  30,F
00B3:  BTFSC  03.0
00B4:  GOTO   0C5
00B5:  INCF   30,F
00B6:  INCF   2F,F
00B7:  MOVF   2B,W
00B8:  ADDWF  2E,F
00B9:  MOVF   2C,W
00BA:  ADDWF  2D,F
00BB:  BTFSS  03.0
00BC:  GOTO   0DC
00BD:  INCF   2E,F
00BE:  BTFSS  03.2
00BF:  GOTO   0DC
00C0:  INCF   2F,F
00C1:  BTFSS  03.2
00C2:  GOTO   0DC
00C3:  INCF   30,F
00C4:  GOTO   0DC
00C5:  MOVF   2A,W
00C6:  IORLW  80
00C7:  SUBWF  2F,F
00C8:  BTFSC  03.0
00C9:  GOTO   0DB
00CA:  MOVLW  01
00CB:  SUBWF  30,F
00CC:  BTFSC  03.0
00CD:  GOTO   0DB
00CE:  INCF   30,F
00CF:  MOVF   2A,W
00D0:  IORLW  80
00D1:  ADDWF  2F,F
00D2:  MOVF   2B,W
00D3:  ADDWF  2E,F
00D4:  BTFSS  03.0
00D5:  GOTO   0B9
00D6:  INCF   2F,F
00D7:  BTFSS  03.2
00D8:  GOTO   0B9
00D9:  INCF   30,F
00DA:  GOTO   0B9
00DB:  BSF    7A.0
00DC:  DECFSZ 31,F
00DD:  GOTO   0DF
00DE:  GOTO   0EA
00DF:  BCF    03.0
00E0:  RLF    2D,F
00E1:  RLF    2E,F
00E2:  RLF    2F,F
00E3:  RLF    30,F
00E4:  BCF    03.0
00E5:  RLF    7A,F
00E6:  RLF    79,F
00E7:  RLF    78,F
00E8:  RLF    32,F
00E9:  GOTO   096
00EA:  BTFSS  32.0
00EB:  GOTO   0F2
00EC:  BCF    03.0
00ED:  RRF    78,F
00EE:  RRF    79,F
00EF:  RRF    7A,F
00F0:  RRF    32,F
00F1:  GOTO   0F5
00F2:  DECF   77,F
00F3:  BTFSC  03.2
00F4:  GOTO   137
00F5:  BTFSC  32.7
00F6:  GOTO   11E
00F7:  BCF    03.0
00F8:  RLF    2D,F
00F9:  RLF    2E,F
00FA:  RLF    2F,F
00FB:  RLF    30,F
00FC:  MOVF   2C,W
00FD:  SUBWF  2D,F
00FE:  BTFSC  03.0
00FF:  GOTO   10A
0100:  MOVLW  01
0101:  SUBWF  2E,F
0102:  BTFSC  03.0
0103:  GOTO   10A
0104:  SUBWF  2F,F
0105:  BTFSC  03.0
0106:  GOTO   10A
0107:  SUBWF  30,F
0108:  BTFSS  03.0
0109:  GOTO   12D
010A:  MOVF   2B,W
010B:  SUBWF  2E,F
010C:  BTFSC  03.0
010D:  GOTO   115
010E:  MOVLW  01
010F:  SUBWF  2F,F
0110:  BTFSC  03.0
0111:  GOTO   115
0112:  SUBWF  30,F
0113:  BTFSS  03.0
0114:  GOTO   12D
0115:  MOVF   2A,W
0116:  IORLW  80
0117:  SUBWF  2F,F
0118:  BTFSC  03.0
0119:  GOTO   11E
011A:  MOVLW  01
011B:  SUBWF  30,F
011C:  BTFSS  03.0
011D:  GOTO   12D
011E:  INCF   7A,F
011F:  BTFSS  03.2
0120:  GOTO   12D
0121:  INCF   79,F
0122:  BTFSS  03.2
0123:  GOTO   12D
0124:  INCF   78,F
0125:  BTFSS  03.2
0126:  GOTO   12D
0127:  INCF   77,F
0128:  BTFSC  03.2
0129:  GOTO   137
012A:  RRF    78,F
012B:  RRF    79,F
012C:  RRF    7A,F
012D:  MOVF   26,W
012E:  MOVWF  31
012F:  MOVF   2A,W
0130:  XORWF  31,F
0131:  BTFSS  31.7
0132:  GOTO   135
0133:  BSF    78.7
0134:  GOTO   13B
0135:  BCF    78.7
0136:  GOTO   13B
0137:  CLRF   77
0138:  CLRF   78
0139:  CLRF   79
013A:  CLRF   7A
013B:  BCF    0A.3
013C:  BCF    0A.4
013D:  GOTO   1FC (RETURN)
013E:  MOVLW  8E
013F:  MOVWF  77
0140:  MOVF   23,W
0141:  SUBWF  77,F
0142:  MOVF   24,W
0143:  MOVWF  79
0144:  MOVF   25,W
0145:  MOVWF  78
0146:  BSF    79.7
0147:  MOVF   77,F
0148:  BTFSC  03.2
0149:  GOTO   155
014A:  BCF    03.0
014B:  MOVF   79,F
014C:  BTFSS  03.2
014D:  GOTO   151
014E:  MOVF   78,F
014F:  BTFSC  03.2
0150:  GOTO   155
0151:  RRF    79,F
0152:  RRF    78,F
0153:  DECFSZ 77,F
0154:  GOTO   14A
0155:  BTFSS  24.7
0156:  GOTO   15C
0157:  COMF   78,F
0158:  COMF   79,F
0159:  INCF   78,F
015A:  BTFSC  03.2
015B:  INCF   79,F
015C:  BCF    0A.3
015D:  BCF    0A.4
015E:  GOTO   205 (RETURN)
....................  
.................... #list 
....................  
.................... #DEVICE ADC = 10 
.................... #FUSES NOWDT,HS,NOLVP,NOPROTECT,PUT 
.................... #USE DELAY(CLOCK=20M) 
*
0018:  MOVLW  23
0019:  MOVWF  04
001A:  BCF    03.7
001B:  MOVF   00,W
001C:  BTFSC  03.2
001D:  GOTO   02B
001E:  MOVLW  06
001F:  MOVWF  78
0020:  CLRF   77
0021:  DECFSZ 77,F
0022:  GOTO   021
0023:  DECFSZ 78,F
0024:  GOTO   020
0025:  MOVLW  7B
0026:  MOVWF  77
0027:  DECFSZ 77,F
0028:  GOTO   027
0029:  DECFSZ 00,F
002A:  GOTO   01E
002B:  BCF    0A.3
002C:  BCF    0A.4
002D:  GOTO   1D8 (RETURN)
....................  
.................... #INCLUDE <E:\Youtube\Pic16F887\THU_VIEN\tv_4led_7doan.c> 
.................... #DEFINE CLK   PIN_D1 
.................... #DEFINE DS    PIN_D2 
.................... #DEFINE ST    PIN_D3 
....................  
.................... CONST UNSIGNED CHAR MA7DOAN[16]= {0XC0,0XF9,0xA4,0XB0,0X99,0X92,0X82,0XF8, 
.................... 0X80,0X90,0x88, 0x83, 0xC6, 0xA1, 0x86, 0x8E}; 
....................  
.................... //XUAT 1 BYTE RA THANH GHI DICH 
.................... //XXXXXXXXXXXXXXXXXXXXXXXXXXXXXXXXXXXXXXXXXXXX     
.................... VOID XUAT_1BYTE(UNSIGNED INT8 BYTEXUAT) 
.................... { 
....................    UNSIGNED INT8   SB,X;    
....................    #BIT BSERI  = X.7 
....................    X = BYTEXUAT; 
*
015F:  MOVF   2D,W
0160:  MOVWF  2F
....................    FOR (SB=0;SB<8;SB++) 
0161:  CLRF   2E
0162:  MOVF   2E,W
0163:  SUBLW  07
0164:  BTFSS  03.0
0165:  GOTO   178
....................       {                                                  
....................          OUTPUT_BIT(DS,BSERI);     
0166:  BTFSC  2F.7
0167:  GOTO   16A
0168:  BCF    08.2
0169:  GOTO   16B
016A:  BSF    08.2
016B:  BSF    03.5
016C:  BCF    08.2
....................          OUTPUT_LOW(CLK); OUTPUT_HIGH(CLK); 
016D:  BCF    08.1
016E:  BCF    03.5
016F:  BCF    08.1
0170:  BSF    03.5
0171:  BCF    08.1
0172:  BCF    03.5
0173:  BSF    08.1
....................          X= X<<1;          
0174:  BCF    03.0
0175:  RLF    2F,F
0176:  INCF   2E,F
0177:  GOTO   162
....................      } 
0178:  RETURN
.................... } 
....................  
.................... //XXXXXXXXXXXXXXXXXXXXXXXXXXXXXXXXXXXXXXXXXXXXXXX 
.................... VOID XUAT_4LED_7DOAN_4SO(UNSIGNED INT BL1,BL2,BL3,BL4) 
.................... { 
....................    XUAT_1BYTE(BL4); 
0179:  MOVF   2C,W
017A:  MOVWF  2D
017B:  CALL   15F
....................    XUAT_1BYTE(BL3); 
017C:  MOVF   2B,W
017D:  MOVWF  2D
017E:  CALL   15F
....................    XUAT_1BYTE(BL2); 
017F:  MOVF   2A,W
0180:  MOVWF  2D
0181:  CALL   15F
....................    XUAT_1BYTE(BL1); 
0182:  MOVF   29,W
0183:  MOVWF  2D
0184:  CALL   15F
....................     
....................    OUTPUT_LOW(ST);      
0185:  BSF    03.5
0186:  BCF    08.3
0187:  BCF    03.5
0188:  BCF    08.3
....................    OUTPUT_HIGH(ST); 
0189:  BSF    03.5
018A:  BCF    08.3
018B:  BCF    03.5
018C:  BSF    08.3
018D:  BCF    0A.3
018E:  BCF    0A.4
018F:  GOTO   232 (RETURN)
....................        
.................... } 
....................  
....................  
....................  
.................... UNSIGNED INT8 I; 
.................... UNSIGNED INT16 KQ; 
....................  
.................... VOID MAIN() 
0190:  MOVF   03,W
0191:  ANDLW  1F
0192:  MOVWF  03
0193:  BSF    03.5
0194:  BSF    03.6
0195:  MOVF   09,W
0196:  ANDLW  C0
0197:  MOVWF  09
0198:  BCF    03.6
0199:  BCF    1F.4
019A:  BCF    1F.5
019B:  MOVLW  00
019C:  BSF    03.6
019D:  MOVWF  08
019E:  BCF    03.5
019F:  CLRF   07
01A0:  CLRF   08
01A1:  CLRF   09
01A2:  BCF    03.7
.................... { 
....................    SET_TRIS_D(0X00); 
01A3:  MOVLW  00
01A4:  BSF    03.5
01A5:  BCF    03.6
01A6:  MOVWF  08
....................    SET_TRIS_A(0X01); 
01A7:  MOVLW  01
01A8:  MOVWF  05
....................     
....................    SETUP_ADC(ADC_CLOCK_DIV_32);        //khoi tao ADC 
01A9:  BCF    03.5
01AA:  BCF    1F.6
01AB:  BSF    1F.7
01AC:  BSF    03.5
01AD:  BSF    1F.7
01AE:  BCF    03.5
01AF:  BSF    1F.0
....................    SETUP_ADC_PORTS(SAN0);              //khoi tao ports 
01B0:  BSF    03.5
01B1:  BSF    03.6
01B2:  MOVF   09,W
01B3:  ANDLW  C0
01B4:  MOVWF  09
01B5:  BCF    03.6
01B6:  BCF    1F.4
01B7:  BCF    1F.5
01B8:  MOVLW  01
01B9:  BSF    03.6
01BA:  MOVWF  08
....................    SET_ADC_CHANNEL(0);                 //khoi tao kenh 
01BB:  MOVLW  00
01BC:  MOVWF  78
01BD:  BCF    03.5
01BE:  BCF    03.6
01BF:  MOVF   1F,W
01C0:  ANDLW  C3
01C1:  IORWF  78,W
01C2:  MOVWF  1F
....................     
....................    WHILE(TRUE) 
....................    { 
....................       KQ = 0; 
01C3:  CLRF   22
01C4:  CLRF   21
....................       FOR(I=0;I<100;I++) 
01C5:  CLRF   20
01C6:  MOVF   20,W
01C7:  SUBLW  63
01C8:  BTFSS  03.0
01C9:  GOTO   1DA
....................       { 
....................          KQ = KQ + READ_ADC();         //doc gia tri ADC 
01CA:  BSF    1F.1
01CB:  BTFSC  1F.1
01CC:  GOTO   1CB
01CD:  BSF    03.5
01CE:  MOVF   1E,W
01CF:  BCF    03.5
01D0:  ADDWF  21,F
01D1:  MOVF   1E,W
01D2:  BTFSC  03.0
01D3:  INCFSZ 1E,W
01D4:  ADDWF  22,F
....................          DELAY_MS(1); 
01D5:  MOVLW  01
01D6:  MOVWF  23
01D7:  GOTO   018
01D8:  INCF   20,F
01D9:  GOTO   1C6
....................       } 
....................       KQ = KQ/100/2.046; 
01DA:  MOVF   22,W
01DB:  MOVWF  27
01DC:  MOVF   21,W
01DD:  MOVWF  26
01DE:  CLRF   29
01DF:  MOVLW  64
01E0:  MOVWF  28
01E1:  CALL   02E
01E2:  MOVF   79,W
01E3:  MOVWF  24
01E4:  MOVF   78,W
01E5:  MOVWF  23
01E6:  MOVF   79,W
01E7:  MOVWF  26
01E8:  MOVF   78,W
01E9:  MOVWF  25
01EA:  GOTO   053
01EB:  MOVF   7A,W
01EC:  MOVWF  28
01ED:  MOVF   79,W
01EE:  MOVWF  27
01EF:  MOVF   78,W
01F0:  MOVWF  26
01F1:  MOVF   77,W
01F2:  MOVWF  25
01F3:  MOVLW  AA
01F4:  MOVWF  2C
01F5:  MOVLW  F1
01F6:  MOVWF  2B
01F7:  MOVLW  02
01F8:  MOVWF  2A
01F9:  MOVLW  80
01FA:  MOVWF  29
01FB:  GOTO   072
01FC:  MOVF   7A,W
01FD:  MOVWF  26
01FE:  MOVF   79,W
01FF:  MOVWF  25
0200:  MOVF   78,W
0201:  MOVWF  24
0202:  MOVF   77,W
0203:  MOVWF  23
0204:  GOTO   13E
0205:  MOVF   79,W
0206:  MOVWF  22
0207:  MOVF   78,W
0208:  MOVWF  21
....................       XUAT_4LED_7DOAN_4SO(0XFF,0XFF,MA7DOAN[KQ/10],MA7DOAN[KQ%10]); 
0209:  MOVF   22,W
020A:  MOVWF  27
020B:  MOVF   21,W
020C:  MOVWF  26
020D:  CLRF   29
020E:  MOVLW  0A
020F:  MOVWF  28
0210:  CALL   02E
0211:  MOVF   79,W
0212:  MOVWF  24
0213:  MOVF   78,W
0214:  MOVWF  23
0215:  MOVF   24,W
0216:  MOVWF  7A
0217:  MOVF   23,W
0218:  CALL   004
0219:  MOVWF  25
021A:  MOVF   22,W
021B:  MOVWF  27
021C:  MOVF   21,W
021D:  MOVWF  26
021E:  CLRF   29
021F:  MOVLW  0A
0220:  MOVWF  28
0221:  CALL   02E
0222:  MOVF   77,W
0223:  MOVWF  26
0224:  MOVF   7A,W
0225:  MOVWF  27
0226:  MOVWF  7A
0227:  MOVF   26,W
0228:  CALL   004
0229:  MOVWF  28
022A:  MOVLW  FF
022B:  MOVWF  29
022C:  MOVWF  2A
022D:  MOVF   25,W
022E:  MOVWF  2B
022F:  MOVF   28,W
0230:  MOVWF  2C
0231:  GOTO   179
0232:  GOTO   1C3
....................    } 
.................... } 
0233:  SLEEP

Configuration Fuses:
   Word  1: 2FE2   HS NOWDT PUT MCLR NOPROTECT NOCPD BROWNOUT IESO FCMEN NOLVP NODEBUG
   Word  2: 3FFF   BORV40 NOWRT
