004-005 @READ_PROGRAM_MEMORY8.P1
004-005 @WRITE_PROGRAM_MEMORY8.P2
008     PSP_DATA
015     CCP_1_LOW
015     CCP_1
016     CCP_1_HIGH
01B     CCP_2_LOW
01B     CCP_2
01C     CCP_2_HIGH
020     i
021     h
022     l
023     mode
024-025 kq
026     @TRIS_C
027-02A @SFTOI.P1
027-028 @DIV1616.P2
027     @DIV88.P3
027     LCD_SetPosition.cX
027     hienthi.@SCRATCH1
027     @PSTRINGC7_624.@SCRATCH1
027     docnd.@SCRATCH1
028     @DIV88.P1
028     hienthi.@SCRATCH2
028     @PSTRINGC7_624.@SCRATCH2
028     docnd.@SCRATCH2
029-02A @DIV1616.P1
029-02A @ITOF.P2
029-02C @DIVFF.P3
029     @DIV88.@SCRATCH1
029     @PSTRINGC7_624.@SCRATCH3
02A     LCD_PutChar.cX
02A     @PSTRINGC7_624.@SCRATCH4
02B     LCD_PutCmd.cX
02B     @DIV1616.@SCRATCH1
02C     @delay_ms1.P1
02C     LCD_SetData.cX
02D-030 @DIVFF.P1
031     @DIVFF.@SCRATCH1
032     @DIVFF.@SCRATCH2
033     @DIVFF.@SCRATCH3
034     @DIVFF.@SCRATCH4
035     @DIVFF.@SCRATCH5
036     @DIVFF.@SCRATCH6
077     @SCRATCH
078     @SCRATCH
078     _RETURN_
079     @SCRATCH
07A     @SCRATCH
09C.6   C1OUT
09C.7   C2OUT
10D-10E @WRITE_PROGRAM_MEMORY8.P1
10D-10E @READ_PROGRAM_MEMORY8.P2

ROM Allocation:
000004  @const647.call
00000D  LCD_SetData
00002E  @delay_ms1
000042  LCD_PulseEnable
000053  LCD_PutCmd
00005E  LCD_Init
000080  @DIV1616
0000A5  docnd
0000CC  @ITOF
0000F8  @DIVFF
0001C9  @SFTOI
0001EE  cdmod
00020E  LCD_PutChar
00021A  @DIV88
00022F  hienthi
0002A6  @PSTRINGC7_624
0002FB  cdup
00033D  cddw
00037F  @cinit1
00037F  MAIN
00038B  @cinit2

Project Directory:
    E:\Youtube\Pic16F887\Bai tap\doc_nd\

Project Files:
    doc_nd.c                                                [09-Thg2-17 19:54  CRC=1E618867]
    C:\Program Files (x86)\PICC\Devices\16F877a.h           [12-Thg11-13 14:35  CRC=81334808]
    lcd_lib_4bit.c                                          [27-Thg12-12 01:58  CRC=48D76A3F]
    C:\Program Files (x86)\PICC\Drivers\stddef.h            [16-Thg7-10 09:27  CRC=897CEC6C]

Source signature=FB661386

Units:
    doc_nd (main)

Compiler Settings:
    Processor:      PIC16F877A
    Pointer Size:   16
    ADC Range:      0-1023
    Opt Level:      9
    Short,Int,Long: UNSIGNED: 1,8,16
    Float,Double:   32,32

Output Files:
    XREF file:   doc_nd.xsym
    Errors:      doc_nd.err
    Ext Symbols: doc_nd.esym
    INHX8:       doc_nd.hex
    Symbols:     doc_nd.sym
    List:        doc_nd.lst
    Debug/COFF:  doc_nd.cof
    Project:     doc_nd.ccspjt
    Call Tree:   doc_nd.tre
    Statistics:  doc_nd.STA
