004-005 @READ_PROGRAM_MEMORY8.P1
004-005 @WRITE_PROGRAM_MEMORY8.P2
015     CCP_1
015     CCP_1_LOW
016     CCP_1_HIGH
01B     CCP_2_LOW
01B     CCP_2
01C     CCP_2_HIGH
020     @INTERRUPT_AREA
021     @INTERRUPT_AREA
022     @INTERRUPT_AREA
023     @INTERRUPT_AREA
024     @INTERRUPT_AREA
025     @INTERRUPT_AREA
026     @INTERRUPT_AREA
027     @INTERRUPT_AREA
028     @INTERRUPT_AREA
029     @INTERRUPT_AREA
02A     @INTERRUPT_AREA
02B     gio
02C     phut
02D     giay
02E     sao
02F     BDT
030     LCD_COMMAND.MDK
030     @delay_ms1.P1
030     @DIV88.P2
030     hienthi.@SCRATCH1
030     @PSTRINGC7_622.@SCRATCH1
031     @DIV88.P1
031     @PSTRINGC7_622.@SCRATCH2
032     @PSTRINGC7_622.@SCRATCH3
032     @DIV88.@SCRATCH1
033     LCD_DATA.MHT
033     @PSTRINGC7_622.@SCRATCH4
077     @SCRATCH
078     @SCRATCH
078     _RETURN_
079     @SCRATCH
07A     @SCRATCH
07F     @INTERRUPT_AREA
0FF     @INTERRUPT_AREA
107.6   C1OUT
108.6   C2OUT
10D-10E @READ_PROGRAM_MEMORY8.P1
10D-10E @WRITE_PROGRAM_MEMORY8.P2
17F     @INTERRUPT_AREA
1FF     @INTERRUPT_AREA
27F     @INTERRUPT_AREA
2FF     @INTERRUPT_AREA
37F     @INTERRUPT_AREA
3FF     @INTERRUPT_AREA
47F     @INTERRUPT_AREA
4FF     @INTERRUPT_AREA
57F     @INTERRUPT_AREA
5FF     @INTERRUPT_AREA
67F     @INTERRUPT_AREA
6FF     @INTERRUPT_AREA
77F     @INTERRUPT_AREA
7FF     @INTERRUPT_AREA
87F     @INTERRUPT_AREA
8FF     @INTERRUPT_AREA
97F     @INTERRUPT_AREA
9FF     @INTERRUPT_AREA
A7F     @INTERRUPT_AREA
AFF     @INTERRUPT_AREA
B7F     @INTERRUPT_AREA
BFF     @INTERRUPT_AREA
C7F     @INTERRUPT_AREA
CFF     @INTERRUPT_AREA
D7F     @INTERRUPT_AREA
DFF     @INTERRUPT_AREA
E7F     @INTERRUPT_AREA
EFF     @INTERRUPT_AREA
F7F     @INTERRUPT_AREA
FFF     @INTERRUPT_AREA

ROM Allocation:
000051  INTERRUPT_TIMER1
00005B  @const632.call
000064  @const634.call
000067  @const638.call
000068  @const639.call
000069  @const640.call
00006A  LCD_COMMAND
000088  @delay_ms1
00009C  LCD_SETUP
0000BD  LCD_DATA
0000DB  @PSTRINGC7_622
000131  @DIV88
000146  hienthi
0001C3  MAIN
0001C3  @cinit1
0001D5  @cinit2

Project Directory:
    E:\Youtube\Pic16F887\Ngat_timer\ngat_led_7doan_lcd16x2\

Project Files:
    ngat_lcd_16x2.c                                         [23-Thg9-16 16:07  CRC=1B57141E]
    C:\Program Files (x86)\PICC\Devices\16F887.H            [12-Thg11-13 14:35  CRC=6CB1A611]
    ..\..\THU_VIEN\TV_LCD_16X2.c                            [06-Thg9-16 17:42  CRC=E30604EE]

Source signature=4E14C40B

Units:
    ngat_lcd_16x2 (main)

Compiler Settings:
    Processor:      PIC16F887
    Pointer Size:   16
    ADC Range:      0-255
    Opt Level:      9
    Short,Int,Long: UNSIGNED: 1,8,16
    Float,Double:   32,32

Output Files:
    XREF file:   ngat_lcd_16x2.xsym
    Errors:      ngat_lcd_16x2.err
    Ext Symbols: ngat_lcd_16x2.esym
    INHX8:       ngat_lcd_16x2.hex
    Symbols:     ngat_lcd_16x2.sym
    List:        ngat_lcd_16x2.lst
    Debug/COFF:  ngat_lcd_16x2.cof
    Project:     ngat_lcd_16x2.ccspjt
    Call Tree:   ngat_lcd_16x2.tre
    Statistics:  ngat_lcd_16x2.STA
