004-005 @READ_PROGRAM_MEMORY8.P1
004-005 @WRITE_PROGRAM_MEMORY8.P2
015     CCP_1_LOW
015     CCP_1
016     CCP_1_HIGH
01B     CCP_2
01B     CCP_2_LOW
01C     CCP_2_HIGH
020     T1
021     LCD_COMMAND.MDK
021     @DIV88.P1
021     @delay_ms1.P2
021     HIENTHI.@SCRATCH1
021     @PSTRINGC7_622.@SCRATCH1
022     @DIV88.P1
022     @PSTRINGC7_622.@SCRATCH2
023     @DIV88.@SCRATCH1
023     @PSTRINGC7_622.@SCRATCH3
024     LCD_DATA.MHT
024     @PSTRINGC7_622.@SCRATCH4
077     @SCRATCH
078     @SCRATCH
078     _RETURN_
079     @SCRATCH
07A     @SCRATCH
107.6   C1OUT
108.6   C2OUT
10D-10E @WRITE_PROGRAM_MEMORY8.P1
10D-10E @READ_PROGRAM_MEMORY8.P2

ROM Allocation:
000004  @const633.call
000009  LCD_COMMAND
000027  @delay_ms1
00003B  LCD_SETUP
00005C  LCD_DATA
00007A  @PSTRINGC7_622
0000D2  @DIV88
0000E7  HIENTHI
000101  MAIN
000101  @cinit1
000113  @cinit2

Project Directory:
    E:\Youtube\Pic16F887\TIMER_COUNTER\COUNTER\COUNTER_LCD_16X2_T1\

Project Files:
    COUNTER_LCD_16X2_T1.c                                   [21-Aug-16 18:05  CRC=570CF327]
    C:\Program Files (x86)\PICC\devices\16F887.H            [12-Nov-13 14:35  CRC=6CB1A611]
    ..\..\..\THU_VIEN\TV_LCD_16X2.c                         [02-Jul-16 09:04  CRC=0904CC28]

Source signature=D5C83188

Units:
    COUNTER_LCD_16X2_T1 (main)

Compiler Settings:
    Processor:      PIC16F887
    Pointer Size:   16
    ADC Range:      0-255
    Opt Level:      9
    Short,Int,Long: UNSIGNED: 1,8,16
    Float,Double:   32,32

Output Files:
    XREF file:   COUNTER_LCD_16X2_T1.xsym
    Errors:      COUNTER_LCD_16X2_T1.err
    Ext Symbols: COUNTER_LCD_16X2_T1.esym
    INHX8:       COUNTER_LCD_16X2_T1.hex
    Symbols:     COUNTER_LCD_16X2_T1.sym
    List:        COUNTER_LCD_16X2_T1.lst
    Debug/COFF:  COUNTER_LCD_16X2_T1.cof
    Project:     COUNTER_LCD_16X2_T1.ccspjt
    Call Tree:   COUNTER_LCD_16X2_T1.tre
    Statistics:  COUNTER_LCD_16X2_T1.STA
