CCS PCM C Compiler, Version 5.015, 5967               09-Thg2-17 19:54

               Filename:   E:\Youtube\Pic16F887\Bai tap\doc_nd\doc_nd.lst

               ROM used:   987 words (12%)
                           Largest free fragment is 2048
               RAM used:   12 (3%) at main() level
                           28 (8%) worst case
               Stack used: 6 locations
               Stack size: 8

*
0000:  MOVLW  03
0001:  MOVWF  0A
0002:  GOTO   37F
0003:  NOP
.................... #include <16F877a.h> 
.................... //////////// Standard Header file for the PIC16F877A device //////////////// 
.................... /////////////////////////////////////////////////////////////////////////// 
.................... ////        (C) Copyright 1996, 2013 Custom Computer Services          //// 
.................... //// This source code may only be used by licensed users of the CCS C  //// 
.................... //// compiler.  This source code may only be distributed to other      //// 
.................... //// licensed users of the CCS C compiler.  No other use, reproduction //// 
.................... //// or distribution is permitted without written permission.          //// 
.................... //// Derivative programs created using this software in object code    //// 
.................... //// form are not restricted in any way.                               //// 
.................... /////////////////////////////////////////////////////////////////////////// 
.................... #device PIC16F877A 
0004:  DATA 20,24
0005:  DATA D5,2C
0006:  DATA 4E,24
0007:  DATA 20,27
0008:  DATA C8,20
0009:  DATA 54,10
000A:  DATA D4,2A
000B:  DATA CE,23
000C:  DATA 00,00
*
0080:  CLRF   78
0081:  CLRF   79
0082:  CLRF   77
0083:  CLRF   7A
0084:  MOVF   2A,W
0085:  BTFSS  03.2
0086:  GOTO   08A
0087:  MOVF   29,W
0088:  BTFSC  03.2
0089:  GOTO   0A4
008A:  MOVLW  10
008B:  MOVWF  2B
008C:  BCF    03.0
008D:  RLF    27,F
008E:  RLF    28,F
008F:  RLF    77,F
0090:  RLF    7A,F
0091:  MOVF   2A,W
0092:  SUBWF  7A,W
0093:  BTFSS  03.2
0094:  GOTO   097
0095:  MOVF   29,W
0096:  SUBWF  77,W
0097:  BTFSS  03.0
0098:  GOTO   0A0
0099:  MOVF   29,W
009A:  SUBWF  77,F
009B:  BTFSS  03.0
009C:  DECF   7A,F
009D:  MOVF   2A,W
009E:  SUBWF  7A,F
009F:  BSF    03.0
00A0:  RLF    78,F
00A1:  RLF    79,F
00A2:  DECFSZ 2B,F
00A3:  GOTO   08C
00A4:  RETURN
*
00CC:  MOVLW  8E
00CD:  MOVWF  77
00CE:  MOVF   2A,W
00CF:  MOVWF  78
00D0:  MOVF   29,W
00D1:  MOVWF  79
00D2:  CLRF   7A
00D3:  MOVF   78,F
00D4:  BTFSS  03.2
00D5:  GOTO   0E0
00D6:  MOVF   79,W
00D7:  MOVWF  78
00D8:  CLRF   79
00D9:  MOVLW  08
00DA:  SUBWF  77,F
00DB:  MOVF   78,F
00DC:  BTFSS  03.2
00DD:  GOTO   0E0
00DE:  CLRF   77
00DF:  GOTO   0E8
00E0:  BCF    03.0
00E1:  BTFSC  78.7
00E2:  GOTO   0E7
00E3:  RLF    79,F
00E4:  RLF    78,F
00E5:  DECF   77,F
00E6:  GOTO   0E0
00E7:  BCF    78.7
*
00F8:  MOVF   29,W
00F9:  BTFSC  03.2
00FA:  GOTO   1BD
00FB:  MOVWF  35
00FC:  MOVF   2D,W
00FD:  BTFSC  03.2
00FE:  GOTO   1BD
00FF:  SUBWF  35,F
0100:  BTFSS  03.0
0101:  GOTO   107
0102:  MOVLW  7F
0103:  ADDWF  35,F
0104:  BTFSC  03.0
0105:  GOTO   1BD
0106:  GOTO   10D
0107:  MOVLW  81
0108:  SUBWF  35,F
0109:  BTFSS  03.0
010A:  GOTO   1BD
010B:  BTFSC  03.2
010C:  GOTO   1BD
010D:  MOVF   35,W
010E:  MOVWF  77
010F:  CLRF   78
0110:  CLRF   79
0111:  CLRF   7A
0112:  CLRF   34
0113:  MOVF   2A,W
0114:  MOVWF  33
0115:  BSF    33.7
0116:  MOVF   2B,W
0117:  MOVWF  32
0118:  MOVF   2C,W
0119:  MOVWF  31
011A:  MOVLW  19
011B:  MOVWF  35
011C:  MOVF   30,W
011D:  SUBWF  31,F
011E:  BTFSC  03.0
011F:  GOTO   130
0120:  MOVLW  01
0121:  SUBWF  32,F
0122:  BTFSC  03.0
0123:  GOTO   130
0124:  SUBWF  33,F
0125:  BTFSC  03.0
0126:  GOTO   130
0127:  SUBWF  34,F
0128:  BTFSC  03.0
0129:  GOTO   130
012A:  INCF   34,F
012B:  INCF   33,F
012C:  INCF   32,F
012D:  MOVF   30,W
012E:  ADDWF  31,F
012F:  GOTO   162
0130:  MOVF   2F,W
0131:  SUBWF  32,F
0132:  BTFSC  03.0
0133:  GOTO   14B
0134:  MOVLW  01
0135:  SUBWF  33,F
0136:  BTFSC  03.0
0137:  GOTO   14B
0138:  SUBWF  34,F
0139:  BTFSC  03.0
013A:  GOTO   14B
013B:  INCF   34,F
013C:  INCF   33,F
013D:  MOVF   2F,W
013E:  ADDWF  32,F
013F:  MOVF   30,W
0140:  ADDWF  31,F
0141:  BTFSS  03.0
0142:  GOTO   162
0143:  INCF   32,F
0144:  BTFSS  03.2
0145:  GOTO   162
0146:  INCF   33,F
0147:  BTFSS  03.2
0148:  GOTO   162
0149:  INCF   34,F
014A:  GOTO   162
014B:  MOVF   2E,W
014C:  IORLW  80
014D:  SUBWF  33,F
014E:  BTFSC  03.0
014F:  GOTO   161
0150:  MOVLW  01
0151:  SUBWF  34,F
0152:  BTFSC  03.0
0153:  GOTO   161
0154:  INCF   34,F
0155:  MOVF   2E,W
0156:  IORLW  80
0157:  ADDWF  33,F
0158:  MOVF   2F,W
0159:  ADDWF  32,F
015A:  BTFSS  03.0
015B:  GOTO   13F
015C:  INCF   33,F
015D:  BTFSS  03.2
015E:  GOTO   13F
015F:  INCF   34,F
0160:  GOTO   13F
0161:  BSF    7A.0
0162:  DECFSZ 35,F
0163:  GOTO   165
0164:  GOTO   170
0165:  BCF    03.0
0166:  RLF    31,F
0167:  RLF    32,F
0168:  RLF    33,F
0169:  RLF    34,F
016A:  BCF    03.0
016B:  RLF    7A,F
016C:  RLF    79,F
016D:  RLF    78,F
016E:  RLF    36,F
016F:  GOTO   11C
0170:  BTFSS  36.0
0171:  GOTO   178
0172:  BCF    03.0
0173:  RRF    78,F
0174:  RRF    79,F
0175:  RRF    7A,F
0176:  RRF    36,F
0177:  GOTO   17B
0178:  DECF   77,F
0179:  BTFSC  03.2
017A:  GOTO   1BD
017B:  BTFSC  36.7
017C:  GOTO   1A4
017D:  BCF    03.0
017E:  RLF    31,F
017F:  RLF    32,F
0180:  RLF    33,F
0181:  RLF    34,F
0182:  MOVF   30,W
0183:  SUBWF  31,F
0184:  BTFSC  03.0
0185:  GOTO   190
0186:  MOVLW  01
0187:  SUBWF  32,F
0188:  BTFSC  03.0
0189:  GOTO   190
018A:  SUBWF  33,F
018B:  BTFSC  03.0
018C:  GOTO   190
018D:  SUBWF  34,F
018E:  BTFSS  03.0
018F:  GOTO   1B3
0190:  MOVF   2F,W
0191:  SUBWF  32,F
0192:  BTFSC  03.0
0193:  GOTO   19B
0194:  MOVLW  01
0195:  SUBWF  33,F
0196:  BTFSC  03.0
0197:  GOTO   19B
0198:  SUBWF  34,F
0199:  BTFSS  03.0
019A:  GOTO   1B3
019B:  MOVF   2E,W
019C:  IORLW  80
019D:  SUBWF  33,F
019E:  BTFSC  03.0
019F:  GOTO   1A4
01A0:  MOVLW  01
01A1:  SUBWF  34,F
01A2:  BTFSS  03.0
01A3:  GOTO   1B3
01A4:  INCF   7A,F
01A5:  BTFSS  03.2
01A6:  GOTO   1B3
01A7:  INCF   79,F
01A8:  BTFSS  03.2
01A9:  GOTO   1B3
01AA:  INCF   78,F
01AB:  BTFSS  03.2
01AC:  GOTO   1B3
01AD:  INCF   77,F
01AE:  BTFSC  03.2
01AF:  GOTO   1BD
01B0:  RRF    78,F
01B1:  RRF    79,F
01B2:  RRF    7A,F
01B3:  MOVF   2A,W
01B4:  MOVWF  35
01B5:  MOVF   2E,W
01B6:  XORWF  35,F
01B7:  BTFSS  35.7
01B8:  GOTO   1BB
01B9:  BSF    78.7
01BA:  GOTO   1C1
01BB:  BCF    78.7
01BC:  GOTO   1C1
01BD:  CLRF   77
01BE:  CLRF   78
01BF:  CLRF   79
01C0:  CLRF   7A
*
01C9:  MOVLW  8E
01CA:  MOVWF  77
01CB:  MOVF   27,W
01CC:  SUBWF  77,F
01CD:  MOVF   28,W
01CE:  MOVWF  79
01CF:  MOVF   29,W
01D0:  MOVWF  78
01D1:  BSF    79.7
01D2:  MOVF   77,F
01D3:  BTFSC  03.2
01D4:  GOTO   1E0
01D5:  BCF    03.0
01D6:  MOVF   79,F
01D7:  BTFSS  03.2
01D8:  GOTO   1DC
01D9:  MOVF   78,F
01DA:  BTFSC  03.2
01DB:  GOTO   1E0
01DC:  RRF    79,F
01DD:  RRF    78,F
01DE:  DECFSZ 77,F
01DF:  GOTO   1D5
01E0:  BTFSS  28.7
01E1:  GOTO   1E7
01E2:  COMF   78,F
01E3:  COMF   79,F
01E4:  INCF   78,F
01E5:  BTFSC  03.2
01E6:  INCF   79,F
*
021A:  MOVF   28,W
021B:  CLRF   78
021C:  SUBWF  27,W
021D:  BTFSC  03.0
021E:  GOTO   222
021F:  MOVF   27,W
0220:  MOVWF  77
0221:  GOTO   22E
0222:  CLRF   77
0223:  MOVLW  08
0224:  MOVWF  29
0225:  RLF    27,F
0226:  RLF    77,F
0227:  MOVF   28,W
0228:  SUBWF  77,W
0229:  BTFSC  03.0
022A:  MOVWF  77
022B:  RLF    78,F
022C:  DECFSZ 29,F
022D:  GOTO   225
022E:  RETURN
*
02A6:  BCF    03.6
02A7:  MOVF   0B,W
02A8:  MOVWF  27
02A9:  BCF    0B.7
02AA:  BSF    03.5
02AB:  BSF    03.6
02AC:  BSF    0C.7
02AD:  BSF    0C.0
02AE:  NOP
02AF:  NOP
02B0:  BCF    03.5
02B1:  BCF    03.6
02B2:  BTFSC  27.7
02B3:  BSF    0B.7
02B4:  BSF    03.6
02B5:  MOVF   0C,W
02B6:  ANDLW  7F
02B7:  BTFSC  03.2
02B8:  GOTO   2F9
02B9:  BCF    03.6
02BA:  MOVWF  27
02BB:  BSF    03.6
02BC:  MOVF   0D,W
02BD:  BCF    03.6
02BE:  MOVWF  28
02BF:  BSF    03.6
02C0:  MOVF   0F,W
02C1:  BCF    03.6
02C2:  MOVWF  29
02C3:  MOVF   27,W
02C4:  MOVWF  2A
02C5:  CALL   20E
02C6:  MOVF   28,W
02C7:  BSF    03.6
02C8:  MOVWF  0D
02C9:  BCF    03.6
02CA:  MOVF   29,W
02CB:  BSF    03.6
02CC:  MOVWF  0F
02CD:  BCF    03.6
02CE:  MOVF   0B,W
02CF:  MOVWF  2A
02D0:  BCF    0B.7
02D1:  BSF    03.5
02D2:  BSF    03.6
02D3:  BSF    0C.7
02D4:  BSF    0C.0
02D5:  NOP
02D6:  NOP
02D7:  BCF    03.5
02D8:  BCF    03.6
02D9:  BTFSC  2A.7
02DA:  BSF    0B.7
02DB:  BSF    03.6
02DC:  RLF    0C,W
02DD:  RLF    0E,W
02DE:  ANDLW  7F
02DF:  BTFSC  03.2
02E0:  GOTO   2F9
02E1:  BCF    03.6
02E2:  MOVWF  27
02E3:  BSF    03.6
02E4:  MOVF   0D,W
02E5:  BCF    03.6
02E6:  MOVWF  28
02E7:  BSF    03.6
02E8:  MOVF   0F,W
02E9:  BCF    03.6
02EA:  MOVWF  29
02EB:  MOVF   27,W
02EC:  MOVWF  2A
02ED:  CALL   20E
02EE:  MOVF   28,W
02EF:  BSF    03.6
02F0:  MOVWF  0D
02F1:  BCF    03.6
02F2:  MOVF   29,W
02F3:  BSF    03.6
02F4:  MOVWF  0F
02F5:  INCF   0D,F
02F6:  BTFSC  03.2
02F7:  INCF   0F,F
02F8:  GOTO   2A6
....................  
.................... #list 
....................  
.................... #device adc = 10 
.................... #FUSES NOWDT, HS, NOPUT, NOPROTECT, NODEBUG, NOBROWNOUT, NOLVP, NOCPD, NOWRT 
.................... #use delay(CLOCK=20M) 
*
002E:  MOVLW  2C
002F:  MOVWF  04
0030:  BCF    03.7
0031:  MOVF   00,W
0032:  BTFSC  03.2
0033:  GOTO   041
0034:  MOVLW  06
0035:  MOVWF  78
0036:  CLRF   77
0037:  DECFSZ 77,F
0038:  GOTO   037
0039:  DECFSZ 78,F
003A:  GOTO   036
003B:  MOVLW  7B
003C:  MOVWF  77
003D:  DECFSZ 77,F
003E:  GOTO   03D
003F:  DECFSZ 00,F
0040:  GOTO   034
0041:  RETURN
....................  
.................... #include<lcd_lib_4bit.c> 
.................... #include <stddef.h> 
.................... /////////////////////////////////////////////////////////////////////////// 
.................... ////        (C) Copyright 1996,2003 Custom Computer Services           //// 
.................... //// This source code may only be used by licensed users of the CCS C  //// 
.................... //// compiler.  This source code may only be distributed to other      //// 
.................... //// licensed users of the CCS C compiler.  No other use, reproduction //// 
.................... //// or distribution is permitted without written permission.          //// 
.................... //// Derivative programs created using this software in object code    //// 
.................... //// form are not restricted in any way.                               //// 
.................... /////////////////////////////////////////////////////////////////////////// 
....................  
.................... #ifndef _STDDEF 
....................  
.................... #define _STDDEF 
....................  
.................... #if sizeof(unsigned int8 *)==1 
.................... #define ptrdiff_t unsigned int8 
.................... #else 
.................... #define ptrdiff_t unsigned int16 
.................... #endif 
....................  
.................... #if defined(__PCB__) 
.................... #define size_t unsigned int8 
.................... #else 
.................... #define size_t unsigned int16 
.................... #endif 
.................... #define wchar_t char 
.................... #define NULL 0 
....................  
.................... #define offsetof(s,f) (offsetofbit(s,f)/8) 
....................  
.................... #endif 
....................  
....................  
.................... #define LCD_RS          PIN_D0 
.................... //#define LCD_RW          PIN_E1 
.................... #define LCD_EN          PIN_D1 
....................  
.................... #define LCD_D4          PIN_D4 
.................... #define LCD_D5          PIN_D5 
.................... #define LCD_D6          PIN_D6 
.................... #define LCD_D7          PIN_D7 
....................  
.................... // misc display defines- 
.................... #define Line_1          0x80 
.................... #define Line_2          0xC0 
.................... #define Clear_Scr       0x01 
....................  
.................... // prototype statements 
.................... #separate void LCD_Init ( void );// ham khoi tao LCD 
.................... #separate void LCD_SetPosition ( unsigned int cX );//Thiet lap vi tri con tro 
.................... #separate void LCD_PutChar ( unsigned int cX );// Ham viet1kitu/1chuoi len LCD 
.................... #separate void LCD_PutCmd ( unsigned int cX) ;// Ham gui lenh len LCD 
.................... #separate void LCD_PulseEnable ( void );// Xung kich hoat 
.................... #separate void LCD_SetData ( unsigned int cX );// Dat du lieu len chan Data 
.................... // D/n Cong 
.................... #use standard_io ( B ) 
.................... #use standard_io (A) 
....................  
.................... //khoi tao LCD********************************************** 
.................... #separate void LCD_Init ( void ) 
....................     { 
....................  
....................     LCD_SetData ( 0x00 ); 
*
005E:  CLRF   2C
005F:  CALL   00D
....................     delay_ms(200);       /* wait enough time after Vdd rise >> 15ms */ 
0060:  MOVLW  C8
0061:  MOVWF  2C
0062:  CALL   02E
....................     output_low ( LCD_RS );// che do gui lenh 
0063:  BSF    03.5
0064:  BCF    08.0
0065:  BCF    03.5
0066:  BCF    08.0
....................     LCD_SetData ( 0x03 );   /* init with specific nibbles to start 4-bit mode */ 
0067:  MOVLW  03
0068:  MOVWF  2C
0069:  CALL   00D
....................     LCD_PulseEnable(); 
006A:  CALL   042
....................     LCD_PulseEnable(); 
006B:  CALL   042
....................     LCD_PulseEnable(); 
006C:  CALL   042
....................     LCD_SetData ( 0x02 );   /* set 4-bit interface */ 
006D:  MOVLW  02
006E:  MOVWF  2C
006F:  CALL   00D
....................     LCD_PulseEnable();      /* send dual nibbles hereafter, MSN first */ 
0070:  CALL   042
....................     LCD_PutCmd ( 0x2C );    /* function set (all lines, 5x7 characters) */ 
0071:  MOVLW  2C
0072:  MOVWF  2B
0073:  CALL   053
....................     LCD_PutCmd ( 0b00001100);    /* display ON, cursor off, no blink */ 
0074:  MOVLW  0C
0075:  MOVWF  2B
0076:  CALL   053
....................     LCD_PutCmd ( 0x06 );    /* entry mode set, increment & scroll left */ 
0077:  MOVLW  06
0078:  MOVWF  2B
0079:  CALL   053
....................     LCD_PutCmd ( 0x01 );    /* clear display */ 
007A:  MOVLW  01
007B:  MOVWF  2B
007C:  CALL   053
007D:  BCF    0A.3
007E:  BCF    0A.4
007F:  GOTO   38E (RETURN)
....................     } 
....................  
.................... #separate void LCD_SetPosition ( unsigned int cX ) 
....................     { 
....................     /* this subroutine works specifically for 4-bit Port A */ 
....................     LCD_SetData ( swap ( cX ) | 0x08 ); 
....................     LCD_PulseEnable(); 
....................     LCD_SetData ( swap ( cX ) ); 
....................     LCD_PulseEnable(); 
....................     } 
....................  
.................... #separate void LCD_PutChar ( unsigned int cX ) 
....................     { 
....................     /* this subroutine works specifically for 4-bit Port A */ 
....................         output_high ( LCD_RS ); 
*
020E:  BSF    03.5
020F:  BCF    08.0
0210:  BCF    03.5
0211:  BSF    08.0
....................         LCD_PutCmd( cX ); 
0212:  MOVF   2A,W
0213:  MOVWF  2B
0214:  CALL   053
....................         output_low ( LCD_RS ); 
0215:  BSF    03.5
0216:  BCF    08.0
0217:  BCF    03.5
0218:  BCF    08.0
0219:  RETURN
....................     } 
....................  
.................... #separate void LCD_PutCmd ( unsigned int cX ) 
....................     { 
....................     /* this subroutine works specifically for 4-bit Port A */ 
....................     LCD_SetData ( swap ( cX ) );     /* send high nibble */ 
*
0053:  SWAPF  2B,F
0054:  MOVF   2B,W
0055:  MOVWF  2C
0056:  CALL   00D
....................     LCD_PulseEnable(); 
0057:  CALL   042
....................     LCD_SetData ( swap ( cX ) );     /* send low nibble */ 
0058:  SWAPF  2B,F
0059:  MOVF   2B,W
005A:  MOVWF  2C
005B:  CALL   00D
....................     LCD_PulseEnable(); 
005C:  CALL   042
005D:  RETURN
....................     } 
.................... #separate void LCD_PulseEnable ( void ) 
....................     { 
....................     output_high ( LCD_EN ); 
*
0042:  BSF    03.5
0043:  BCF    08.1
0044:  BCF    03.5
0045:  BSF    08.1
....................     delay_us ( 3 );         // was 10 
0046:  MOVLW  04
0047:  MOVWF  77
0048:  DECFSZ 77,F
0049:  GOTO   048
004A:  GOTO   04B
....................     output_low ( LCD_EN ); 
004B:  BSF    03.5
004C:  BCF    08.1
004D:  BCF    03.5
004E:  BCF    08.1
....................     delay_ms ( 3 );         // was 5 
004F:  MOVLW  03
0050:  MOVWF  2C
0051:  CALL   02E
0052:  RETURN
....................     } 
....................  
.................... #separate void LCD_SetData ( unsigned int cX ) 
....................     { 
....................     output_bit ( LCD_D4, cX & 0x01 ); 
*
000D:  BTFSC  2C.0
000E:  GOTO   011
000F:  BCF    08.4
0010:  GOTO   012
0011:  BSF    08.4
0012:  BSF    03.5
0013:  BCF    08.4
....................     output_bit ( LCD_D5, cX & 0x02 ); 
0014:  BCF    03.5
0015:  BTFSC  2C.1
0016:  GOTO   019
0017:  BCF    08.5
0018:  GOTO   01A
0019:  BSF    08.5
001A:  BSF    03.5
001B:  BCF    08.5
....................     output_bit ( LCD_D6, cX & 0x04 ); 
001C:  BCF    03.5
001D:  BTFSC  2C.2
001E:  GOTO   021
001F:  BCF    08.6
0020:  GOTO   022
0021:  BSF    08.6
0022:  BSF    03.5
0023:  BCF    08.6
....................     output_bit ( LCD_D7, cX & 0x08 ); 
0024:  BCF    03.5
0025:  BTFSC  2C.3
0026:  GOTO   029
0027:  BCF    08.7
0028:  GOTO   02A
0029:  BSF    08.7
002A:  BSF    03.5
002B:  BCF    08.7
002C:  BCF    03.5
002D:  RETURN
....................     } 
....................  
....................  
.................... #define  mod    pin_c0 
.................... #define  tang   pin_c1 
.................... #define  giam   pin_c2 
....................  
....................  
.................... unsigned int8 i,h,l,mode; 
.................... unsigned int16 kq; 
....................  
.................... void hienthi() 
.................... { 
....................    lcd_putcmd(0x80); 
*
022F:  MOVLW  80
0230:  MOVWF  2B
0231:  CALL   053
....................    printf(lcd_putchar,"T="); 
0232:  MOVLW  54
0233:  MOVWF  2A
0234:  CALL   20E
0235:  MOVLW  3D
0236:  MOVWF  2A
0237:  CALL   20E
....................    lcd_putchar(kq/10+0x30); 
0238:  MOVF   25,W
0239:  MOVWF  28
023A:  MOVF   24,W
023B:  MOVWF  27
023C:  CLRF   2A
023D:  MOVLW  0A
023E:  MOVWF  29
023F:  CALL   080
0240:  MOVF   79,W
0241:  MOVWF  28
0242:  MOVF   78,W
0243:  MOVWF  27
0244:  MOVLW  30
0245:  ADDWF  27,F
0246:  BTFSC  03.0
0247:  INCF   28,F
0248:  MOVF   27,W
0249:  MOVWF  2A
024A:  CALL   20E
....................    lcd_putchar(kq%10+0x30); 
024B:  MOVF   25,W
024C:  MOVWF  28
024D:  MOVF   24,W
024E:  MOVWF  27
024F:  CLRF   2A
0250:  MOVLW  0A
0251:  MOVWF  29
0252:  CALL   080
0253:  MOVF   77,W
0254:  MOVWF  27
0255:  MOVF   7A,W
0256:  MOVWF  28
0257:  MOVLW  30
0258:  ADDWF  27,F
0259:  BTFSC  03.0
025A:  INCF   28,F
025B:  MOVF   27,W
025C:  MOVWF  2A
025D:  CALL   20E
....................    lcd_putchar(0xdf); 
025E:  MOVLW  DF
025F:  MOVWF  2A
0260:  CALL   20E
....................    printf(lcd_putchar,"C"); 
0261:  MOVLW  43
0262:  MOVWF  2A
0263:  CALL   20E
....................     
....................    lcd_putcmd(0x8c); 
0264:  MOVLW  8C
0265:  MOVWF  2B
0266:  CALL   053
....................    printf(lcd_putchar,"H="); 
0267:  MOVLW  48
0268:  MOVWF  2A
0269:  CALL   20E
026A:  MOVLW  3D
026B:  MOVWF  2A
026C:  CALL   20E
....................    lcd_putchar(h/10+0x30); 
026D:  MOVF   21,W
026E:  MOVWF  27
026F:  MOVLW  0A
0270:  MOVWF  28
0271:  CALL   21A
0272:  MOVLW  30
0273:  ADDWF  78,W
0274:  MOVWF  27
0275:  MOVWF  2A
0276:  CALL   20E
....................    lcd_putchar(h%10+0x30); 
0277:  MOVF   21,W
0278:  MOVWF  27
0279:  MOVLW  0A
027A:  MOVWF  28
027B:  CALL   21A
027C:  MOVLW  30
027D:  ADDWF  77,W
027E:  MOVWF  27
027F:  MOVWF  2A
0280:  CALL   20E
....................     
....................    lcd_putcmd(0x87); 
0281:  MOVLW  87
0282:  MOVWF  2B
0283:  CALL   053
....................    printf(lcd_putchar,"L="); 
0284:  MOVLW  4C
0285:  MOVWF  2A
0286:  CALL   20E
0287:  MOVLW  3D
0288:  MOVWF  2A
0289:  CALL   20E
....................    lcd_putchar(l/10+0x30); 
028A:  MOVF   22,W
028B:  MOVWF  27
028C:  MOVLW  0A
028D:  MOVWF  28
028E:  CALL   21A
028F:  MOVLW  30
0290:  ADDWF  78,W
0291:  MOVWF  27
0292:  MOVWF  2A
0293:  CALL   20E
....................    lcd_putchar(l%10+0x30);   
0294:  MOVF   22,W
0295:  MOVWF  27
0296:  MOVLW  0A
0297:  MOVWF  28
0298:  CALL   21A
0299:  MOVLW  30
029A:  ADDWF  77,W
029B:  MOVWF  27
029C:  MOVWF  2A
029D:  CALL   20E
....................     
....................    lcd_putcmd(0xc0); 
029E:  MOVLW  C0
029F:  MOVWF  2B
02A0:  CALL   053
....................    printf(lcd_putchar," HUYNH NHAT TUNG"); 
02A1:  MOVLW  04
02A2:  BSF    03.6
02A3:  MOVWF  0D
02A4:  MOVLW  00
02A5:  MOVWF  0F
*
02F9:  BCF    03.6
02FA:  RETURN
....................  
.................... } 
....................  
.................... void cdmod() 
.................... { 
....................    if(!input(mod)) 
*
01EE:  BSF    26.0
01EF:  MOVF   26,W
01F0:  BSF    03.5
01F1:  MOVWF  07
01F2:  BCF    03.5
01F3:  BTFSC  07.0
01F4:  GOTO   20B
....................    { 
....................       delay_ms(20); 
01F5:  MOVLW  14
01F6:  MOVWF  2C
01F7:  CALL   02E
....................       if(!input(mod)) 
01F8:  BSF    26.0
01F9:  MOVF   26,W
01FA:  BSF    03.5
01FB:  MOVWF  07
01FC:  BCF    03.5
01FD:  BTFSC  07.0
01FE:  GOTO   204
....................       { 
....................          mode++; 
01FF:  INCF   23,F
....................          if(mode==3)     mode = 0; 
0200:  MOVF   23,W
0201:  SUBLW  03
0202:  BTFSC  03.2
0203:  CLRF   23
....................       } 
....................       while(!input(mod)); 
0204:  BSF    26.0
0205:  MOVF   26,W
0206:  BSF    03.5
0207:  MOVWF  07
0208:  BCF    03.5
0209:  BTFSS  07.0
020A:  GOTO   204
....................    } 
020B:  BCF    0A.3
020C:  BCF    0A.4
020D:  GOTO   3AB (RETURN)
.................... } 
....................  
.................... void cdup() 
.................... { 
....................    if(!input(tang)) 
*
02FB:  BSF    26.1
02FC:  MOVF   26,W
02FD:  BSF    03.5
02FE:  MOVWF  07
02FF:  BCF    03.5
0300:  BTFSC  07.1
0301:  GOTO   33A
....................    { 
....................       delay_ms(20); 
0302:  MOVLW  14
0303:  MOVWF  2C
0304:  CALL   02E
....................       if(!input(tang)) 
0305:  BSF    26.1
0306:  MOVF   26,W
0307:  BSF    03.5
0308:  MOVWF  07
0309:  BCF    03.5
030A:  BTFSC  07.1
030B:  GOTO   333
....................       { 
....................          switch(mode) 
030C:  MOVF   23,W
030D:  XORLW  01
030E:  BTFSC  03.2
030F:  GOTO   314
0310:  XORLW  03
0311:  BTFSC  03.2
0312:  GOTO   324
0313:  GOTO   333
....................          { 
....................             case 1:  l++; 
0314:  INCF   22,F
....................                      if(l<25)      l = 25; 
0315:  MOVF   22,W
0316:  SUBLW  18
0317:  BTFSS  03.0
0318:  GOTO   31C
0319:  MOVLW  19
031A:  MOVWF  22
031B:  GOTO   322
....................                      else if(l>29) l = 29; 
031C:  MOVF   22,W
031D:  SUBLW  1D
031E:  BTFSC  03.0
031F:  GOTO   322
0320:  MOVLW  1D
0321:  MOVWF  22
....................                      hienthi(); 
0322:  CALL   22F
....................                      break; 
0323:  GOTO   333
....................                       
....................            case 2 :  h++; 
0324:  INCF   21,F
....................                      if(h<26)       h = 26; 
0325:  MOVF   21,W
0326:  SUBLW  19
0327:  BTFSS  03.0
0328:  GOTO   32C
0329:  MOVLW  1A
032A:  MOVWF  21
032B:  GOTO   332
....................                      else if(h>30)  h = 30; 
032C:  MOVF   21,W
032D:  SUBLW  1E
032E:  BTFSC  03.0
032F:  GOTO   332
0330:  MOVLW  1E
0331:  MOVWF  21
....................                      hienthi(); 
0332:  CALL   22F
....................                      break; 
....................                       
....................          } 
....................       } 
....................      // delay_ms(500); 
....................       while(!input(tang)); 
0333:  BSF    26.1
0334:  MOVF   26,W
0335:  BSF    03.5
0336:  MOVWF  07
0337:  BCF    03.5
0338:  BTFSS  07.1
0339:  GOTO   333
....................    } 
033A:  BCF    0A.3
033B:  BCF    0A.4
033C:  GOTO   3AC (RETURN)
.................... } 
....................  
.................... void cddw() 
.................... { 
....................    if(!input(giam)) 
033D:  BSF    26.2
033E:  MOVF   26,W
033F:  BSF    03.5
0340:  MOVWF  07
0341:  BCF    03.5
0342:  BTFSC  07.2
0343:  GOTO   37C
....................    { 
....................       delay_ms(20); 
0344:  MOVLW  14
0345:  MOVWF  2C
0346:  CALL   02E
....................       if(!input(giam)) 
0347:  BSF    26.2
0348:  MOVF   26,W
0349:  BSF    03.5
034A:  MOVWF  07
034B:  BCF    03.5
034C:  BTFSC  07.2
034D:  GOTO   375
....................       { 
....................          switch(mode) 
034E:  MOVF   23,W
034F:  XORLW  01
0350:  BTFSC  03.2
0351:  GOTO   356
0352:  XORLW  03
0353:  BTFSC  03.2
0354:  GOTO   366
0355:  GOTO   375
....................          { 
....................             case 1:  l--; 
0356:  DECF   22,F
....................                      if(l<25)      l = 25; 
0357:  MOVF   22,W
0358:  SUBLW  18
0359:  BTFSS  03.0
035A:  GOTO   35E
035B:  MOVLW  19
035C:  MOVWF  22
035D:  GOTO   364
....................                      else if(l>29) l = 29; 
035E:  MOVF   22,W
035F:  SUBLW  1D
0360:  BTFSC  03.0
0361:  GOTO   364
0362:  MOVLW  1D
0363:  MOVWF  22
....................                      hienthi(); 
0364:  CALL   22F
....................                      break; 
0365:  GOTO   375
....................                       
....................            case 2 :  h--; 
0366:  DECF   21,F
....................                      if(h<26)       h = 26; 
0367:  MOVF   21,W
0368:  SUBLW  19
0369:  BTFSS  03.0
036A:  GOTO   36E
036B:  MOVLW  1A
036C:  MOVWF  21
036D:  GOTO   374
....................                      else if(h>30)  h = 30; 
036E:  MOVF   21,W
036F:  SUBLW  1E
0370:  BTFSC  03.0
0371:  GOTO   374
0372:  MOVLW  1E
0373:  MOVWF  21
....................                      hienthi(); 
0374:  CALL   22F
....................                      break; 
....................                       
....................          } 
....................       } 
....................      // delay_ms(500); 
....................       while(!input(giam)); 
0375:  BSF    26.2
0376:  MOVF   26,W
0377:  BSF    03.5
0378:  MOVWF  07
0379:  BCF    03.5
037A:  BTFSS  07.2
037B:  GOTO   375
....................    } 
037C:  BCF    0A.3
037D:  BCF    0A.4
037E:  GOTO   3AD (RETURN)
.................... } 
....................  
.................... void docnd() 
.................... { 
....................    kq=0; 
*
00A5:  CLRF   25
00A6:  CLRF   24
....................    for(i=0;i<100;i++) 
00A7:  CLRF   20
00A8:  MOVF   20,W
00A9:  SUBLW  63
00AA:  BTFSS  03.0
00AB:  GOTO   0BC
....................    { 
....................       kq = kq + read_adc(); 
00AC:  BSF    1F.2
00AD:  BTFSC  1F.2
00AE:  GOTO   0AD
00AF:  BSF    03.5
00B0:  MOVF   1E,W
00B1:  BCF    03.5
00B2:  ADDWF  24,F
00B3:  MOVF   1E,W
00B4:  BTFSC  03.0
00B5:  INCFSZ 1E,W
00B6:  ADDWF  25,F
....................       delay_ms(1); 
00B7:  MOVLW  01
00B8:  MOVWF  2C
00B9:  CALL   02E
00BA:  INCF   20,F
00BB:  GOTO   0A8
....................    } 
....................    kq = kq/100/2.046; 
00BC:  MOVF   25,W
00BD:  MOVWF  28
00BE:  MOVF   24,W
00BF:  MOVWF  27
00C0:  CLRF   2A
00C1:  MOVLW  64
00C2:  MOVWF  29
00C3:  CALL   080
00C4:  MOVF   79,W
00C5:  MOVWF  28
00C6:  MOVF   78,W
00C7:  MOVWF  27
00C8:  MOVF   28,W
00C9:  MOVWF  2A
00CA:  MOVF   27,W
00CB:  MOVWF  29
*
00E8:  MOVF   7A,W
00E9:  MOVWF  2C
00EA:  MOVF   79,W
00EB:  MOVWF  2B
00EC:  MOVF   78,W
00ED:  MOVWF  2A
00EE:  MOVF   77,W
00EF:  MOVWF  29
00F0:  MOVLW  AA
00F1:  MOVWF  30
00F2:  MOVLW  F1
00F3:  MOVWF  2F
00F4:  MOVLW  02
00F5:  MOVWF  2E
00F6:  MOVLW  80
00F7:  MOVWF  2D
*
01C1:  MOVF   7A,W
01C2:  MOVWF  2A
01C3:  MOVF   79,W
01C4:  MOVWF  29
01C5:  MOVF   78,W
01C6:  MOVWF  28
01C7:  MOVF   77,W
01C8:  MOVWF  27
*
01E7:  MOVF   79,W
01E8:  MOVWF  25
01E9:  MOVF   78,W
01EA:  MOVWF  24
01EB:  BCF    0A.3
01EC:  BCF    0A.4
01ED:  GOTO   3AA (RETURN)
.................... } 
....................  
....................  
.................... void main() 
*
037F:  MOVF   03,W
0380:  ANDLW  1F
0381:  MOVWF  03
0382:  MOVLW  FF
0383:  MOVWF  26
0384:  BSF    03.5
0385:  BSF    1F.0
0386:  BSF    1F.1
0387:  BSF    1F.2
0388:  BCF    1F.3
0389:  MOVLW  07
038A:  MOVWF  1C
038B:  BCF    03.7
.................... { 
....................    lcd_init(); 
038C:  BCF    03.5
038D:  GOTO   05E
....................     
....................    kq=0; 
038E:  CLRF   25
038F:  CLRF   24
....................    h=30; 
0390:  MOVLW  1E
0391:  MOVWF  21
....................    l=25; 
0392:  MOVLW  19
0393:  MOVWF  22
....................     
....................    setup_adc(ADC_CLOCK_INTERNAL); 
0394:  BSF    03.5
0395:  BCF    1F.6
0396:  BCF    03.5
0397:  BSF    1F.6
0398:  BSF    1F.7
0399:  BSF    03.5
039A:  BSF    1F.7
039B:  BCF    03.5
039C:  BSF    1F.0
....................    setup_adc_ports(an0); 
039D:  BSF    03.5
039E:  BCF    1F.0
039F:  BSF    1F.1
03A0:  BSF    1F.2
03A1:  BSF    1F.3
....................    set_adc_channel(0); 
03A2:  MOVLW  00
03A3:  MOVWF  78
03A4:  BCF    03.5
03A5:  MOVF   1F,W
03A6:  ANDLW  C7
03A7:  IORWF  78,W
03A8:  MOVWF  1F
....................     
....................    while(true) 
....................    { 
....................       docnd(); 
03A9:  GOTO   0A5
....................       cdmod(); 
03AA:  GOTO   1EE
....................       cdup(); 
03AB:  GOTO   2FB
....................       cddw(); 
03AC:  GOTO   33D
....................       if(kq<=l)         output_bit(pin_c5,1); 
03AD:  MOVF   25,F
03AE:  BTFSS  03.2
03AF:  GOTO   3BB
03B0:  MOVF   24,W
03B1:  SUBWF  22,W
03B2:  BTFSS  03.0
03B3:  GOTO   3BB
03B4:  BSF    07.5
03B5:  BCF    26.5
03B6:  MOVF   26,W
03B7:  BSF    03.5
03B8:  MOVWF  07
03B9:  GOTO   3D7
03BA:  BCF    03.5
....................       else if(kq<h)  
03BB:  MOVF   25,F
03BC:  BTFSS  03.2
03BD:  GOTO   3D2
03BE:  MOVF   21,W
03BF:  SUBWF  24,W
03C0:  BTFSC  03.0
03C1:  GOTO   3D2
....................       { 
....................          output_bit(pin_c5,1); 
03C2:  BSF    07.5
03C3:  BCF    26.5
03C4:  MOVF   26,W
03C5:  BSF    03.5
03C6:  MOVWF  07
....................          delay_ms(100); 
03C7:  MOVLW  64
03C8:  BCF    03.5
03C9:  MOVWF  2C
03CA:  CALL   02E
....................          output_bit(pin_c5,0); 
03CB:  BCF    07.5
03CC:  BCF    26.5
03CD:  MOVF   26,W
03CE:  BSF    03.5
03CF:  MOVWF  07
....................       } 
03D0:  GOTO   3D7
03D1:  BCF    03.5
....................       else         output_bit(pin_c5,0); 
03D2:  BCF    07.5
03D3:  BCF    26.5
03D4:  MOVF   26,W
03D5:  BSF    03.5
03D6:  MOVWF  07
....................       hienthi(); 
03D7:  BCF    03.5
03D8:  CALL   22F
03D9:  GOTO   3A9
....................    } 
.................... } 
03DA:  SLEEP

Configuration Fuses:
   Word  1: 3F3A   HS NOWDT NOPUT NOBROWNOUT NOLVP NOCPD NOWRT NODEBUG NOPROTECT
