CCS PCM C Compiler, Version 5.015, 5967               13-Thg9-16 08:33

               Filename:   E:\Youtube\Pic16F887\TIMER_COUNTER\TIMER\LED_7DOAN_595\TIMER_LED_7DOAN_595.lst

               ROM used:   200 words (2%)
                           Largest free fragment is 2048
               RAM used:   12 (3%) at main() level
                           19 (5%) worst case
               Stack used: 2 locations
               Stack size: 8

*
0000:  MOVLW  00
0001:  MOVWF  0A
0002:  GOTO   05C
0003:  NOP
.................... #INCLUDE <16F887.H> 
.................... //////////// Standard Header file for the PIC16F887 device //////////////// 
.................... /////////////////////////////////////////////////////////////////////////// 
.................... ////        (C) Copyright 1996, 2013 Custom Computer Services          //// 
.................... //// This source code may only be used by licensed users of the CCS C  //// 
.................... //// compiler.  This source code may only be distributed to other      //// 
.................... //// licensed users of the CCS C compiler.  No other use, reproduction //// 
.................... //// or distribution is permitted without written permission.          //// 
.................... //// Derivative programs created using this software in object code    //// 
.................... //// form are not restricted in any way.                               //// 
.................... /////////////////////////////////////////////////////////////////////////// 
.................... #device PIC16F887 
0004:  BCF    0A.0
0005:  BCF    0A.1
0006:  BCF    0A.2
0007:  ADDWF  02,F
0008:  RETLW  C0
0009:  RETLW  F9
000A:  RETLW  A4
000B:  RETLW  B0
000C:  RETLW  99
000D:  RETLW  92
000E:  RETLW  82
000F:  RETLW  F8
0010:  RETLW  80
0011:  RETLW  90
0012:  RETLW  88
0013:  RETLW  83
0014:  RETLW  C6
0015:  RETLW  A1
0016:  RETLW  86
0017:  RETLW  8E
*
0047:  MOVF   27,W
0048:  CLRF   78
0049:  SUBWF  26,W
004A:  BTFSC  03.0
004B:  GOTO   04F
004C:  MOVF   26,W
004D:  MOVWF  77
004E:  GOTO   05B
004F:  CLRF   77
0050:  MOVLW  08
0051:  MOVWF  28
0052:  RLF    26,F
0053:  RLF    77,F
0054:  MOVF   27,W
0055:  SUBWF  77,W
0056:  BTFSC  03.0
0057:  MOVWF  77
0058:  RLF    78,F
0059:  DECFSZ 28,F
005A:  GOTO   052
005B:  RETURN
....................  
.................... #list 
....................  
.................... #FUSES NOWDT, PUT, HS, NOPROTECT, NOLVP 
.................... #USE DELAY(CLOCK=20M) 
.................... #INCLUDE <E:\Youtube\Pic16F887\THU_VIEN\tv_4led_7doan.c> 
.................... #DEFINE CLK   PIN_D1 
.................... #DEFINE DS    PIN_D2 
.................... #DEFINE ST    PIN_D3 
....................  
.................... CONST UNSIGNED CHAR MA7DOAN[16]= {0XC0,0XF9,0xA4,0XB0,0X99,0X92,0X82,0XF8, 
.................... 0X80,0X90,0x88, 0x83, 0xC6, 0xA1, 0x86, 0x8E}; 
....................  
.................... //XUAT 1 BYTE RA THANH GHI DICH 
.................... //XXXXXXXXXXXXXXXXXXXXXXXXXXXXXXXXXXXXXXXXXXXX     
.................... VOID XUAT_1BYTE(UNSIGNED INT8 BYTEXUAT) 
.................... { 
....................    UNSIGNED INT8   SB,X;    
....................    #BIT BSERI  = X.7 
....................    X = BYTEXUAT; 
*
0018:  MOVF   2B,W
0019:  MOVWF  2D
....................    FOR (SB=0;SB<8;SB++) 
001A:  CLRF   2C
001B:  MOVF   2C,W
001C:  SUBLW  07
001D:  BTFSS  03.0
001E:  GOTO   031
....................       {                                                  
....................          OUTPUT_BIT(DS,BSERI);     
001F:  BTFSC  2D.7
0020:  GOTO   023
0021:  BCF    08.2
0022:  GOTO   024
0023:  BSF    08.2
0024:  BSF    03.5
0025:  BCF    08.2
....................          OUTPUT_LOW(CLK); OUTPUT_HIGH(CLK); 
0026:  BCF    08.1
0027:  BCF    03.5
0028:  BCF    08.1
0029:  BSF    03.5
002A:  BCF    08.1
002B:  BCF    03.5
002C:  BSF    08.1
....................          X= X<<1;          
002D:  BCF    03.0
002E:  RLF    2D,F
002F:  INCF   2C,F
0030:  GOTO   01B
....................      } 
0031:  RETURN
.................... } 
....................  
.................... //XXXXXXXXXXXXXXXXXXXXXXXXXXXXXXXXXXXXXXXXXXXXXXX 
.................... VOID XUAT_4LED_7DOAN_4SO(UNSIGNED INT BL1,BL2,BL3,BL4) 
.................... { 
....................    XUAT_1BYTE(BL4); 
0032:  MOVF   2A,W
0033:  MOVWF  2B
0034:  CALL   018
....................    XUAT_1BYTE(BL3); 
0035:  MOVF   29,W
0036:  MOVWF  2B
0037:  CALL   018
....................    XUAT_1BYTE(BL2); 
0038:  MOVF   28,W
0039:  MOVWF  2B
003A:  CALL   018
....................    XUAT_1BYTE(BL1); 
003B:  MOVF   27,W
003C:  MOVWF  2B
003D:  CALL   018
....................     
....................    OUTPUT_LOW(ST);      
003E:  BSF    03.5
003F:  BCF    08.3
0040:  BCF    03.5
0041:  BCF    08.3
....................    OUTPUT_HIGH(ST); 
0042:  BSF    03.5
0043:  BCF    08.3
0044:  BCF    03.5
0045:  BSF    08.3
0046:  RETURN
....................        
.................... } 
....................  
....................  
....................  
.................... #BIT  TMR1IF = 0X0C.0   //bien co tran 
....................  
....................  
.................... UNSIGNED INT8  GIAY,BDT,PHUT; 
....................  
.................... VOID MAIN() 
*
005C:  MOVF   03,W
005D:  ANDLW  1F
005E:  MOVWF  03
005F:  BSF    03.5
0060:  BSF    03.6
0061:  MOVF   09,W
0062:  ANDLW  C0
0063:  MOVWF  09
0064:  BCF    03.6
0065:  BCF    1F.4
0066:  BCF    1F.5
0067:  MOVLW  00
0068:  BSF    03.6
0069:  MOVWF  08
006A:  BCF    03.5
006B:  CLRF   07
006C:  CLRF   08
006D:  CLRF   09
006E:  BCF    03.7
.................... { 
....................    SET_TRIS_D(0X00); 
006F:  MOVLW  00
0070:  BSF    03.5
0071:  BCF    03.6
0072:  MOVWF  08
....................    GIAY=0; 
0073:  BCF    03.5
0074:  CLRF   20
....................    PHUT=0; 
0075:  CLRF   22
....................    BDT=0; 
0076:  CLRF   21
....................    XUAT_4LED_7DOAN_4SO(0XFF,0XFF,0XFF,0XFF); 
0077:  MOVLW  FF
0078:  MOVWF  27
0079:  MOVWF  28
007A:  MOVWF  29
007B:  MOVWF  2A
007C:  CALL   032
....................    SETUP_TIMER_1(T1_INTERNAL|T1_DIV_BY_8); 
007D:  MOVLW  35
007E:  MOVWF  10
....................    SET_TIMER1(3036); 
007F:  CLRF   0E
0080:  MOVLW  0B
0081:  MOVWF  0F
0082:  MOVLW  DC
0083:  MOVWF  0E
....................     
....................    WHILE(TRUE) 
....................    { 
....................       IF(TMR1IF==1) 
0084:  BTFSS  0C.0
0085:  GOTO   0C6
....................       { 
....................          TMR1IF=0; 
0086:  BCF    0C.0
....................          SET_TIMER1(3036); 
0087:  CLRF   0E
0088:  MOVLW  0B
0089:  MOVWF  0F
008A:  MOVLW  DC
008B:  MOVWF  0E
....................          BDT++; 
008C:  INCF   21,F
....................          XUAT_4LED_7DOAN_4SO(MA7DOAN[PHUT/10],MA7DOAN[PHUT%10],MA7DOAN[GIAY/10],MA7DOAN[GIAY%10]); 
008D:  MOVF   22,W
008E:  MOVWF  26
008F:  MOVLW  0A
0090:  MOVWF  27
0091:  CALL   047
0092:  MOVF   78,W
0093:  CALL   004
0094:  MOVWF  23
0095:  MOVF   22,W
0096:  MOVWF  26
0097:  MOVLW  0A
0098:  MOVWF  27
0099:  CALL   047
009A:  MOVF   77,W
009B:  CALL   004
009C:  MOVWF  24
009D:  MOVF   20,W
009E:  MOVWF  26
009F:  MOVLW  0A
00A0:  MOVWF  27
00A1:  CALL   047
00A2:  MOVF   78,W
00A3:  CALL   004
00A4:  MOVWF  25
00A5:  MOVF   20,W
00A6:  MOVWF  26
00A7:  MOVLW  0A
00A8:  MOVWF  27
00A9:  CALL   047
00AA:  MOVF   77,W
00AB:  CALL   004
00AC:  MOVWF  26
00AD:  MOVF   23,W
00AE:  MOVWF  27
00AF:  MOVF   24,W
00B0:  MOVWF  28
00B1:  MOVF   25,W
00B2:  MOVWF  29
00B3:  MOVF   26,W
00B4:  MOVWF  2A
00B5:  CALL   032
....................          IF(BDT==10) 
00B6:  MOVF   21,W
00B7:  SUBLW  0A
00B8:  BTFSS  03.2
00B9:  GOTO   0C6
....................          {   
....................              
....................             GIAY++; 
00BA:  INCF   20,F
....................             IF(GIAY==60) 
00BB:  MOVF   20,W
00BC:  SUBLW  3C
00BD:  BTFSS  03.2
00BE:  GOTO   0C5
....................             { 
....................                GIAY=0; 
00BF:  CLRF   20
....................                PHUT++; 
00C0:  INCF   22,F
....................                   IF(PHUT==60) 
00C1:  MOVF   22,W
00C2:  SUBLW  3C
00C3:  BTFSC  03.2
....................                   { 
....................                      PHUT=0; 
00C4:  CLRF   22
....................                   } 
....................                 
....................             } 
....................             BDT=0; 
00C5:  CLRF   21
....................          } 
....................       } 
00C6:  GOTO   084
....................    } 
.................... } 
00C7:  SLEEP

Configuration Fuses:
   Word  1: 2FE2   HS NOWDT PUT MCLR NOPROTECT NOCPD BROWNOUT IESO FCMEN NOLVP NODEBUG
   Word  2: 3FFF   BORV40 NOWRT
