004-005 @READ_PROGRAM_MEMORY8.P1
004-005 @WRITE_PROGRAM_MEMORY8.P2
015     CCP_1_LOW
015     CCP_1
016     CCP_1_HIGH
01B     CCP_2
01B     CCP_2_LOW
01C     CCP_2_HIGH
020     DV
021     CHUC
022     TRAM
023     NGAN
024-025 T1
026     @delay_ms1.P1
026     MAIN.@SCRATCH1
027     MAIN.@SCRATCH2
028-029 @DIV1616.P1
02A-02B @DIV1616.P1
02C     @DIV1616.@SCRATCH1
077     @SCRATCH
078     @SCRATCH
078     _RETURN_
079     @SCRATCH
07A     @SCRATCH
107.6   C1OUT
108.6   C2OUT
10D-10E @READ_PROGRAM_MEMORY8.P1
10D-10E @WRITE_PROGRAM_MEMORY8.P2

ROM Allocation:
000004  MA7DOAN.call
000008  MA7DOAN.data
000018  @DIV1616
00003D  @delay_ms1
000051  HIENTHI
000094  MAIN
000094  @cinit1
0000A6  @cinit2

Project Directory:
    E:\Youtube\Pic16F887\TIMER_COUNTER\COUNTER\COUNTER_LED_7DOAN_QUET_T1\

Project Files:
    COUNTER_LED_7DOAN_QUET_T1.c                             [17-Thg9-16 08:15  CRC=8E6E8266]
    C:\Program Files (x86)\PICC\devices\16F887.H            [12-Thg11-13 14:35  CRC=6CB1A611]

Source signature=67D1CE88

Units:
    COUNTER_LED_7DOAN_QUET_T1 (main)

Compiler Settings:
    Processor:      PIC16F887
    Pointer Size:   16
    ADC Range:      0-255
    Opt Level:      9
    Short,Int,Long: UNSIGNED: 1,8,16
    Float,Double:   32,32

Output Files:
    XREF file:   COUNTER_LED_7DOAN_QUET_T1.xsym
    Errors:      COUNTER_LED_7DOAN_QUET_T1.err
    Ext Symbols: COUNTER_LED_7DOAN_QUET_T1.esym
    INHX8:       COUNTER_LED_7DOAN_QUET_T1.hex
    Symbols:     COUNTER_LED_7DOAN_QUET_T1.sym
    List:        COUNTER_LED_7DOAN_QUET_T1.lst
    Debug/COFF:  COUNTER_LED_7DOAN_QUET_T1.cof
    Project:     COUNTER_LED_7DOAN_QUET_T1.ccspjt
    Call Tree:   COUNTER_LED_7DOAN_QUET_T1.tre
    Statistics:  COUNTER_LED_7DOAN_QUET_T1.STA
