004-005 @READ_PROGRAM_MEMORY8.P1
004     @WRITE_PROGRAM_MEMORY8.P2
015     CCP_1_LOW
015     CCP_1
016     CCP_1_HIGH
01B     CCP_2_LOW
01B     CCP_2
01C     CCP_2_HIGH
020     H
021     T
022     T1
023     LCD_COMMAND.MDK
023     @delay_ms1.P1
023     HIENTHI.@SCRATCH1
023     @PSTRINGC7_69.@SCRATCH1
024     @DIV88.P1
024     @PSTRINGC7_69.@SCRATCH2
025     @DIV88.P1
025     @PSTRINGC7_69.@SCRATCH3
026     LCD_DATA.MHT
026     @DIV88.@SCRATCH1
077     @SCRATCH
078     @SCRATCH
078     _RETURN_
079     @SCRATCH
07A     @SCRATCH
107.6   C1OUT
108.6   C2OUT
10D-10E @WRITE_PROGRAM_MEMORY8.P1
10D-10E @READ_PROGRAM_MEMORY8.P2

ROM Allocation:
0025  @delay_ms1
000B  LCD_COMMAND
0064  LCD_DATA
0039  LCD_SETUP
00DB  HIENTHI
00C6  @DIV88
0104  MAIN
0004  @const99
007E  @PSTRINGC7_69
0104  @cinit


User Memory space: 

User Memory space: 

Project Directory:
    E:\Youtube\TIMER_COUNTER\COUNTER\COUNTER_LCD_20X4_T1\

Project Files:
    COUNTER_LCD_20X4_T1.c
    C:\Program Files (x86)\PICC\devices\16F887.H
    ..\..\..\THU_VIEN\TV_LCD_20X4.c

Units:
    E:\Youtube\TIMER_COUNTER\COUNTER\COUNTER_LCD_20X4_T1\COUNTER_LCD_20X4_T1 (main)

Compiler Settings:
    Processor:      PIC16F887
    Pointer Size:   16
    ADC Range:      0-255
    Opt Level:      9
    Short,Int,Long: UNSIGNED: 1,8,16
    Float,Double:   32,32

Output Files:
    Errors:      COUNTER_LCD_20X4_T1.err
    Ext Symbols: COUNTER_LCD_20X4_T1.esym
    INHX8:       COUNTER_LCD_20X4_T1.hex
    Symbols:     COUNTER_LCD_20X4_T1.sym
    List:        COUNTER_LCD_20X4_T1.lst
    Debug/COFF:  COUNTER_LCD_20X4_T1.cof
    Project:     COUNTER_LCD_20X4_T1.PJT
    Call Tree:   COUNTER_LCD_20X4_T1.tre
    Statistics:  COUNTER_LCD_20X4_T1.sta
