004-005 @READ_PROGRAM_MEMORY8.P1
004-005 @WRITE_PROGRAM_MEMORY8.P2
00C.0   TMR1IF
015     CCP_1
015     CCP_1_LOW
016     CCP_1_HIGH
01B     CCP_2
01B     CCP_2_LOW
01C     CCP_2_HIGH
020     GIAY
021     BDT
022     PHUT
023     GIO
024     SAO
025     @DIV88.P1
025     @delay_ms1.P2
025     LCD_COMMAND.MDK
025     HIENTHI.@SCRATCH1
025     @PSTRINGC7_622.@SCRATCH1
025     MAIN.@SCRATCH1
026     @DIV88.P1
026     @PSTRINGC7_622.@SCRATCH2
027     @DIV88.@SCRATCH1
027     @PSTRINGC7_622.@SCRATCH3
028     LCD_DATA.MHT
028     @PSTRINGC7_622.@SCRATCH4
077     @SCRATCH
078     @SCRATCH
078     _RETURN_
079     @SCRATCH
07A     @SCRATCH
107.6   C1OUT
108.6   C2OUT
10D-10E @WRITE_PROGRAM_MEMORY8.P1
10D-10E @READ_PROGRAM_MEMORY8.P2

ROM Allocation:
000004  @const635.call
000005  @const637.call
000006  @const638.call
000007  @const642.call
000010  @const643.call
000016  LCD_COMMAND
000034  @delay_ms1
000048  LCD_SETUP
000069  LCD_DATA
000087  @PSTRINGC7_622
0000DD  @DIV88
0000F2  HIENTHI
00015D  MAIN
00015D  @cinit1
00016F  @cinit2

Project Directory:
    E:\Youtube\Pic16F887\TIMER_COUNTER\TIMER\LCD_16X2\

Project Files:
    TIMER_LCD_16X2.c                                        [15-Thg9-16 20:23  CRC=3B903AE8]
    C:\Program Files (x86)\PICC\devices\16F887.H            [12-Thg11-13 14:35  CRC=6CB1A611]
    ..\..\..\THU_VIEN\TV_LCD_16X2.c                         [06-Thg9-16 17:42  CRC=E30604EE]

Source signature=6E4DEAD5

Units:
    TIMER_LCD_16X2 (main)

Compiler Settings:
    Processor:      PIC16F887
    Pointer Size:   16
    ADC Range:      0-255
    Opt Level:      9
    Short,Int,Long: UNSIGNED: 1,8,16
    Float,Double:   32,32

Output Files:
    XREF file:   TIMER_LCD_16X2.xsym
    Errors:      TIMER_LCD_16X2.err
    Ext Symbols: TIMER_LCD_16X2.esym
    INHX8:       TIMER_LCD_16X2.hex
    Symbols:     TIMER_LCD_16X2.sym
    List:        TIMER_LCD_16X2.lst
    Debug/COFF:  TIMER_LCD_16X2.cof
    Project:     TIMER_LCD_16X2.ccspjt
    Call Tree:   TIMER_LCD_16X2.tre
    Statistics:  TIMER_LCD_16X2.STA
