:1000000001308A005D2900003A003A003A00C82A0F
:10001000592748104E24412A202A5527471000010D
:10002000D4233A102010201020100000831606114F
:10003000831206118316880183122508880083160F
:100040000610831206142030F700F70B2528282805
:10005000000083160610831206102030F700F70BFD
:100060002F28322800000800253084008313000860
:10007000031947280630F800F701F70B3D28F80B65
:100080003C287B30F700F70B4328800B3A28080008
:1000900083160610831206108316061183120611AA
:1000A00083168610831286103830A5001620013082
:1000B000A50034200F30A50016200130A500162021
:1000C0000230A50034200630A50016208A110A123D
:1000D0007B29831606118312061583168801831265
:1000E0002808880083160610831206142030F700B3
:1000F000F70B78287B280000831606108312061061
:100100002030F700F70B82288528000008000B0834
:10011000A5008B13831603178C170C140000000026
:1001200083120313A51B8B1703170C087F390319C0
:10013000DB280313A50003170D080313A6000317FC
:100140000F080313A7002508A80069202608031735
:100150008D000313270803178F0003130B08A80053
:100160008B13831603178C170C14000000008312E6
:100170000313A81B8B1703170C0D0E0D7F390319E2
:10018000DB280313A50003170D080313A6000317AC
:100190000F080313A7002508A800692026080317E5
:1001A0008D000313270803178F008D0A03198F0A88
:1001B000031387280317031308002608F8012502F4
:1001C0000318E5282508F700F128F7010830A700F3
:1001D000A50DF70D260877020318F700F80DA70BF9
:1001E000E8280800C530A50016202308A5000A301D
:1001F000A600DD2030307807A500A800692023087C
:10020000A5000A30A600DD2030307707A500A80041
:100210006920043003178D0000308F0003138720FE
:100220002208A5000A30A600DD2030307807A5009E
:10023000A80069202208A5000A30A600DD20303081
:100240007707A500A8006920053003178D0000304E
:100250008F00031387202008A5000A30A600DD20A8
:1002600030307807A500A80069202008A5000A30D2
:10027000A600DD2030307707A500A80069200630F1
:1002800003178D0000308F00031387202408A5007A
:100290000A30A600DD2030307807A500A8006920CC
:1002A0002408A5000A30A600DD2030307707A5001D
:1002B000A80069208A110A12A02903081F398300A7
:1002C000831603170908C039890003131F129F12F0
:1002D0000030031788008312870188018901831386
:1002E00000308316031388008312A001A201A3012A
:1002F000A101A40148288030A5001620073003176B
:100300008D0000308F0003138720C030A500162019
:10031000103003178D0000308F0003138720353015
:1003200090008E010B308F00DC308E000C1CBA293F
:100330000C108E010B308F00DC308E00A10AF228E9
:10034000210BBA29A40A24080A3C031DB929A401D7
:10035000A00A20083C3C031DB929A001A20A2208DA
:100360003C3C031DB929A201A30A2308183C031928
:08037000A301A101962963001D
:04400E00E22FFF3F5F
:00000001FF
;PIC16F887
;CRC=D530  CREATED="15-Thg9-16 20:23"
