CCS PCM C Compiler, Version 5.015, 5967               15-Thg9-16 20:23

               Filename:   E:\Youtube\Pic16F887\TIMER_COUNTER\TIMER\LCD_16X2\TIMER_LCD_16X2.lst

               ROM used:   444 words (5%)
                           Largest free fragment is 2048
               RAM used:   11 (3%) at main() level
                           14 (4%) worst case
               Stack used: 3 locations
               Stack size: 8

*
0000:  MOVLW  01
0001:  MOVWF  0A
0002:  GOTO   15D
0003:  NOP
.................... #INCLUDE <16F887.H> 
.................... //////////// Standard Header file for the PIC16F887 device //////////////// 
.................... /////////////////////////////////////////////////////////////////////////// 
.................... ////        (C) Copyright 1996, 2013 Custom Computer Services          //// 
.................... //// This source code may only be used by licensed users of the CCS C  //// 
.................... //// compiler.  This source code may only be distributed to other      //// 
.................... //// licensed users of the CCS C compiler.  No other use, reproduction //// 
.................... //// or distribution is permitted without written permission.          //// 
.................... //// Derivative programs created using this software in object code    //// 
.................... //// form are not restricted in any way.                               //// 
.................... /////////////////////////////////////////////////////////////////////////// 
.................... #device PIC16F887 
0004:  DATA 3A,00
0005:  DATA 3A,00
0006:  DATA 3A,00
0007:  DATA C8,2A
0008:  DATA 59,27
0009:  DATA 48,10
000A:  DATA 4E,24
000B:  DATA 41,2A
000C:  DATA 20,2A
000D:  DATA 55,27
000E:  DATA 47,10
000F:  DATA 00,01
0010:  DATA D4,23
0011:  DATA 3A,10
0012:  DATA 20,10
0013:  DATA 20,10
0014:  DATA 20,10
0015:  DATA 00,00
*
0087:  MOVF   0B,W
0088:  MOVWF  25
0089:  BCF    0B.7
008A:  BSF    03.5
008B:  BSF    03.6
008C:  BSF    0C.7
008D:  BSF    0C.0
008E:  NOP
008F:  NOP
0090:  BCF    03.5
0091:  BCF    03.6
0092:  BTFSC  25.7
0093:  BSF    0B.7
0094:  BSF    03.6
0095:  MOVF   0C,W
0096:  ANDLW  7F
0097:  BTFSC  03.2
0098:  GOTO   0DB
0099:  BCF    03.6
009A:  MOVWF  25
009B:  BSF    03.6
009C:  MOVF   0D,W
009D:  BCF    03.6
009E:  MOVWF  26
009F:  BSF    03.6
00A0:  MOVF   0F,W
00A1:  BCF    03.6
00A2:  MOVWF  27
00A3:  MOVF   25,W
00A4:  MOVWF  28
00A5:  CALL   069
00A6:  MOVF   26,W
00A7:  BSF    03.6
00A8:  MOVWF  0D
00A9:  BCF    03.6
00AA:  MOVF   27,W
00AB:  BSF    03.6
00AC:  MOVWF  0F
00AD:  BCF    03.6
00AE:  MOVF   0B,W
00AF:  MOVWF  28
00B0:  BCF    0B.7
00B1:  BSF    03.5
00B2:  BSF    03.6
00B3:  BSF    0C.7
00B4:  BSF    0C.0
00B5:  NOP
00B6:  NOP
00B7:  BCF    03.5
00B8:  BCF    03.6
00B9:  BTFSC  28.7
00BA:  BSF    0B.7
00BB:  BSF    03.6
00BC:  RLF    0C,W
00BD:  RLF    0E,W
00BE:  ANDLW  7F
00BF:  BTFSC  03.2
00C0:  GOTO   0DB
00C1:  BCF    03.6
00C2:  MOVWF  25
00C3:  BSF    03.6
00C4:  MOVF   0D,W
00C5:  BCF    03.6
00C6:  MOVWF  26
00C7:  BSF    03.6
00C8:  MOVF   0F,W
00C9:  BCF    03.6
00CA:  MOVWF  27
00CB:  MOVF   25,W
00CC:  MOVWF  28
00CD:  CALL   069
00CE:  MOVF   26,W
00CF:  BSF    03.6
00D0:  MOVWF  0D
00D1:  BCF    03.6
00D2:  MOVF   27,W
00D3:  BSF    03.6
00D4:  MOVWF  0F
00D5:  INCF   0D,F
00D6:  BTFSC  03.2
00D7:  INCF   0F,F
00D8:  BCF    03.6
00D9:  GOTO   087
00DA:  BSF    03.6
00DB:  BCF    03.6
00DC:  RETURN
00DD:  MOVF   26,W
00DE:  CLRF   78
00DF:  SUBWF  25,W
00E0:  BTFSC  03.0
00E1:  GOTO   0E5
00E2:  MOVF   25,W
00E3:  MOVWF  77
00E4:  GOTO   0F1
00E5:  CLRF   77
00E6:  MOVLW  08
00E7:  MOVWF  27
00E8:  RLF    25,F
00E9:  RLF    77,F
00EA:  MOVF   26,W
00EB:  SUBWF  77,W
00EC:  BTFSC  03.0
00ED:  MOVWF  77
00EE:  RLF    78,F
00EF:  DECFSZ 27,F
00F0:  GOTO   0E8
00F1:  RETURN
....................  
.................... #list 
....................  
.................... #FUSES NOWDT, PUT, HS, NOPROTECT, NOLVP 
.................... #USE DELAY(CLOCK=20M) 
*
0034:  MOVLW  25
0035:  MOVWF  04
0036:  BCF    03.7
0037:  MOVF   00,W
0038:  BTFSC  03.2
0039:  GOTO   047
003A:  MOVLW  06
003B:  MOVWF  78
003C:  CLRF   77
003D:  DECFSZ 77,F
003E:  GOTO   03D
003F:  DECFSZ 78,F
0040:  GOTO   03C
0041:  MOVLW  7B
0042:  MOVWF  77
0043:  DECFSZ 77,F
0044:  GOTO   043
0045:  DECFSZ 00,F
0046:  GOTO   03A
0047:  RETURN
.................... #INCLUDE <E:\Youtube\Pic16F887\THU_VIEN\TV_LCD_16X2.c> 
.................... #IFNDEF LCD_RS 
.................... #DEFINE LCD_RS   PIN_B2 
.................... #ENDIF 
....................  
.................... #IFNDEF LCD_RW 
.................... #DEFINE LCD_RW   PIN_B1 
.................... #ENDIF 
....................  
.................... #IFNDEF LCD_E 
.................... #DEFINE LCD_E   PIN_B0 
.................... #ENDIF 
....................  
.................... #IFNDEF OUTPUT_LCD 
.................... #DEFINE OUTPUT_LCD   OUTPUT_D 
.................... #ENDIF 
....................  
.................... #DEFINE FUNCTION_SET    0X38 
.................... #DEFINE DISPLAY_CONTROL 0X0F 
.................... #DEFINE CLEAR_DISPLAY   0X01 
.................... #DEFINE ENTRY_MODE      0X06 
.................... #DEFINE SHIFT_LEFT      0X18 
.................... #DEFINE SHIFT_RIGHT     0X1C 
.................... #DEFINE ADDR_LINE1      0X80 
.................... #DEFINE ADDR_LINE2      0XC0 
....................  
....................  
.................... //XXXXXXXXXXXXXXXXXXXX TRUYEN VI TRI CAN HIEN THI TREN LCD XXXXXXXXXXXXXXXXXXXXXXXXX 
.................... VOID LCD_COMMAND(UNSIGNED CHAR MDK) 
.................... { 
....................    OUTPUT_LOW(LCD_RS);     OUTPUT_LCD(MDK); 
*
0016:  BSF    03.5
0017:  BCF    06.2
0018:  BCF    03.5
0019:  BCF    06.2
001A:  BSF    03.5
001B:  CLRF   08
001C:  BCF    03.5
001D:  MOVF   25,W
001E:  MOVWF  08
....................    OUTPUT_HIGH(LCD_E);     DELAY_US(20); 
001F:  BSF    03.5
0020:  BCF    06.0
0021:  BCF    03.5
0022:  BSF    06.0
0023:  MOVLW  20
0024:  MOVWF  77
0025:  DECFSZ 77,F
0026:  GOTO   025
0027:  GOTO   028
0028:  NOP
....................    OUTPUT_LOW(LCD_E);      DELAY_US(20); 
0029:  BSF    03.5
002A:  BCF    06.0
002B:  BCF    03.5
002C:  BCF    06.0
002D:  MOVLW  20
002E:  MOVWF  77
002F:  DECFSZ 77,F
0030:  GOTO   02F
0031:  GOTO   032
0032:  NOP
0033:  RETURN
.................... } 
....................  
.................... //XXXXXXXXXXXXXXXXXXXXXX TRUYEN DU LIEU CAN HIEN THI RA LCD XXXXXXXXXXXXXXXXXXXXXX 
.................... VOID LCD_DATA(UNSIGNED CHAR MHT) 
.................... { 
....................    OUTPUT_HIGH(LCD_RS);     OUTPUT_LCD(MHT); 
*
0069:  BSF    03.5
006A:  BCF    06.2
006B:  BCF    03.5
006C:  BSF    06.2
006D:  BSF    03.5
006E:  CLRF   08
006F:  BCF    03.5
0070:  MOVF   28,W
0071:  MOVWF  08
....................    OUTPUT_HIGH(LCD_E);     DELAY_US(20); 
0072:  BSF    03.5
0073:  BCF    06.0
0074:  BCF    03.5
0075:  BSF    06.0
0076:  MOVLW  20
0077:  MOVWF  77
0078:  DECFSZ 77,F
0079:  GOTO   078
007A:  GOTO   07B
007B:  NOP
....................    OUTPUT_LOW(LCD_E);     DELAY_US(20); 
007C:  BSF    03.5
007D:  BCF    06.0
007E:  BCF    03.5
007F:  BCF    06.0
0080:  MOVLW  20
0081:  MOVWF  77
0082:  DECFSZ 77,F
0083:  GOTO   082
0084:  GOTO   085
0085:  NOP
0086:  RETURN
.................... } 
....................  
.................... //XXXXXXXXXXXXXXXXXXXXXXX CAI DAT LCD KHI KHOI TAO XXXXXXXXXXXXXXXXXXXXXXXXXXXXXXX 
.................... VOID LCD_SETUP() 
.................... { 
....................    OUTPUT_LOW(LCD_E);      
*
0048:  BSF    03.5
0049:  BCF    06.0
004A:  BCF    03.5
004B:  BCF    06.0
....................    OUTPUT_LOW(LCD_RS);      
004C:  BSF    03.5
004D:  BCF    06.2
004E:  BCF    03.5
004F:  BCF    06.2
....................    OUTPUT_LOW(LCD_RW); 
0050:  BSF    03.5
0051:  BCF    06.1
0052:  BCF    03.5
0053:  BCF    06.1
....................    LCD_COMMAND(FUNCTION_SET);    DELAY_MS(1); 
0054:  MOVLW  38
0055:  MOVWF  25
0056:  CALL   016
0057:  MOVLW  01
0058:  MOVWF  25
0059:  CALL   034
....................    LCD_COMMAND(DISPLAY_CONTROL); 
005A:  MOVLW  0F
005B:  MOVWF  25
005C:  CALL   016
....................     
....................    LCD_COMMAND(CLEAR_DISPLAY);   DELAY_MS(2); 
005D:  MOVLW  01
005E:  MOVWF  25
005F:  CALL   016
0060:  MOVLW  02
0061:  MOVWF  25
0062:  CALL   034
....................    LCD_COMMAND(ENTRY_MODE); 
0063:  MOVLW  06
0064:  MOVWF  25
0065:  CALL   016
0066:  BCF    0A.3
0067:  BCF    0A.4
0068:  GOTO   17B (RETURN)
....................     
.................... } 
....................  
....................  
.................... #BIT  TMR1IF = 0X0C.0   //bien co trn 
....................  
....................  
.................... UNSIGNED INT8  GIAY,BDT,PHUT,GIO,SAO; 
....................  
.................... VOID HIENTHI() 
.................... { 
....................    LCD_COMMAND(0XC5);         //dia chi  
*
00F2:  MOVLW  C5
00F3:  MOVWF  25
00F4:  CALL   016
....................    LCD_DATA(GIO/10 + 0X30); 
00F5:  MOVF   23,W
00F6:  MOVWF  25
00F7:  MOVLW  0A
00F8:  MOVWF  26
00F9:  CALL   0DD
00FA:  MOVLW  30
00FB:  ADDWF  78,W
00FC:  MOVWF  25
00FD:  MOVWF  28
00FE:  CALL   069
....................    LCD_DATA(GIO%10 + 0X30); 
00FF:  MOVF   23,W
0100:  MOVWF  25
0101:  MOVLW  0A
0102:  MOVWF  26
0103:  CALL   0DD
0104:  MOVLW  30
0105:  ADDWF  77,W
0106:  MOVWF  25
0107:  MOVWF  28
0108:  CALL   069
....................    LCD_DATA(":"); 
0109:  MOVLW  04
010A:  BSF    03.6
010B:  MOVWF  0D
010C:  MOVLW  00
010D:  MOVWF  0F
010E:  BCF    03.6
010F:  CALL   087
....................    LCD_DATA(PHUT/10 + 0X30); 
0110:  MOVF   22,W
0111:  MOVWF  25
0112:  MOVLW  0A
0113:  MOVWF  26
0114:  CALL   0DD
0115:  MOVLW  30
0116:  ADDWF  78,W
0117:  MOVWF  25
0118:  MOVWF  28
0119:  CALL   069
....................    LCD_DATA(PHUT%10 + 0X30); 
011A:  MOVF   22,W
011B:  MOVWF  25
011C:  MOVLW  0A
011D:  MOVWF  26
011E:  CALL   0DD
011F:  MOVLW  30
0120:  ADDWF  77,W
0121:  MOVWF  25
0122:  MOVWF  28
0123:  CALL   069
....................    LCD_DATA(":"); 
0124:  MOVLW  05
0125:  BSF    03.6
0126:  MOVWF  0D
0127:  MOVLW  00
0128:  MOVWF  0F
0129:  BCF    03.6
012A:  CALL   087
....................    LCD_DATA(GIAY/10 + 0X30); 
012B:  MOVF   20,W
012C:  MOVWF  25
012D:  MOVLW  0A
012E:  MOVWF  26
012F:  CALL   0DD
0130:  MOVLW  30
0131:  ADDWF  78,W
0132:  MOVWF  25
0133:  MOVWF  28
0134:  CALL   069
....................    LCD_DATA(GIAY%10 + 0X30); 
0135:  MOVF   20,W
0136:  MOVWF  25
0137:  MOVLW  0A
0138:  MOVWF  26
0139:  CALL   0DD
013A:  MOVLW  30
013B:  ADDWF  77,W
013C:  MOVWF  25
013D:  MOVWF  28
013E:  CALL   069
....................    LCD_DATA(":"); 
013F:  MOVLW  06
0140:  BSF    03.6
0141:  MOVWF  0D
0142:  MOVLW  00
0143:  MOVWF  0F
0144:  BCF    03.6
0145:  CALL   087
....................    LCD_DATA(SAO/10 + 0X30); 
0146:  MOVF   24,W
0147:  MOVWF  25
0148:  MOVLW  0A
0149:  MOVWF  26
014A:  CALL   0DD
014B:  MOVLW  30
014C:  ADDWF  78,W
014D:  MOVWF  25
014E:  MOVWF  28
014F:  CALL   069
....................    LCD_DATA(SAO%10 + 0X30); 
0150:  MOVF   24,W
0151:  MOVWF  25
0152:  MOVLW  0A
0153:  MOVWF  26
0154:  CALL   0DD
0155:  MOVLW  30
0156:  ADDWF  77,W
0157:  MOVWF  25
0158:  MOVWF  28
0159:  CALL   069
015A:  BCF    0A.3
015B:  BCF    0A.4
015C:  GOTO   1A0 (RETURN)
....................     
.................... } 
.................... VOID MAIN() 
015D:  MOVF   03,W
015E:  ANDLW  1F
015F:  MOVWF  03
0160:  BSF    03.5
0161:  BSF    03.6
0162:  MOVF   09,W
0163:  ANDLW  C0
0164:  MOVWF  09
0165:  BCF    03.6
0166:  BCF    1F.4
0167:  BCF    1F.5
0168:  MOVLW  00
0169:  BSF    03.6
016A:  MOVWF  08
016B:  BCF    03.5
016C:  CLRF   07
016D:  CLRF   08
016E:  CLRF   09
016F:  BCF    03.7
.................... { 
....................    SET_TRIS_D(0X00); 
0170:  MOVLW  00
0171:  BSF    03.5
0172:  BCF    03.6
0173:  MOVWF  08
....................   // SET_TRIS_B(0X00); 
....................    GIAY=0; 
0174:  BCF    03.5
0175:  CLRF   20
....................    PHUT=0; 
0176:  CLRF   22
....................    GIO=0; 
0177:  CLRF   23
....................    BDT=0; 
0178:  CLRF   21
....................    SAO=0; 
0179:  CLRF   24
....................     
....................    LCD_SETUP(); 
017A:  GOTO   048
....................    LCD_COMMAND(0X80); 
017B:  MOVLW  80
017C:  MOVWF  25
017D:  CALL   016
....................    LCD_DATA("HUYNH NHAT TUNG "); 
017E:  MOVLW  07
017F:  BSF    03.6
0180:  MOVWF  0D
0181:  MOVLW  00
0182:  MOVWF  0F
0183:  BCF    03.6
0184:  CALL   087
....................    LCD_COMMAND(0XC0); 
0185:  MOVLW  C0
0186:  MOVWF  25
0187:  CALL   016
....................    LCD_DATA("TG:       "); 
0188:  MOVLW  10
0189:  BSF    03.6
018A:  MOVWF  0D
018B:  MOVLW  00
018C:  MOVWF  0F
018D:  BCF    03.6
018E:  CALL   087
....................     
....................    SETUP_TIMER_1(T1_INTERNAL|T1_DIV_BY_8); 
018F:  MOVLW  35
0190:  MOVWF  10
....................    SET_TIMER1(3036); 
0191:  CLRF   0E
0192:  MOVLW  0B
0193:  MOVWF  0F
0194:  MOVLW  DC
0195:  MOVWF  0E
....................     
....................    WHILE(TRUE) 
....................    { 
....................       IF(TMR1IF==1) 
0196:  BTFSS  0C.0
0197:  GOTO   1BA
....................       { 
....................          TMR1IF=0; 
0198:  BCF    0C.0
....................          SET_TIMER1(3036); 
0199:  CLRF   0E
019A:  MOVLW  0B
019B:  MOVWF  0F
019C:  MOVLW  DC
019D:  MOVWF  0E
....................          BDT++; 
019E:  INCF   21,F
....................          HIENTHI(); 
019F:  GOTO   0F2
....................          IF(BDT==1) 
01A0:  DECFSZ 21,W
01A1:  GOTO   1BA
....................          {   
....................             SAO++; 
01A2:  INCF   24,F
....................             IF(SAO==10)       
01A3:  MOVF   24,W
01A4:  SUBLW  0A
01A5:  BTFSS  03.2
01A6:  GOTO   1B9
....................             { 
....................                SAO=0; 
01A7:  CLRF   24
....................                GIAY++; 
01A8:  INCF   20,F
....................                IF(GIAY==60) 
01A9:  MOVF   20,W
01AA:  SUBLW  3C
01AB:  BTFSS  03.2
01AC:  GOTO   1B9
....................                { 
....................                   GIAY=0; 
01AD:  CLRF   20
....................                   PHUT++; 
01AE:  INCF   22,F
....................                    
....................                      IF(PHUT==60) 
01AF:  MOVF   22,W
01B0:  SUBLW  3C
01B1:  BTFSS  03.2
01B2:  GOTO   1B9
....................                      { 
....................                         PHUT=0; 
01B3:  CLRF   22
....................                         GIO++; 
01B4:  INCF   23,F
....................                         IF(GIO==24)    
01B5:  MOVF   23,W
01B6:  SUBLW  18
01B7:  BTFSC  03.2
....................                         { 
....................                            GIO=0; 
01B8:  CLRF   23
....................                         } 
....................                      } 
....................                   
....................                } 
....................             } 
....................             BDT=0; 
01B9:  CLRF   21
....................          } 
....................       } 
01BA:  GOTO   196
....................    } 
.................... } 
....................  
01BB:  SLEEP

Configuration Fuses:
   Word  1: 2FE2   HS NOWDT PUT MCLR NOPROTECT NOCPD BROWNOUT IESO FCMEN NOLVP NODEBUG
   Word  2: 3FFF   BORV40 NOWRT
