004-005 @READ_PROGRAM_MEMORY8.P1
004-005 @WRITE_PROGRAM_MEMORY8.P2
015     CCP_1
015     CCP_1_LOW
016     CCP_1_HIGH
01B     CCP_2_LOW
01B     CCP_2
01C     CCP_2_HIGH
020     I
021-022 KQ
023-026 @SFTOI.P1
023     @delay_ms1.P2
023     MAIN.@SCRATCH1
024     MAIN.@SCRATCH2
025-028 @DIVFF.P1
025-026 @ITOF.P2
025     MAIN.@SCRATCH3
026-027 @DIV1616.P1
026     MAIN.@SCRATCH4
027     MAIN.@SCRATCH5
028-029 @DIV1616.P1
028     MAIN.@SCRATCH6
029-02C @DIVFF.P1
029     XUAT_4LED_7DOAN_4SO.BL1
02A     XUAT_4LED_7DOAN_4SO.BL2
02A     @DIV1616.@SCRATCH1
02B     XUAT_4LED_7DOAN_4SO.BL3
02C     XUAT_4LED_7DOAN_4SO.BL4
02D     XUAT_1BYTE.BYTEXUAT
02D     @DIVFF.@SCRATCH1
02E     XUAT_1BYTE.SB
02E     @DIVFF.@SCRATCH2
02F     XUAT_1BYTE.x
02F.7   XUAT_1BYTE.BSERI
02F     @DIVFF.@SCRATCH3
030     @DIVFF.@SCRATCH4
031     @DIVFF.@SCRATCH5
032     @DIVFF.@SCRATCH6
077     @SCRATCH
078     @SCRATCH
078     _RETURN_
079     @SCRATCH
07A     @SCRATCH
107.6   C1OUT
108.6   C2OUT
10D-10E @READ_PROGRAM_MEMORY8.P1
10D-10E @WRITE_PROGRAM_MEMORY8.P2

ROM Allocation:
000004  MA7DOAN.call
000008  MA7DOAN.data
000018  @delay_ms1
00002E  @DIV1616
000053  @ITOF
000072  @DIVFF
00013E  @SFTOI
00015F  XUAT_1BYTE
000179  XUAT_4LED_7DOAN_4SO
000190  MAIN
000190  @cinit1
0001A2  @cinit2

Project Directory:
    E:\Youtube\Pic16F887\ADC\ADC_LED_7DOAN_595\

Project Files:
    ADC_LED_7DOAN_595.c                                     [23-Thg8-16 17:20  CRC=0DA96BE4]
    C:\Program Files (x86)\PICC\devices\16F887.H            [12-Thg11-13 14:35  CRC=6CB1A611]
    ..\..\THU_VIEN\tv_4led_7doan.c                          [09-Thg7-16 11:47  CRC=91FAE863]

Source signature=9E50E2BB

Units:
    ADC_LED_7DOAN_595 (main)

Compiler Settings:
    Processor:      PIC16F887
    Pointer Size:   16
    ADC Range:      0-1023
    Opt Level:      9
    Short,Int,Long: UNSIGNED: 1,8,16
    Float,Double:   32,32

Output Files:
    XREF file:   ADC_LED_7DOAN_595.xsym
    Errors:      ADC_LED_7DOAN_595.err
    Ext Symbols: ADC_LED_7DOAN_595.esym
    INHX8:       ADC_LED_7DOAN_595.hex
    Symbols:     ADC_LED_7DOAN_595.sym
    List:        ADC_LED_7DOAN_595.lst
    Debug/COFF:  ADC_LED_7DOAN_595.cof
    Project:     ADC_LED_7DOAN_595.ccspjt
    Call Tree:   ADC_LED_7DOAN_595.tre
    Statistics:  ADC_LED_7DOAN_595.STA
